%!PS-Adobe-3.0 EPSF-3.0
%%Creator: (MATLAB, The Mathworks, Inc. Version 9.0.0.341360 \(R2016a\). Operating System: Linux)
%%Title: april27th/plots/robot-camera-calibration-error-vs-train-size.eps
%%CreationDate: 2016-05-03T20:32:03
%%Pages: (atend)
%%BoundingBox:    44    17   379   452
%%LanguageLevel: 3
%%EndComments
%%BeginProlog
%%BeginResource: procset (Apache XML Graphics Std ProcSet) 1.2 0
%%Version: 1.2 0
%%Copyright: (Copyright 2001-2003,2010 The Apache Software Foundation. License terms: http://www.apache.org/licenses/LICENSE-2.0)
/bd{bind def}bind def
/ld{load def}bd
/GR/grestore ld
/M/moveto ld
/LJ/setlinejoin ld
/C/curveto ld
/f/fill ld
/LW/setlinewidth ld
/GC/setgray ld
/t/show ld
/N/newpath ld
/CT/concat ld
/cp/closepath ld
/S/stroke ld
/L/lineto ld
/CC/setcmykcolor ld
/A/ashow ld
/GS/gsave ld
/RC/setrgbcolor ld
/RM/rmoveto ld
/ML/setmiterlimit ld
/re {4 2 roll M
1 index 0 rlineto
0 exch rlineto
neg 0 rlineto
cp } bd
/_ctm matrix def
/_tm matrix def
/BT { _ctm currentmatrix pop matrix _tm copy pop 0 0 moveto } bd
/ET { _ctm setmatrix } bd
/iTm { _ctm setmatrix _tm concat } bd
/Tm { _tm astore pop iTm 0 0 moveto } bd
/ux 0.0 def
/uy 0.0 def
/F {
  /Tp exch def
  /Tf exch def
  Tf findfont Tp scalefont setfont
  /cf Tf def  /cs Tp def
} bd
/ULS {currentpoint /uy exch def /ux exch def} bd
/ULE {
  /Tcx currentpoint pop def
  gsave
  newpath
  cf findfont cs scalefont dup
  /FontMatrix get 0 get /Ts exch def /FontInfo get dup
  /UnderlinePosition get Ts mul /To exch def
  /UnderlineThickness get Ts mul /Tt exch def
  ux uy To add moveto  Tcx uy To add lineto
  Tt setlinewidth stroke
  grestore
} bd
/OLE {
  /Tcx currentpoint pop def
  gsave
  newpath
  cf findfont cs scalefont dup
  /FontMatrix get 0 get /Ts exch def /FontInfo get dup
  /UnderlinePosition get Ts mul /To exch def
  /UnderlineThickness get Ts mul /Tt exch def
  ux uy To add cs add moveto Tcx uy To add cs add lineto
  Tt setlinewidth stroke
  grestore
} bd
/SOE {
  /Tcx currentpoint pop def
  gsave
  newpath
  cf findfont cs scalefont dup
  /FontMatrix get 0 get /Ts exch def /FontInfo get dup
  /UnderlinePosition get Ts mul /To exch def
  /UnderlineThickness get Ts mul /Tt exch def
  ux uy To add cs 10 mul 26 idiv add moveto Tcx uy To add cs 10 mul 26 idiv add lineto
  Tt setlinewidth stroke
  grestore
} bd
/QT {
/Y22 exch store
/X22 exch store
/Y21 exch store
/X21 exch store
currentpoint
/Y21 load 2 mul add 3 div exch
/X21 load 2 mul add 3 div exch
/X21 load 2 mul /X22 load add 3 div
/Y21 load 2 mul /Y22 load add 3 div
/X22 load /Y22 load curveto
} bd
/SSPD {
dup length /d exch dict def
{
/v exch def
/k exch def
currentpagedevice k known {
/cpdv currentpagedevice k get def
v cpdv ne {
/upd false def
/nullv v type /nulltype eq def
/nullcpdv cpdv type /nulltype eq def
nullv nullcpdv or
{
/upd true def
} {
/sametype v type cpdv type eq def
sametype {
v type /arraytype eq {
/vlen v length def
/cpdvlen cpdv length def
vlen cpdvlen eq {
0 1 vlen 1 sub {
/i exch def
/obj v i get def
/cpdobj cpdv i get def
obj cpdobj ne {
/upd true def
exit
} if
} for
} {
/upd true def
} ifelse
} {
v type /dicttype eq {
v {
/dv exch def
/dk exch def
/cpddv cpdv dk get def
dv cpddv ne {
/upd true def
exit
} if
} forall
} {
/upd true def
} ifelse
} ifelse
} if
} ifelse
upd true eq {
d k v put
} if
} if
} if
} forall
d length 0 gt {
d setpagedevice
} if
} bd
%%EndResource
%%BeginResource: procset (Apache XML Graphics EPS ProcSet) 1.0 0
%%Version: 1.0 0
%%Copyright: (Copyright 2002-2003 The Apache Software Foundation. License terms: http://www.apache.org/licenses/LICENSE-2.0)
/BeginEPSF { %def
/b4_Inc_state save def         % Save state for cleanup
/dict_count countdictstack def % Count objects on dict stack
/op_count count 1 sub def      % Count objects on operand stack
userdict begin                 % Push userdict on dict stack
/showpage { } def              % Redefine showpage, { } = null proc
0 setgray 0 setlinecap         % Prepare graphics state
1 setlinewidth 0 setlinejoin
10 setmiterlimit [ ] 0 setdash newpath
/languagelevel where           % If level not equal to 1 then
{pop languagelevel             % set strokeadjust and
1 ne                           % overprint to their defaults.
{false setstrokeadjust false setoverprint
} if
} if
} bd
/EndEPSF { %def
count op_count sub {pop} repeat            % Clean up stacks
countdictstack dict_count sub {end} repeat
b4_Inc_state restore
} bd
%%EndResource
%FOPBeginFontDict
%%IncludeResource: font Courier-Bold
%%IncludeResource: font Helvetica
%%IncludeResource: font Courier-BoldOblique
%%IncludeResource: font Courier-Oblique
%%IncludeResource: font Times-Roman
%%IncludeResource: font Helvetica-BoldOblique
%%IncludeResource: font Helvetica-Bold
%%IncludeResource: font Helvetica-Oblique
%%IncludeResource: font Times-BoldItalic
%%IncludeResource: font Courier
%%IncludeResource: font Times-Italic
%%IncludeResource: font Times-Bold
%%IncludeResource: font Symbol
%%IncludeResource: font ZapfDingbats
%FOPEndFontDict
%%BeginResource: encoding WinAnsiEncoding
/WinAnsiEncoding [
/.notdef /.notdef /.notdef /.notdef /.notdef
/.notdef /.notdef /.notdef /.notdef /.notdef
/.notdef /.notdef /.notdef /.notdef /.notdef
/.notdef /.notdef /.notdef /.notdef /.notdef
/.notdef /.notdef /.notdef /.notdef /.notdef
/.notdef /.notdef /.notdef /.notdef /.notdef
/.notdef /.notdef /space /exclam /quotedbl
/numbersign /dollar /percent /ampersand /quotesingle
/parenleft /parenright /asterisk /plus /comma
/hyphen /period /slash /zero /one
/two /three /four /five /six
/seven /eight /nine /colon /semicolon
/less /equal /greater /question /at
/A /B /C /D /E
/F /G /H /I /J
/K /L /M /N /O
/P /Q /R /S /T
/U /V /W /X /Y
/Z /bracketleft /backslash /bracketright /asciicircum
/underscore /quoteleft /a /b /c
/d /e /f /g /h
/i /j /k /l /m
/n /o /p /q /r
/s /t /u /v /w
/x /y /z /braceleft /bar
/braceright /asciitilde /bullet /Euro /bullet
/quotesinglbase /florin /quotedblbase /ellipsis /dagger
/daggerdbl /circumflex /perthousand /Scaron /guilsinglleft
/OE /bullet /Zcaron /bullet /bullet
/quoteleft /quoteright /quotedblleft /quotedblright /bullet
/endash /emdash /asciitilde /trademark /scaron
/guilsinglright /oe /bullet /zcaron /Ydieresis
/space /exclamdown /cent /sterling /currency
/yen /brokenbar /section /dieresis /copyright
/ordfeminine /guillemotleft /logicalnot /sfthyphen /registered
/macron /degree /plusminus /twosuperior /threesuperior
/acute /mu /paragraph /middot /cedilla
/onesuperior /ordmasculine /guillemotright /onequarter /onehalf
/threequarters /questiondown /Agrave /Aacute /Acircumflex
/Atilde /Adieresis /Aring /AE /Ccedilla
/Egrave /Eacute /Ecircumflex /Edieresis /Igrave
/Iacute /Icircumflex /Idieresis /Eth /Ntilde
/Ograve /Oacute /Ocircumflex /Otilde /Odieresis
/multiply /Oslash /Ugrave /Uacute /Ucircumflex
/Udieresis /Yacute /Thorn /germandbls /agrave
/aacute /acircumflex /atilde /adieresis /aring
/ae /ccedilla /egrave /eacute /ecircumflex
/edieresis /igrave /iacute /icircumflex /idieresis
/eth /ntilde /ograve /oacute /ocircumflex
/otilde /odieresis /divide /oslash /ugrave
/uacute /ucircumflex /udieresis /yacute /thorn
/ydieresis
] def
%%EndResource
%FOPBeginFontReencode
/Courier-Bold findfont
dup length dict begin
  {1 index /FID ne {def} {pop pop} ifelse} forall
  /Encoding WinAnsiEncoding def
  currentdict
end
/Courier-Bold exch definefont pop
/Helvetica findfont
dup length dict begin
  {1 index /FID ne {def} {pop pop} ifelse} forall
  /Encoding WinAnsiEncoding def
  currentdict
end
/Helvetica exch definefont pop
/Courier-BoldOblique findfont
dup length dict begin
  {1 index /FID ne {def} {pop pop} ifelse} forall
  /Encoding WinAnsiEncoding def
  currentdict
end
/Courier-BoldOblique exch definefont pop
/Courier-Oblique findfont
dup length dict begin
  {1 index /FID ne {def} {pop pop} ifelse} forall
  /Encoding WinAnsiEncoding def
  currentdict
end
/Courier-Oblique exch definefont pop
/Times-Roman findfont
dup length dict begin
  {1 index /FID ne {def} {pop pop} ifelse} forall
  /Encoding WinAnsiEncoding def
  currentdict
end
/Times-Roman exch definefont pop
/Helvetica-BoldOblique findfont
dup length dict begin
  {1 index /FID ne {def} {pop pop} ifelse} forall
  /Encoding WinAnsiEncoding def
  currentdict
end
/Helvetica-BoldOblique exch definefont pop
/Helvetica-Bold findfont
dup length dict begin
  {1 index /FID ne {def} {pop pop} ifelse} forall
  /Encoding WinAnsiEncoding def
  currentdict
end
/Helvetica-Bold exch definefont pop
/Helvetica-Oblique findfont
dup length dict begin
  {1 index /FID ne {def} {pop pop} ifelse} forall
  /Encoding WinAnsiEncoding def
  currentdict
end
/Helvetica-Oblique exch definefont pop
/Times-BoldItalic findfont
dup length dict begin
  {1 index /FID ne {def} {pop pop} ifelse} forall
  /Encoding WinAnsiEncoding def
  currentdict
end
/Times-BoldItalic exch definefont pop
/Courier findfont
dup length dict begin
  {1 index /FID ne {def} {pop pop} ifelse} forall
  /Encoding WinAnsiEncoding def
  currentdict
end
/Courier exch definefont pop
/Times-Italic findfont
dup length dict begin
  {1 index /FID ne {def} {pop pop} ifelse} forall
  /Encoding WinAnsiEncoding def
  currentdict
end
/Times-Italic exch definefont pop
/Times-Bold findfont
dup length dict begin
  {1 index /FID ne {def} {pop pop} ifelse} forall
  /Encoding WinAnsiEncoding def
  currentdict
end
/Times-Bold exch definefont pop
%FOPEndFontReencode
%%EndProlog
%%Page: 1 1
%%PageBoundingBox: 0 0 420 472
%%BeginPageSetup
[1 0 0 -1 0 472] CT
%%EndPageSetup
GS
[0.5035 0 0 0.5035 0 -0.27972] CT
1 GC
N
0 0 834 938 re
f
GR
GS
[0.5035 0 0 0.5035 0 -0.27972] CT
1 GC
N
0 0 834 938 re
f
GR
GS
[0.5035 0 0 0.5035 0 -0.27972] CT
1 GC
N
157.833 844 M
751.167 844 L
751.167 488 L
157.833 488 L
cp
f
GR
GS
[0.5035 0 0 0.5035 0 -0.27972] CT
0.775 GC
[1 3] 0 setdash
2 LJ
0.993 LW
N
166.689 844 M
166.689 488 L
S
GR
GS
[0.5035 0 0 0.5035 0 -0.27972] CT
0.775 GC
[1 3] 0 setdash
2 LJ
0.993 LW
N
177.759 844 M
177.759 488 L
S
GR
GS
[0.5035 0 0 0.5035 0 -0.27972] CT
0.775 GC
[1 3] 0 setdash
2 LJ
0.993 LW
N
188.828 844 M
188.828 488 L
S
GR
GS
[0.5035 0 0 0.5035 0 -0.27972] CT
0.775 GC
[1 3] 0 setdash
2 LJ
0.993 LW
N
210.968 844 M
210.968 488 L
S
GR
GS
[0.5035 0 0 0.5035 0 -0.27972] CT
0.775 GC
[1 3] 0 setdash
2 LJ
0.993 LW
N
222.037 844 M
222.037 488 L
S
GR
GS
[0.5035 0 0 0.5035 0 -0.27972] CT
0.775 GC
[1 3] 0 setdash
2 LJ
0.993 LW
N
233.107 844 M
233.107 488 L
S
GR
GS
[0.5035 0 0 0.5035 0 -0.27972] CT
0.775 GC
[1 3] 0 setdash
2 LJ
0.993 LW
N
244.177 844 M
244.177 488 L
S
GR
GS
[0.5035 0 0 0.5035 0 -0.27972] CT
0.775 GC
[1 3] 0 setdash
2 LJ
0.993 LW
N
255.246 844 M
255.246 488 L
S
GR
GS
[0.5035 0 0 0.5035 0 -0.27972] CT
0.775 GC
[1 3] 0 setdash
2 LJ
0.993 LW
N
266.316 844 M
266.316 488 L
S
GR
GS
[0.5035 0 0 0.5035 0 -0.27972] CT
0.775 GC
[1 3] 0 setdash
2 LJ
0.993 LW
N
277.386 844 M
277.386 488 L
S
GR
GS
[0.5035 0 0 0.5035 0 -0.27972] CT
0.775 GC
[1 3] 0 setdash
2 LJ
0.993 LW
N
288.455 844 M
288.455 488 L
S
GR
GS
[0.5035 0 0 0.5035 0 -0.27972] CT
0.775 GC
[1 3] 0 setdash
2 LJ
0.993 LW
N
299.525 844 M
299.525 488 L
S
GR
GS
[0.5035 0 0 0.5035 0 -0.27972] CT
0.775 GC
[1 3] 0 setdash
2 LJ
0.993 LW
N
321.664 844 M
321.664 488 L
S
GR
GS
[0.5035 0 0 0.5035 0 -0.27972] CT
0.775 GC
[1 3] 0 setdash
2 LJ
0.993 LW
N
332.734 844 M
332.734 488 L
S
GR
GS
[0.5035 0 0 0.5035 0 -0.27972] CT
0.775 GC
[1 3] 0 setdash
2 LJ
0.993 LW
N
343.803 844 M
343.803 488 L
S
GR
GS
[0.5035 0 0 0.5035 0 -0.27972] CT
0.775 GC
[1 3] 0 setdash
2 LJ
0.993 LW
N
354.873 844 M
354.873 488 L
S
GR
GS
[0.5035 0 0 0.5035 0 -0.27972] CT
0.775 GC
[1 3] 0 setdash
2 LJ
0.993 LW
N
365.943 844 M
365.943 488 L
S
GR
GS
[0.5035 0 0 0.5035 0 -0.27972] CT
0.775 GC
[1 3] 0 setdash
2 LJ
0.993 LW
N
377.012 844 M
377.012 488 L
S
GR
GS
[0.5035 0 0 0.5035 0 -0.27972] CT
0.775 GC
[1 3] 0 setdash
2 LJ
0.993 LW
N
388.082 844 M
388.082 488 L
S
GR
GS
[0.5035 0 0 0.5035 0 -0.27972] CT
0.775 GC
[1 3] 0 setdash
2 LJ
0.993 LW
N
399.152 844 M
399.152 488 L
S
GR
GS
[0.5035 0 0 0.5035 0 -0.27972] CT
0.775 GC
[1 3] 0 setdash
2 LJ
0.993 LW
N
410.221 844 M
410.221 488 L
S
GR
GS
[0.5035 0 0 0.5035 0 -0.27972] CT
0.775 GC
[1 3] 0 setdash
2 LJ
0.993 LW
N
432.361 844 M
432.361 488 L
S
GR
GS
[0.5035 0 0 0.5035 0 -0.27972] CT
0.775 GC
[1 3] 0 setdash
2 LJ
0.993 LW
N
443.43 844 M
443.43 488 L
S
GR
GS
[0.5035 0 0 0.5035 0 -0.27972] CT
0.775 GC
[1 3] 0 setdash
2 LJ
0.993 LW
N
454.5 844 M
454.5 488 L
S
GR
GS
[0.5035 0 0 0.5035 0 -0.27972] CT
0.775 GC
[1 3] 0 setdash
2 LJ
0.993 LW
N
465.57 844 M
465.57 488 L
S
GR
GS
[0.5035 0 0 0.5035 0 -0.27972] CT
0.775 GC
[1 3] 0 setdash
2 LJ
0.993 LW
N
476.639 844 M
476.639 488 L
S
GR
GS
[0.5035 0 0 0.5035 0 -0.27972] CT
0.775 GC
[1 3] 0 setdash
2 LJ
0.993 LW
N
487.709 844 M
487.709 488 L
S
GR
GS
[0.5035 0 0 0.5035 0 -0.27972] CT
0.775 GC
[1 3] 0 setdash
2 LJ
0.993 LW
N
498.779 844 M
498.779 488 L
S
GR
GS
[0.5035 0 0 0.5035 0 -0.27972] CT
0.775 GC
[1 3] 0 setdash
2 LJ
0.993 LW
N
509.848 844 M
509.848 488 L
S
GR
GS
[0.5035 0 0 0.5035 0 -0.27972] CT
0.775 GC
[1 3] 0 setdash
2 LJ
0.993 LW
N
520.918 844 M
520.918 488 L
S
GR
GS
[0.5035 0 0 0.5035 0 -0.27972] CT
0.775 GC
[1 3] 0 setdash
2 LJ
0.993 LW
N
543.057 844 M
543.057 488 L
S
GR
GS
[0.5035 0 0 0.5035 0 -0.27972] CT
0.775 GC
[1 3] 0 setdash
2 LJ
0.993 LW
N
554.127 844 M
554.127 488 L
S
GR
GS
[0.5035 0 0 0.5035 0 -0.27972] CT
0.775 GC
[1 3] 0 setdash
2 LJ
0.993 LW
N
565.197 844 M
565.197 488 L
S
GR
GS
[0.5035 0 0 0.5035 0 -0.27972] CT
0.775 GC
[1 3] 0 setdash
2 LJ
0.993 LW
N
576.266 844 M
576.266 488 L
S
GR
GS
[0.5035 0 0 0.5035 0 -0.27972] CT
0.775 GC
[1 3] 0 setdash
2 LJ
0.993 LW
N
587.336 844 M
587.336 488 L
S
GR
GS
[0.5035 0 0 0.5035 0 -0.27972] CT
0.775 GC
[1 3] 0 setdash
2 LJ
0.993 LW
N
598.405 844 M
598.405 488 L
S
GR
GS
[0.5035 0 0 0.5035 0 -0.27972] CT
0.775 GC
[1 3] 0 setdash
2 LJ
0.993 LW
N
609.475 844 M
609.475 488 L
S
GR
GS
[0.5035 0 0 0.5035 0 -0.27972] CT
0.775 GC
[1 3] 0 setdash
2 LJ
0.993 LW
N
620.545 844 M
620.545 488 L
S
GR
GS
[0.5035 0 0 0.5035 0 -0.27972] CT
0.775 GC
[1 3] 0 setdash
2 LJ
0.993 LW
N
631.614 844 M
631.614 488 L
S
GR
GS
[0.5035 0 0 0.5035 0 -0.27972] CT
0.775 GC
[1 3] 0 setdash
2 LJ
0.993 LW
N
653.754 844 M
653.754 488 L
S
GR
GS
[0.5035 0 0 0.5035 0 -0.27972] CT
0.775 GC
[1 3] 0 setdash
2 LJ
0.993 LW
N
664.823 844 M
664.823 488 L
S
GR
GS
[0.5035 0 0 0.5035 0 -0.27972] CT
0.775 GC
[1 3] 0 setdash
2 LJ
0.993 LW
N
675.893 844 M
675.893 488 L
S
GR
GS
[0.5035 0 0 0.5035 0 -0.27972] CT
0.775 GC
[1 3] 0 setdash
2 LJ
0.993 LW
N
686.963 844 M
686.963 488 L
S
GR
GS
[0.5035 0 0 0.5035 0 -0.27972] CT
0.775 GC
[1 3] 0 setdash
2 LJ
0.993 LW
N
698.032 844 M
698.032 488 L
S
GR
GS
[0.5035 0 0 0.5035 0 -0.27972] CT
0.775 GC
[1 3] 0 setdash
2 LJ
0.993 LW
N
709.102 844 M
709.102 488 L
S
GR
GS
[0.5035 0 0 0.5035 0 -0.27972] CT
0.775 GC
[1 3] 0 setdash
2 LJ
0.993 LW
N
720.172 844 M
720.172 488 L
S
GR
GS
[0.5035 0 0 0.5035 0 -0.27972] CT
0.775 GC
[1 3] 0 setdash
2 LJ
0.993 LW
N
731.241 844 M
731.241 488 L
S
GR
GS
[0.5035 0 0 0.5035 0 -0.27972] CT
0.775 GC
[1 3] 0 setdash
2 LJ
0.993 LW
N
742.311 844 M
742.311 488 L
S
GR
GS
[0.5035 0 0 0.5035 0 -0.27972] CT
0.873 GC
1 LJ
0.993 LW
N
199.898 844 M
199.898 488 L
S
GR
GS
[0.5035 0 0 0.5035 0 -0.27972] CT
0.873 GC
1 LJ
0.993 LW
N
310.595 844 M
310.595 488 L
S
GR
GS
[0.5035 0 0 0.5035 0 -0.27972] CT
0.873 GC
1 LJ
0.993 LW
N
421.291 844 M
421.291 488 L
S
GR
GS
[0.5035 0 0 0.5035 0 -0.27972] CT
0.873 GC
1 LJ
0.993 LW
N
531.988 844 M
531.988 488 L
S
GR
GS
[0.5035 0 0 0.5035 0 -0.27972] CT
0.873 GC
1 LJ
0.993 LW
N
642.684 844 M
642.684 488 L
S
GR
GS
[0.5035 0 0 0.5035 0 -0.27972] CT
0.775 GC
[1 3] 0 setdash
2 LJ
0.993 LW
N
751.167 832.875 M
157.833 832.875 L
S
GR
GS
[0.5035 0 0 0.5035 0 -0.27972] CT
0.775 GC
[1 3] 0 setdash
2 LJ
0.993 LW
N
751.167 821.75 M
157.833 821.75 L
S
GR
GS
[0.5035 0 0 0.5035 0 -0.27972] CT
0.775 GC
[1 3] 0 setdash
2 LJ
0.993 LW
N
751.167 810.625 M
157.833 810.625 L
S
GR
GS
[0.5035 0 0 0.5035 0 -0.27972] CT
0.775 GC
[1 3] 0 setdash
2 LJ
0.993 LW
N
751.167 788.375 M
157.833 788.375 L
S
GR
GS
[0.5035 0 0 0.5035 0 -0.27972] CT
0.775 GC
[1 3] 0 setdash
2 LJ
0.993 LW
N
751.167 777.25 M
157.833 777.25 L
S
GR
GS
[0.5035 0 0 0.5035 0 -0.27972] CT
0.775 GC
[1 3] 0 setdash
2 LJ
0.993 LW
N
751.167 766.125 M
157.833 766.125 L
S
GR
GS
[0.5035 0 0 0.5035 0 -0.27972] CT
0.775 GC
[1 3] 0 setdash
2 LJ
0.993 LW
N
751.167 743.875 M
157.833 743.875 L
S
GR
GS
[0.5035 0 0 0.5035 0 -0.27972] CT
0.775 GC
[1 3] 0 setdash
2 LJ
0.993 LW
N
751.167 732.75 M
157.833 732.75 L
S
GR
GS
[0.5035 0 0 0.5035 0 -0.27972] CT
0.775 GC
[1 3] 0 setdash
2 LJ
0.993 LW
N
751.167 721.625 M
157.833 721.625 L
S
GR
GS
[0.5035 0 0 0.5035 0 -0.27972] CT
0.775 GC
[1 3] 0 setdash
2 LJ
0.993 LW
N
751.167 699.375 M
157.833 699.375 L
S
GR
GS
[0.5035 0 0 0.5035 0 -0.27972] CT
0.775 GC
[1 3] 0 setdash
2 LJ
0.993 LW
N
751.167 688.25 M
157.833 688.25 L
S
GR
GS
[0.5035 0 0 0.5035 0 -0.27972] CT
0.775 GC
[1 3] 0 setdash
2 LJ
0.993 LW
N
751.167 677.125 M
157.833 677.125 L
S
GR
GS
[0.5035 0 0 0.5035 0 -0.27972] CT
0.775 GC
[1 3] 0 setdash
2 LJ
0.993 LW
N
751.167 654.875 M
157.833 654.875 L
S
GR
GS
[0.5035 0 0 0.5035 0 -0.27972] CT
0.775 GC
[1 3] 0 setdash
2 LJ
0.993 LW
N
751.167 643.75 M
157.833 643.75 L
S
GR
GS
[0.5035 0 0 0.5035 0 -0.27972] CT
0.775 GC
[1 3] 0 setdash
2 LJ
0.993 LW
N
751.167 632.625 M
157.833 632.625 L
S
GR
GS
[0.5035 0 0 0.5035 0 -0.27972] CT
0.775 GC
[1 3] 0 setdash
2 LJ
0.993 LW
N
751.167 610.375 M
157.833 610.375 L
S
GR
GS
[0.5035 0 0 0.5035 0 -0.27972] CT
0.775 GC
[1 3] 0 setdash
2 LJ
0.993 LW
N
751.167 599.25 M
157.833 599.25 L
S
GR
GS
[0.5035 0 0 0.5035 0 -0.27972] CT
0.775 GC
[1 3] 0 setdash
2 LJ
0.993 LW
N
751.167 588.125 M
157.833 588.125 L
S
GR
GS
[0.5035 0 0 0.5035 0 -0.27972] CT
0.775 GC
[1 3] 0 setdash
2 LJ
0.993 LW
N
751.167 565.875 M
157.833 565.875 L
S
GR
GS
[0.5035 0 0 0.5035 0 -0.27972] CT
0.775 GC
[1 3] 0 setdash
2 LJ
0.993 LW
N
751.167 554.75 M
157.833 554.75 L
S
GR
GS
[0.5035 0 0 0.5035 0 -0.27972] CT
0.775 GC
[1 3] 0 setdash
2 LJ
0.993 LW
N
751.167 543.625 M
157.833 543.625 L
S
GR
GS
[0.5035 0 0 0.5035 0 -0.27972] CT
0.775 GC
[1 3] 0 setdash
2 LJ
0.993 LW
N
751.167 521.375 M
157.833 521.375 L
S
GR
GS
[0.5035 0 0 0.5035 0 -0.27972] CT
0.775 GC
[1 3] 0 setdash
2 LJ
0.993 LW
N
751.167 510.25 M
157.833 510.25 L
S
GR
GS
[0.5035 0 0 0.5035 0 -0.27972] CT
0.775 GC
[1 3] 0 setdash
2 LJ
0.993 LW
N
751.167 499.125 M
157.833 499.125 L
S
GR
GS
[0.5035 0 0 0.5035 0 -0.27972] CT
0.873 GC
1 LJ
0.993 LW
N
751.167 844 M
157.833 844 L
S
GR
GS
[0.5035 0 0 0.5035 0 -0.27972] CT
0.873 GC
1 LJ
0.993 LW
N
751.167 799.5 M
157.833 799.5 L
S
GR
GS
[0.5035 0 0 0.5035 0 -0.27972] CT
0.873 GC
1 LJ
0.993 LW
N
751.167 755 M
157.833 755 L
S
GR
GS
[0.5035 0 0 0.5035 0 -0.27972] CT
0.873 GC
1 LJ
0.993 LW
N
751.167 710.5 M
157.833 710.5 L
S
GR
GS
[0.5035 0 0 0.5035 0 -0.27972] CT
0.873 GC
1 LJ
0.993 LW
N
751.167 666 M
157.833 666 L
S
GR
GS
[0.5035 0 0 0.5035 0 -0.27972] CT
0.873 GC
1 LJ
0.993 LW
N
751.167 621.5 M
157.833 621.5 L
S
GR
GS
[0.5035 0 0 0.5035 0 -0.27972] CT
0.873 GC
1 LJ
0.993 LW
N
751.167 577 M
157.833 577 L
S
GR
GS
[0.5035 0 0 0.5035 0 -0.27972] CT
0.873 GC
1 LJ
0.993 LW
N
751.167 532.5 M
157.833 532.5 L
S
GR
GS
[0.5035 0 0 0.5035 0 -0.27972] CT
0.873 GC
1 LJ
0.993 LW
N
751.167 488 M
157.833 488 L
S
GR
GS
[0.5035 0 0 0.5035 0 -0.27972] CT
0.149 GC
2 setlinecap
1 LJ
0.993 LW
N
157.833 844 M
751.167 844 L
S
GR
GS
[0.5035 0 0 0.5035 0 -0.27972] CT
0.149 GC
2 setlinecap
1 LJ
0.993 LW
N
157.833 488 M
751.167 488 L
S
GR
GS
[0.5035 0 0 0.5035 0 -0.27972] CT
0.149 GC
2 setlinecap
1 LJ
0.993 LW
N
199.898 844 M
199.898 838.067 L
S
GR
GS
[0.5035 0 0 0.5035 0 -0.27972] CT
0.149 GC
2 setlinecap
1 LJ
0.993 LW
N
310.595 844 M
310.595 838.067 L
S
GR
GS
[0.5035 0 0 0.5035 0 -0.27972] CT
0.149 GC
2 setlinecap
1 LJ
0.993 LW
N
421.291 844 M
421.291 838.067 L
S
GR
GS
[0.5035 0 0 0.5035 0 -0.27972] CT
0.149 GC
2 setlinecap
1 LJ
0.993 LW
N
531.988 844 M
531.988 838.067 L
S
GR
GS
[0.5035 0 0 0.5035 0 -0.27972] CT
0.149 GC
2 setlinecap
1 LJ
0.993 LW
N
642.684 844 M
642.684 838.067 L
S
GR
GS
[0.5035 0 0 0.5035 0 -0.27972] CT
0.149 GC
2 setlinecap
1 LJ
0.993 LW
N
199.898 488 M
199.898 493.933 L
S
GR
GS
[0.5035 0 0 0.5035 0 -0.27972] CT
0.149 GC
2 setlinecap
1 LJ
0.993 LW
N
310.595 488 M
310.595 493.933 L
S
GR
GS
[0.5035 0 0 0.5035 0 -0.27972] CT
0.149 GC
2 setlinecap
1 LJ
0.993 LW
N
421.291 488 M
421.291 493.933 L
S
GR
GS
[0.5035 0 0 0.5035 0 -0.27972] CT
0.149 GC
2 setlinecap
1 LJ
0.993 LW
N
531.988 488 M
531.988 493.933 L
S
GR
GS
[0.5035 0 0 0.5035 0 -0.27972] CT
0.149 GC
2 setlinecap
1 LJ
0.993 LW
N
642.684 488 M
642.684 493.933 L
S
GR
GS
[0.5035 0 0 0.5035 100.64795 428.67134] CT
0.149 GC
/Helvetica 19.861 F
GS
[1 0 0 1 0 0] CT
-13 19 moveto 
1 -1 scale
(10) t 
GR
GR
GS
[0.5035 0 0 0.5035 156.38325 428.67134] CT
0.149 GC
/Helvetica 19.861 F
GS
[1 0 0 1 0 0] CT
-13 19 moveto 
1 -1 scale
(15) t 
GR
GR
GS
[0.5035 0 0 0.5035 212.11857 428.67134] CT
0.149 GC
/Helvetica 19.861 F
GS
[1 0 0 1 0 0] CT
-13 19 moveto 
1 -1 scale
(20) t 
GR
GR
GS
[0.5035 0 0 0.5035 267.85387 428.67134] CT
0.149 GC
/Helvetica 19.861 F
GS
[1 0 0 1 0 0] CT
-13 19 moveto 
1 -1 scale
(25) t 
GR
GR
GS
[0.5035 0 0 0.5035 323.58918 428.67134] CT
0.149 GC
/Helvetica 19.861 F
GS
[1 0 0 1 0 0] CT
-13 19 moveto 
1 -1 scale
(30) t 
GR
GR
GS
[0.5035 0 0 0.5035 228.83931 441.75524] CT
0.149 GC
/Helvetica 21.847 F
GS
[1 0 0 1 0 0] CT
-202.5 21 moveto 
1 -1 scale
(Number of calibration configurations) t 
GR
GR
GS
[0.5035 0 0 0.5035 0 -0.27972] CT
0.149 GC
2 setlinecap
1 LJ
0.993 LW
N
157.833 844 M
157.833 488 L
S
GR
GS
[0.5035 0 0 0.5035 0 -0.27972] CT
0.149 GC
2 setlinecap
1 LJ
0.993 LW
N
751.167 844 M
751.167 488 L
S
GR
GS
[0.5035 0 0 0.5035 0 -0.27972] CT
0.149 GC
2 setlinecap
1 LJ
0.993 LW
N
157.833 844 M
163.767 844 L
S
GR
GS
[0.5035 0 0 0.5035 0 -0.27972] CT
0.149 GC
2 setlinecap
1 LJ
0.993 LW
N
157.833 799.5 M
163.767 799.5 L
S
GR
GS
[0.5035 0 0 0.5035 0 -0.27972] CT
0.149 GC
2 setlinecap
1 LJ
0.993 LW
N
157.833 755 M
163.767 755 L
S
GR
GS
[0.5035 0 0 0.5035 0 -0.27972] CT
0.149 GC
2 setlinecap
1 LJ
0.993 LW
N
157.833 710.5 M
163.767 710.5 L
S
GR
GS
[0.5035 0 0 0.5035 0 -0.27972] CT
0.149 GC
2 setlinecap
1 LJ
0.993 LW
N
157.833 666 M
163.767 666 L
S
GR
GS
[0.5035 0 0 0.5035 0 -0.27972] CT
0.149 GC
2 setlinecap
1 LJ
0.993 LW
N
157.833 621.5 M
163.767 621.5 L
S
GR
GS
[0.5035 0 0 0.5035 0 -0.27972] CT
0.149 GC
2 setlinecap
1 LJ
0.993 LW
N
157.833 577 M
163.767 577 L
S
GR
GS
[0.5035 0 0 0.5035 0 -0.27972] CT
0.149 GC
2 setlinecap
1 LJ
0.993 LW
N
157.833 532.5 M
163.767 532.5 L
S
GR
GS
[0.5035 0 0 0.5035 0 -0.27972] CT
0.149 GC
2 setlinecap
1 LJ
0.993 LW
N
157.833 488 M
163.767 488 L
S
GR
GS
[0.5035 0 0 0.5035 0 -0.27972] CT
0.149 GC
2 setlinecap
1 LJ
0.993 LW
N
751.167 844 M
745.233 844 L
S
GR
GS
[0.5035 0 0 0.5035 0 -0.27972] CT
0.149 GC
2 setlinecap
1 LJ
0.993 LW
N
751.167 799.5 M
745.233 799.5 L
S
GR
GS
[0.5035 0 0 0.5035 0 -0.27972] CT
0.149 GC
2 setlinecap
1 LJ
0.993 LW
N
751.167 755 M
745.233 755 L
S
GR
GS
[0.5035 0 0 0.5035 0 -0.27972] CT
0.149 GC
2 setlinecap
1 LJ
0.993 LW
N
751.167 710.5 M
745.233 710.5 L
S
GR
GS
[0.5035 0 0 0.5035 0 -0.27972] CT
0.149 GC
2 setlinecap
1 LJ
0.993 LW
N
751.167 666 M
745.233 666 L
S
GR
GS
[0.5035 0 0 0.5035 0 -0.27972] CT
0.149 GC
2 setlinecap
1 LJ
0.993 LW
N
751.167 621.5 M
745.233 621.5 L
S
GR
GS
[0.5035 0 0 0.5035 0 -0.27972] CT
0.149 GC
2 setlinecap
1 LJ
0.993 LW
N
751.167 577 M
745.233 577 L
S
GR
GS
[0.5035 0 0 0.5035 0 -0.27972] CT
0.149 GC
2 setlinecap
1 LJ
0.993 LW
N
751.167 532.5 M
745.233 532.5 L
S
GR
GS
[0.5035 0 0 0.5035 0 -0.27972] CT
0.149 GC
2 setlinecap
1 LJ
0.993 LW
N
751.167 488 M
745.233 488 L
S
GR
GS
[0.5035 0 0 0.5035 75.46854 424.67133] CT
0.149 GC
/Helvetica 19.861 F
GS
[1 0 0 1 0 0] CT
-13 7 moveto 
1 -1 scale
(1) t 
GR
GR
GS
[0.5035 0 0 0.5035 75.46854 402.26573] CT
0.149 GC
/Helvetica 19.861 F
GS
[1 0 0 1 0 0] CT
-32 7 moveto 
1 -1 scale
(1.1) t 
GR
GR
GS
[0.5035 0 0 0.5035 75.46854 379.86014] CT
0.149 GC
/Helvetica 19.861 F
GS
[1 0 0 1 0 0] CT
-32 7 moveto 
1 -1 scale
(1.2) t 
GR
GR
GS
[0.5035 0 0 0.5035 75.46854 357.45454] CT
0.149 GC
/Helvetica 19.861 F
GS
[1 0 0 1 0 0] CT
-32 7 moveto 
1 -1 scale
(1.3) t 
GR
GR
GS
[0.5035 0 0 0.5035 75.46854 335.04895] CT
0.149 GC
/Helvetica 19.861 F
GS
[1 0 0 1 0 0] CT
-32 7 moveto 
1 -1 scale
(1.4) t 
GR
GR
GS
[0.5035 0 0 0.5035 75.46854 312.64336] CT
0.149 GC
/Helvetica 19.861 F
GS
[1 0 0 1 0 0] CT
-32 7 moveto 
1 -1 scale
(1.5) t 
GR
GR
GS
[0.5035 0 0 0.5035 75.46854 290.23776] CT
0.149 GC
/Helvetica 19.861 F
GS
[1 0 0 1 0 0] CT
-32 7 moveto 
1 -1 scale
(1.6) t 
GR
GR
GS
[0.5035 0 0 0.5035 75.46854 267.83217] CT
0.149 GC
/Helvetica 19.861 F
GS
[1 0 0 1 0 0] CT
-32 7 moveto 
1 -1 scale
(1.7) t 
GR
GR
GS
[0.5035 0 0 0.5035 75.46854 245.42659] CT
0.149 GC
/Helvetica 19.861 F
GS
[1 0 0 1 0 0] CT
-32 7 moveto 
1 -1 scale
(1.8) t 
GR
GR
GS
[0 -0.5035 0.5035 0 56.35665 335.04889] CT
0.149 GC
/Helvetica 21.847 F
GS
[1 0 0 1 0 0] CT
-104.5 -6 moveto 
1 -1 scale
(Rotational error [\260]) t 
GR
GR
GS
[0.5035 0 0 0.5035 0 -0.27972] CT
0 0 1 RC
1 LJ
0.993 LW
N
177.759 791.742 M
177.759 729.742 L
S
GR
GS
[0.5035 0 0 0.5035 0 -0.27972] CT
0 0 1 RC
1 LJ
0.993 LW
N
199.898 797.98 M
199.898 742.302 L
S
GR
GS
[0.5035 0 0 0.5035 0 -0.27972] CT
0 0 1 RC
1 LJ
0.993 LW
N
222.037 806.389 M
222.037 751.84 L
S
GR
GS
[0.5035 0 0 0.5035 0 -0.27972] CT
0 0 1 RC
1 LJ
0.993 LW
N
244.177 779.586 M
244.177 732.5 L
S
GR
GS
[0.5035 0 0 0.5035 0 -0.27972] CT
0 0 1 RC
1 LJ
0.993 LW
N
266.316 783.957 M
266.316 735.71 L
S
GR
GS
[0.5035 0 0 0.5035 0 -0.27972] CT
0 0 1 RC
1 LJ
0.993 LW
N
288.455 761.171 M
288.455 713.486 L
S
GR
GS
[0.5035 0 0 0.5035 0 -0.27972] CT
0 0 1 RC
1 LJ
0.993 LW
N
310.595 763.714 M
310.595 717.931 L
S
GR
GS
[0.5035 0 0 0.5035 0 -0.27972] CT
0 0 1 RC
1 LJ
0.993 LW
N
332.734 771.146 M
332.734 726.586 L
S
GR
GS
[0.5035 0 0 0.5035 0 -0.27972] CT
0 0 1 RC
1 LJ
0.993 LW
N
354.873 758.67 M
354.873 721.236 L
S
GR
GS
[0.5035 0 0 0.5035 0 -0.27972] CT
0 0 1 RC
1 LJ
0.993 LW
N
377.012 754.82 M
377.012 718.19 L
S
GR
GS
[0.5035 0 0 0.5035 0 -0.27972] CT
0 0 1 RC
1 LJ
0.993 LW
N
399.152 758.253 M
399.152 717.436 L
S
GR
GS
[0.5035 0 0 0.5035 0 -0.27972] CT
0 0 1 RC
1 LJ
0.993 LW
N
421.291 747.003 M
421.291 711.244 L
S
GR
GS
[0.5035 0 0 0.5035 0 -0.27972] CT
0 0 1 RC
1 LJ
0.993 LW
N
443.43 756.67 M
443.43 728.102 L
S
GR
GS
[0.5035 0 0 0.5035 0 -0.27972] CT
0 0 1 RC
1 LJ
0.993 LW
N
465.57 745.934 M
465.57 716.048 L
S
GR
GS
[0.5035 0 0 0.5035 0 -0.27972] CT
0 0 1 RC
1 LJ
0.993 LW
N
487.709 738.463 M
487.709 709.355 L
S
GR
GS
[0.5035 0 0 0.5035 0 -0.27972] CT
0 0 1 RC
1 LJ
0.993 LW
N
509.848 738.697 M
509.848 710.698 L
S
GR
GS
[0.5035 0 0 0.5035 0 -0.27972] CT
0 0 1 RC
1 LJ
0.993 LW
N
531.988 741.539 M
531.988 716.788 L
S
GR
GS
[0.5035 0 0 0.5035 0 -0.27972] CT
0 0 1 RC
1 LJ
0.993 LW
N
554.127 725.225 M
554.127 700.029 L
S
GR
GS
[0.5035 0 0 0.5035 0 -0.27972] CT
0 0 1 RC
1 LJ
0.993 LW
N
576.266 737.968 M
576.266 712.892 L
S
GR
GS
[0.5035 0 0 0.5035 0 -0.27972] CT
0 0 1 RC
1 LJ
0.993 LW
N
598.405 732.065 M
598.405 707.09 L
S
GR
GS
[0.5035 0 0 0.5035 0 -0.27972] CT
0 0 1 RC
1 LJ
0.993 LW
N
620.545 734.155 M
620.545 714.04 L
S
GR
GS
[0.5035 0 0 0.5035 0 -0.27972] CT
0 0 1 RC
1 LJ
0.993 LW
N
642.684 729.512 M
642.684 711.447 L
S
GR
GS
[0.5035 0 0 0.5035 0 -0.27972] CT
0 0 1 RC
1 LJ
0.993 LW
N
664.823 730.598 M
664.823 713.083 L
S
GR
GS
[0.5035 0 0 0.5035 0 -0.27972] CT
0 0 1 RC
1 LJ
0.993 LW
N
686.963 725.626 M
686.963 708.531 L
S
GR
GS
[0.5035 0 0 0.5035 0 -0.27972] CT
0 0 1 RC
1 LJ
0.993 LW
N
709.102 728.813 M
709.102 714.033 L
S
GR
GS
[0.5035 0 0 0.5035 0 -0.27972] CT
0 0 1 RC
1 LJ
0.993 LW
N
731.241 728.109 M
731.241 714.536 L
S
GR
GS
[0.5035 0 0 0.5035 0 -0.27972] CT
0 0 1 RC
1 LJ
0.993 LW
N
157.774 835.098 M
162.483 835.098 L
S
GR
GS
[0.5035 0 0 0.5035 0 -0.27972] CT
0 0 1 RC
1 LJ
0.993 LW
N
170.896 791.742 M
184.622 791.742 L
S
GR
GS
[0.5035 0 0 0.5035 0 -0.27972] CT
0 0 1 RC
1 LJ
0.993 LW
N
193.035 797.98 M
206.761 797.98 L
S
GR
GS
[0.5035 0 0 0.5035 0 -0.27972] CT
0 0 1 RC
1 LJ
0.993 LW
N
215.174 806.389 M
228.901 806.389 L
S
GR
GS
[0.5035 0 0 0.5035 0 -0.27972] CT
0 0 1 RC
1 LJ
0.993 LW
N
237.313 779.586 M
251.04 779.586 L
S
GR
GS
[0.5035 0 0 0.5035 0 -0.27972] CT
0 0 1 RC
1 LJ
0.993 LW
N
259.453 783.957 M
273.179 783.957 L
S
GR
GS
[0.5035 0 0 0.5035 0 -0.27972] CT
0 0 1 RC
1 LJ
0.993 LW
N
281.592 761.171 M
295.318 761.171 L
S
GR
GS
[0.5035 0 0 0.5035 0 -0.27972] CT
0 0 1 RC
1 LJ
0.993 LW
N
303.731 763.714 M
317.458 763.714 L
S
GR
GS
[0.5035 0 0 0.5035 0 -0.27972] CT
0 0 1 RC
1 LJ
0.993 LW
N
325.871 771.146 M
339.597 771.146 L
S
GR
GS
[0.5035 0 0 0.5035 0 -0.27972] CT
0 0 1 RC
1 LJ
0.993 LW
N
348.01 758.67 M
361.736 758.67 L
S
GR
GS
[0.5035 0 0 0.5035 0 -0.27972] CT
0 0 1 RC
1 LJ
0.993 LW
N
370.149 754.82 M
383.876 754.82 L
S
GR
GS
[0.5035 0 0 0.5035 0 -0.27972] CT
0 0 1 RC
1 LJ
0.993 LW
N
392.289 758.253 M
406.015 758.253 L
S
GR
GS
[0.5035 0 0 0.5035 0 -0.27972] CT
0 0 1 RC
1 LJ
0.993 LW
N
414.428 747.003 M
428.154 747.003 L
S
GR
GS
[0.5035 0 0 0.5035 0 -0.27972] CT
0 0 1 RC
1 LJ
0.993 LW
N
436.567 756.67 M
450.294 756.67 L
S
GR
GS
[0.5035 0 0 0.5035 0 -0.27972] CT
0 0 1 RC
1 LJ
0.993 LW
N
458.706 745.934 M
472.433 745.934 L
S
GR
GS
[0.5035 0 0 0.5035 0 -0.27972] CT
0 0 1 RC
1 LJ
0.993 LW
N
480.846 738.463 M
494.572 738.463 L
S
GR
GS
[0.5035 0 0 0.5035 0 -0.27972] CT
0 0 1 RC
1 LJ
0.993 LW
N
502.985 738.697 M
516.711 738.697 L
S
GR
GS
[0.5035 0 0 0.5035 0 -0.27972] CT
0 0 1 RC
1 LJ
0.993 LW
N
525.124 741.539 M
538.851 741.539 L
S
GR
GS
[0.5035 0 0 0.5035 0 -0.27972] CT
0 0 1 RC
1 LJ
0.993 LW
N
547.264 725.225 M
560.99 725.225 L
S
GR
GS
[0.5035 0 0 0.5035 0 -0.27972] CT
0 0 1 RC
1 LJ
0.993 LW
N
569.403 737.968 M
583.129 737.968 L
S
GR
GS
[0.5035 0 0 0.5035 0 -0.27972] CT
0 0 1 RC
1 LJ
0.993 LW
N
591.542 732.065 M
605.269 732.065 L
S
GR
GS
[0.5035 0 0 0.5035 0 -0.27972] CT
0 0 1 RC
1 LJ
0.993 LW
N
613.682 734.155 M
627.408 734.155 L
S
GR
GS
[0.5035 0 0 0.5035 0 -0.27972] CT
0 0 1 RC
1 LJ
0.993 LW
N
635.821 729.512 M
649.547 729.512 L
S
GR
GS
[0.5035 0 0 0.5035 0 -0.27972] CT
0 0 1 RC
1 LJ
0.993 LW
N
657.96 730.598 M
671.687 730.598 L
S
GR
GS
[0.5035 0 0 0.5035 0 -0.27972] CT
0 0 1 RC
1 LJ
0.993 LW
N
680.099 725.626 M
693.826 725.626 L
S
GR
GS
[0.5035 0 0 0.5035 0 -0.27972] CT
0 0 1 RC
1 LJ
0.993 LW
N
702.239 728.813 M
715.965 728.813 L
S
GR
GS
[0.5035 0 0 0.5035 0 -0.27972] CT
0 0 1 RC
1 LJ
0.993 LW
N
724.378 728.109 M
738.104 728.109 L
S
GR
GS
[0.5035 0 0 0.5035 0 -0.27972] CT
0 0 1 RC
1 LJ
0.993 LW
N
157.774 758.587 M
162.483 758.587 L
S
GR
GS
[0.5035 0 0 0.5035 0 -0.27972] CT
0 0 1 RC
1 LJ
0.993 LW
N
170.896 729.742 M
184.622 729.742 L
S
GR
GS
[0.5035 0 0 0.5035 0 -0.27972] CT
0 0 1 RC
1 LJ
0.993 LW
N
193.035 742.302 M
206.761 742.302 L
S
GR
GS
[0.5035 0 0 0.5035 0 -0.27972] CT
0 0 1 RC
1 LJ
0.993 LW
N
215.174 751.84 M
228.901 751.84 L
S
GR
GS
[0.5035 0 0 0.5035 0 -0.27972] CT
0 0 1 RC
1 LJ
0.993 LW
N
237.313 732.5 M
251.04 732.5 L
S
GR
GS
[0.5035 0 0 0.5035 0 -0.27972] CT
0 0 1 RC
1 LJ
0.993 LW
N
259.453 735.71 M
273.179 735.71 L
S
GR
GS
[0.5035 0 0 0.5035 0 -0.27972] CT
0 0 1 RC
1 LJ
0.993 LW
N
281.592 713.486 M
295.318 713.486 L
S
GR
GS
[0.5035 0 0 0.5035 0 -0.27972] CT
0 0 1 RC
1 LJ
0.993 LW
N
303.731 717.931 M
317.458 717.931 L
S
GR
GS
[0.5035 0 0 0.5035 0 -0.27972] CT
0 0 1 RC
1 LJ
0.993 LW
N
325.871 726.586 M
339.597 726.586 L
S
GR
GS
[0.5035 0 0 0.5035 0 -0.27972] CT
0 0 1 RC
1 LJ
0.993 LW
N
348.01 721.236 M
361.736 721.236 L
S
GR
GS
[0.5035 0 0 0.5035 0 -0.27972] CT
0 0 1 RC
1 LJ
0.993 LW
N
370.149 718.19 M
383.876 718.19 L
S
GR
GS
[0.5035 0 0 0.5035 0 -0.27972] CT
0 0 1 RC
1 LJ
0.993 LW
N
392.289 717.436 M
406.015 717.436 L
S
GR
GS
[0.5035 0 0 0.5035 0 -0.27972] CT
0 0 1 RC
1 LJ
0.993 LW
N
414.428 711.244 M
428.154 711.244 L
S
GR
GS
[0.5035 0 0 0.5035 0 -0.27972] CT
0 0 1 RC
1 LJ
0.993 LW
N
436.567 728.102 M
450.294 728.102 L
S
GR
GS
[0.5035 0 0 0.5035 0 -0.27972] CT
0 0 1 RC
1 LJ
0.993 LW
N
458.706 716.048 M
472.433 716.048 L
S
GR
GS
[0.5035 0 0 0.5035 0 -0.27972] CT
0 0 1 RC
1 LJ
0.993 LW
N
480.846 709.355 M
494.572 709.355 L
S
GR
GS
[0.5035 0 0 0.5035 0 -0.27972] CT
0 0 1 RC
1 LJ
0.993 LW
N
502.985 710.698 M
516.711 710.698 L
S
GR
GS
[0.5035 0 0 0.5035 0 -0.27972] CT
0 0 1 RC
1 LJ
0.993 LW
N
525.124 716.788 M
538.851 716.788 L
S
GR
GS
[0.5035 0 0 0.5035 0 -0.27972] CT
0 0 1 RC
1 LJ
0.993 LW
N
547.264 700.029 M
560.99 700.029 L
S
GR
GS
[0.5035 0 0 0.5035 0 -0.27972] CT
0 0 1 RC
1 LJ
0.993 LW
N
569.403 712.892 M
583.129 712.892 L
S
GR
GS
[0.5035 0 0 0.5035 0 -0.27972] CT
0 0 1 RC
1 LJ
0.993 LW
N
591.542 707.09 M
605.269 707.09 L
S
GR
GS
[0.5035 0 0 0.5035 0 -0.27972] CT
0 0 1 RC
1 LJ
0.993 LW
N
613.682 714.04 M
627.408 714.04 L
S
GR
GS
[0.5035 0 0 0.5035 0 -0.27972] CT
0 0 1 RC
1 LJ
0.993 LW
N
635.821 711.447 M
649.547 711.447 L
S
GR
GS
[0.5035 0 0 0.5035 0 -0.27972] CT
0 0 1 RC
1 LJ
0.993 LW
N
657.96 713.083 M
671.687 713.083 L
S
GR
GS
[0.5035 0 0 0.5035 0 -0.27972] CT
0 0 1 RC
1 LJ
0.993 LW
N
680.099 708.531 M
693.826 708.531 L
S
GR
GS
[0.5035 0 0 0.5035 0 -0.27972] CT
0 0 1 RC
1 LJ
0.993 LW
N
702.239 714.033 M
715.965 714.033 L
S
GR
GS
[0.5035 0 0 0.5035 0 -0.27972] CT
0 0 1 RC
1 LJ
0.993 LW
N
724.378 714.536 M
738.104 714.536 L
S
GR
GS
[0.5035 0 0 0.5035 0 -0.27972] CT
0 0 1 RC
1 LJ
0.993 LW
N
157.774 793.329 M
177.759 760.742 L
199.898 770.141 L
222.037 779.115 L
244.177 756.043 L
266.316 759.833 L
288.455 737.328 L
310.595 740.823 L
332.734 748.866 L
354.873 739.953 L
377.012 736.505 L
399.152 737.844 L
421.291 729.124 L
443.43 742.386 L
465.57 730.991 L
487.709 723.909 L
509.848 724.697 L
531.988 729.163 L
554.127 712.627 L
576.266 725.43 L
598.405 719.577 L
620.545 724.098 L
642.684 720.48 L
664.823 721.84 L
686.963 717.078 L
709.102 721.423 L
731.241 721.322 L
S
GR
GS
[0.5035 0 0 0.5035 89.50089 382.75137] CT
0 0 1 RC
N
1.986 0 M
1.986 1.097 1.097 1.986 0 1.986 C
-1.097 1.986 -1.986 1.097 -1.986 0 C
-1.986 -1.097 -1.097 -1.986 0 -1.986 C
1.097 -1.986 1.986 -1.097 1.986 0 C
cp
f
GR
GS
[0.5035 0 0 0.5035 100.64795 387.48373] CT
0 0 1 RC
N
1.986 0 M
1.986 1.097 1.097 1.986 0 1.986 C
-1.097 1.986 -1.986 1.097 -1.986 0 C
-1.986 -1.097 -1.097 -1.986 0 -1.986 C
1.097 -1.986 1.986 -1.097 1.986 0 C
cp
f
GR
GS
[0.5035 0 0 0.5035 111.79501 392.00174] CT
0 0 1 RC
N
1.986 0 M
1.986 1.097 1.097 1.986 0 1.986 C
-1.097 1.986 -1.986 1.097 -1.986 0 C
-1.986 -1.097 -1.097 -1.986 0 -1.986 C
1.097 -1.986 1.986 -1.097 1.986 0 C
cp
f
GR
GS
[0.5035 0 0 0.5035 122.94207 380.38524] CT
0 0 1 RC
N
1.986 0 M
1.986 1.097 1.097 1.986 0 1.986 C
-1.097 1.986 -1.986 1.097 -1.986 0 C
-1.986 -1.097 -1.097 -1.986 0 -1.986 C
1.097 -1.986 1.986 -1.097 1.986 0 C
cp
f
GR
GS
[0.5035 0 0 0.5035 134.08913 382.29354] CT
0 0 1 RC
N
1.986 0 M
1.986 1.097 1.097 1.986 0 1.986 C
-1.097 1.986 -1.986 1.097 -1.986 0 C
-1.986 -1.097 -1.097 -1.986 0 -1.986 C
1.097 -1.986 1.986 -1.097 1.986 0 C
cp
f
GR
GS
[0.5035 0 0 0.5035 145.2362 370.96257] CT
0 0 1 RC
N
1.986 0 M
1.986 1.097 1.097 1.986 0 1.986 C
-1.097 1.986 -1.986 1.097 -1.986 0 C
-1.986 -1.097 -1.097 -1.986 0 -1.986 C
1.097 -1.986 1.986 -1.097 1.986 0 C
cp
f
GR
GS
[0.5035 0 0 0.5035 156.38325 372.72185] CT
0 0 1 RC
N
1.986 0 M
1.986 1.097 1.097 1.986 0 1.986 C
-1.097 1.986 -1.986 1.097 -1.986 0 C
-1.986 -1.097 -1.097 -1.986 0 -1.986 C
1.097 -1.986 1.986 -1.097 1.986 0 C
cp
f
GR
GS
[0.5035 0 0 0.5035 167.53031 376.77177] CT
0 0 1 RC
N
1.986 0 M
1.986 1.097 1.097 1.986 0 1.986 C
-1.097 1.986 -1.986 1.097 -1.986 0 C
-1.986 -1.097 -1.097 -1.986 0 -1.986 C
1.097 -1.986 1.986 -1.097 1.986 0 C
cp
f
GR
GS
[0.5035 0 0 0.5035 178.67738 372.28391] CT
0 0 1 RC
N
1.986 0 M
1.986 1.097 1.097 1.986 0 1.986 C
-1.097 1.986 -1.986 1.097 -1.986 0 C
-1.986 -1.097 -1.097 -1.986 0 -1.986 C
1.097 -1.986 1.986 -1.097 1.986 0 C
cp
f
GR
GS
[0.5035 0 0 0.5035 189.82445 370.54816] CT
0 0 1 RC
N
1.986 0 M
1.986 1.097 1.097 1.986 0 1.986 C
-1.097 1.986 -1.986 1.097 -1.986 0 C
-1.986 -1.097 -1.097 -1.986 0 -1.986 C
1.097 -1.986 1.986 -1.097 1.986 0 C
cp
f
GR
GS
[0.5035 0 0 0.5035 200.9715 371.2223] CT
0 0 1 RC
N
1.986 0 M
1.986 1.097 1.097 1.986 0 1.986 C
-1.097 1.986 -1.986 1.097 -1.986 0 C
-1.986 -1.097 -1.097 -1.986 0 -1.986 C
1.097 -1.986 1.986 -1.097 1.986 0 C
cp
f
GR
GS
[0.5035 0 0 0.5035 212.11857 366.83146] CT
0 0 1 RC
N
1.986 0 M
1.986 1.097 1.097 1.986 0 1.986 C
-1.097 1.986 -1.986 1.097 -1.986 0 C
-1.986 -1.097 -1.097 -1.986 0 -1.986 C
1.097 -1.986 1.986 -1.097 1.986 0 C
cp
f
GR
GS
[0.5035 0 0 0.5035 223.26563 373.509] CT
0 0 1 RC
N
1.986 0 M
1.986 1.097 1.097 1.986 0 1.986 C
-1.097 1.986 -1.986 1.097 -1.986 0 C
-1.986 -1.097 -1.097 -1.986 0 -1.986 C
1.097 -1.986 1.986 -1.097 1.986 0 C
cp
f
GR
GS
[0.5035 0 0 0.5035 234.41268 367.77171] CT
0 0 1 RC
N
1.986 0 M
1.986 1.097 1.097 1.986 0 1.986 C
-1.097 1.986 -1.986 1.097 -1.986 0 C
-1.986 -1.097 -1.097 -1.986 0 -1.986 C
1.097 -1.986 1.986 -1.097 1.986 0 C
cp
f
GR
GS
[0.5035 0 0 0.5035 245.55975 364.2058] CT
0 0 1 RC
N
1.986 0 M
1.986 1.097 1.097 1.986 0 1.986 C
-1.097 1.986 -1.986 1.097 -1.986 0 C
-1.986 -1.097 -1.097 -1.986 0 -1.986 C
1.097 -1.986 1.986 -1.097 1.986 0 C
cp
f
GR
GS
[0.5035 0 0 0.5035 256.70682 364.60285] CT
0 0 1 RC
N
1.986 0 M
1.986 1.097 1.097 1.986 0 1.986 C
-1.097 1.986 -1.986 1.097 -1.986 0 C
-1.986 -1.097 -1.097 -1.986 0 -1.986 C
1.097 -1.986 1.986 -1.097 1.986 0 C
cp
f
GR
GS
[0.5035 0 0 0.5035 267.85387 366.8515] CT
0 0 1 RC
N
1.986 0 M
1.986 1.097 1.097 1.986 0 1.986 C
-1.097 1.986 -1.986 1.097 -1.986 0 C
-1.986 -1.097 -1.097 -1.986 0 -1.986 C
1.097 -1.986 1.986 -1.097 1.986 0 C
cp
f
GR
GS
[0.5035 0 0 0.5035 279.00095 358.52543] CT
0 0 1 RC
N
1.986 0 M
1.986 1.097 1.097 1.986 0 1.986 C
-1.097 1.986 -1.986 1.097 -1.986 0 C
-1.986 -1.097 -1.097 -1.986 0 -1.986 C
1.097 -1.986 1.986 -1.097 1.986 0 C
cp
f
GR
GS
[0.5035 0 0 0.5035 290.148 364.97181] CT
0 0 1 RC
N
1.986 0 M
1.986 1.097 1.097 1.986 0 1.986 C
-1.097 1.986 -1.986 1.097 -1.986 0 C
-1.986 -1.097 -1.097 -1.986 0 -1.986 C
1.097 -1.986 1.986 -1.097 1.986 0 C
cp
f
GR
GS
[0.5035 0 0 0.5035 301.29505 362.02501] CT
0 0 1 RC
N
1.986 0 M
1.986 1.097 1.097 1.986 0 1.986 C
-1.097 1.986 -1.986 1.097 -1.986 0 C
-1.986 -1.097 -1.097 -1.986 0 -1.986 C
1.097 -1.986 1.986 -1.097 1.986 0 C
cp
f
GR
GS
[0.5035 0 0 0.5035 312.44213 364.30092] CT
0 0 1 RC
N
1.986 0 M
1.986 1.097 1.097 1.986 0 1.986 C
-1.097 1.986 -1.986 1.097 -1.986 0 C
-1.986 -1.097 -1.097 -1.986 0 -1.986 C
1.097 -1.986 1.986 -1.097 1.986 0 C
cp
f
GR
GS
[0.5035 0 0 0.5035 323.58918 362.47934] CT
0 0 1 RC
N
1.986 0 M
1.986 1.097 1.097 1.986 0 1.986 C
-1.097 1.986 -1.986 1.097 -1.986 0 C
-1.986 -1.097 -1.097 -1.986 0 -1.986 C
1.097 -1.986 1.986 -1.097 1.986 0 C
cp
f
GR
GS
[0.5035 0 0 0.5035 334.73623 363.16436] CT
0 0 1 RC
N
1.986 0 M
1.986 1.097 1.097 1.986 0 1.986 C
-1.097 1.986 -1.986 1.097 -1.986 0 C
-1.986 -1.097 -1.097 -1.986 0 -1.986 C
1.097 -1.986 1.986 -1.097 1.986 0 C
cp
f
GR
GS
[0.5035 0 0 0.5035 345.88332 360.7667] CT
0 0 1 RC
N
1.986 0 M
1.986 1.097 1.097 1.986 0 1.986 C
-1.097 1.986 -1.986 1.097 -1.986 0 C
-1.986 -1.097 -1.097 -1.986 0 -1.986 C
1.097 -1.986 1.986 -1.097 1.986 0 C
cp
f
GR
GS
[0.5035 0 0 0.5035 357.03037 362.95416] CT
0 0 1 RC
N
1.986 0 M
1.986 1.097 1.097 1.986 0 1.986 C
-1.097 1.986 -1.986 1.097 -1.986 0 C
-1.986 -1.097 -1.097 -1.986 0 -1.986 C
1.097 -1.986 1.986 -1.097 1.986 0 C
cp
f
GR
GS
[0.5035 0 0 0.5035 368.17742 362.90343] CT
0 0 1 RC
N
1.986 0 M
1.986 1.097 1.097 1.986 0 1.986 C
-1.097 1.986 -1.986 1.097 -1.986 0 C
-1.986 -1.097 -1.097 -1.986 0 -1.986 C
1.097 -1.986 1.986 -1.097 1.986 0 C
cp
f
GR
GS
[0.5035 0 0 0.5035 0 -0.27972] CT
1 0 0 RC
1 LJ
0.993 LW
N
177.759 627.45 M
177.759 489.659 L
S
GR
GS
[0.5035 0 0 0.5035 0 -0.27972] CT
1 0 0 RC
1 LJ
0.993 LW
N
199.898 630.131 M
199.898 498.052 L
S
GR
GS
[0.5035 0 0 0.5035 0 -0.27972] CT
1 0 0 RC
1 LJ
0.993 LW
N
222.037 641.675 M
222.037 489.583 L
S
GR
GS
[0.5035 0 0 0.5035 0 -0.27972] CT
1 0 0 RC
1 LJ
0.993 LW
N
244.177 666.709 M
244.177 526.972 L
S
GR
GS
[0.5035 0 0 0.5035 0 -0.27972] CT
1 0 0 RC
1 LJ
0.993 LW
N
266.316 646.57 M
266.316 512.911 L
S
GR
GS
[0.5035 0 0 0.5035 0 -0.27972] CT
1 0 0 RC
1 LJ
0.993 LW
N
288.455 677.092 M
288.455 549.403 L
S
GR
GS
[0.5035 0 0 0.5035 0 -0.27972] CT
1 0 0 RC
1 LJ
0.993 LW
N
310.595 649.537 M
310.595 519.405 L
S
GR
GS
[0.5035 0 0 0.5035 0 -0.27972] CT
1 0 0 RC
1 LJ
0.993 LW
N
332.734 654.933 M
332.734 523.791 L
S
GR
GS
[0.5035 0 0 0.5035 0 -0.27972] CT
1 0 0 RC
1 LJ
0.993 LW
N
354.873 671.208 M
354.873 538.58 L
S
GR
GS
[0.5035 0 0 0.5035 0 -0.27972] CT
1 0 0 RC
1 LJ
0.993 LW
N
377.012 665.134 M
377.012 533.58 L
S
GR
GS
[0.5035 0 0 0.5035 0 -0.27972] CT
1 0 0 RC
1 LJ
0.993 LW
N
399.152 654.55 M
399.152 522.498 L
S
GR
GS
[0.5035 0 0 0.5035 0 -0.27972] CT
1 0 0 RC
1 LJ
0.993 LW
N
421.291 667.406 M
421.291 540.536 L
S
GR
GS
[0.5035 0 0 0.5035 0 -0.27972] CT
1 0 0 RC
1 LJ
0.993 LW
N
443.43 666.711 M
443.43 539.881 L
S
GR
GS
[0.5035 0 0 0.5035 0 -0.27972] CT
1 0 0 RC
1 LJ
0.993 LW
N
465.57 684.397 M
465.57 552.491 L
S
GR
GS
[0.5035 0 0 0.5035 0 -0.27972] CT
1 0 0 RC
1 LJ
0.993 LW
N
487.709 685.094 M
487.709 555.372 L
S
GR
GS
[0.5035 0 0 0.5035 0 -0.27972] CT
1 0 0 RC
1 LJ
0.993 LW
N
509.848 674.517 M
509.848 543.938 L
S
GR
GS
[0.5035 0 0 0.5035 0 -0.27972] CT
1 0 0 RC
1 LJ
0.993 LW
N
531.988 690.417 M
531.988 561.5 L
S
GR
GS
[0.5035 0 0 0.5035 0 -0.27972] CT
1 0 0 RC
1 LJ
0.993 LW
N
554.127 691.765 M
554.127 564.976 L
S
GR
GS
[0.5035 0 0 0.5035 0 -0.27972] CT
1 0 0 RC
1 LJ
0.993 LW
N
576.266 682.797 M
576.266 555.444 L
S
GR
GS
[0.5035 0 0 0.5035 0 -0.27972] CT
1 0 0 RC
1 LJ
0.993 LW
N
598.405 689.499 M
598.405 561.615 L
S
GR
GS
[0.5035 0 0 0.5035 0 -0.27972] CT
1 0 0 RC
1 LJ
0.993 LW
N
620.545 685.426 M
620.545 561.658 L
S
GR
GS
[0.5035 0 0 0.5035 0 -0.27972] CT
1 0 0 RC
1 LJ
0.993 LW
N
642.684 683.099 M
642.684 557.058 L
S
GR
GS
[0.5035 0 0 0.5035 0 -0.27972] CT
1 0 0 RC
1 LJ
0.993 LW
N
664.823 687.44 M
664.823 559.37 L
S
GR
GS
[0.5035 0 0 0.5035 0 -0.27972] CT
1 0 0 RC
1 LJ
0.993 LW
N
686.963 689.235 M
686.963 565.165 L
S
GR
GS
[0.5035 0 0 0.5035 0 -0.27972] CT
1 0 0 RC
1 LJ
0.993 LW
N
709.102 692.729 M
709.102 564.729 L
S
GR
GS
[0.5035 0 0 0.5035 0 -0.27972] CT
1 0 0 RC
1 LJ
0.993 LW
N
731.241 692.084 M
731.241 565.636 L
S
GR
GS
[0.5035 0 0 0.5035 0 -0.27972] CT
1 0 0 RC
1 LJ
0.993 LW
N
157.774 592.315 M
162.483 592.315 L
S
GR
GS
[0.5035 0 0 0.5035 0 -0.27972] CT
1 0 0 RC
1 LJ
0.993 LW
N
170.896 627.45 M
184.622 627.45 L
S
GR
GS
[0.5035 0 0 0.5035 0 -0.27972] CT
1 0 0 RC
1 LJ
0.993 LW
N
193.035 630.131 M
206.761 630.131 L
S
GR
GS
[0.5035 0 0 0.5035 0 -0.27972] CT
1 0 0 RC
1 LJ
0.993 LW
N
215.174 641.675 M
228.901 641.675 L
S
GR
GS
[0.5035 0 0 0.5035 0 -0.27972] CT
1 0 0 RC
1 LJ
0.993 LW
N
237.313 666.709 M
251.04 666.709 L
S
GR
GS
[0.5035 0 0 0.5035 0 -0.27972] CT
1 0 0 RC
1 LJ
0.993 LW
N
259.453 646.57 M
273.179 646.57 L
S
GR
GS
[0.5035 0 0 0.5035 0 -0.27972] CT
1 0 0 RC
1 LJ
0.993 LW
N
281.592 677.092 M
295.318 677.092 L
S
GR
GS
[0.5035 0 0 0.5035 0 -0.27972] CT
1 0 0 RC
1 LJ
0.993 LW
N
303.731 649.537 M
317.458 649.537 L
S
GR
GS
[0.5035 0 0 0.5035 0 -0.27972] CT
1 0 0 RC
1 LJ
0.993 LW
N
325.871 654.933 M
339.597 654.933 L
S
GR
GS
[0.5035 0 0 0.5035 0 -0.27972] CT
1 0 0 RC
1 LJ
0.993 LW
N
348.01 671.208 M
361.736 671.208 L
S
GR
GS
[0.5035 0 0 0.5035 0 -0.27972] CT
1 0 0 RC
1 LJ
0.993 LW
N
370.149 665.134 M
383.876 665.134 L
S
GR
GS
[0.5035 0 0 0.5035 0 -0.27972] CT
1 0 0 RC
1 LJ
0.993 LW
N
392.289 654.55 M
406.015 654.55 L
S
GR
GS
[0.5035 0 0 0.5035 0 -0.27972] CT
1 0 0 RC
1 LJ
0.993 LW
N
414.428 667.406 M
428.154 667.406 L
S
GR
GS
[0.5035 0 0 0.5035 0 -0.27972] CT
1 0 0 RC
1 LJ
0.993 LW
N
436.567 666.711 M
450.294 666.711 L
S
GR
GS
[0.5035 0 0 0.5035 0 -0.27972] CT
1 0 0 RC
1 LJ
0.993 LW
N
458.706 684.397 M
472.433 684.397 L
S
GR
GS
[0.5035 0 0 0.5035 0 -0.27972] CT
1 0 0 RC
1 LJ
0.993 LW
N
480.846 685.094 M
494.572 685.094 L
S
GR
GS
[0.5035 0 0 0.5035 0 -0.27972] CT
1 0 0 RC
1 LJ
0.993 LW
N
502.985 674.517 M
516.711 674.517 L
S
GR
GS
[0.5035 0 0 0.5035 0 -0.27972] CT
1 0 0 RC
1 LJ
0.993 LW
N
525.124 690.417 M
538.851 690.417 L
S
GR
GS
[0.5035 0 0 0.5035 0 -0.27972] CT
1 0 0 RC
1 LJ
0.993 LW
N
547.264 691.765 M
560.99 691.765 L
S
GR
GS
[0.5035 0 0 0.5035 0 -0.27972] CT
1 0 0 RC
1 LJ
0.993 LW
N
569.403 682.797 M
583.129 682.797 L
S
GR
GS
[0.5035 0 0 0.5035 0 -0.27972] CT
1 0 0 RC
1 LJ
0.993 LW
N
591.542 689.499 M
605.269 689.499 L
S
GR
GS
[0.5035 0 0 0.5035 0 -0.27972] CT
1 0 0 RC
1 LJ
0.993 LW
N
613.682 685.426 M
627.408 685.426 L
S
GR
GS
[0.5035 0 0 0.5035 0 -0.27972] CT
1 0 0 RC
1 LJ
0.993 LW
N
635.821 683.099 M
649.547 683.099 L
S
GR
GS
[0.5035 0 0 0.5035 0 -0.27972] CT
1 0 0 RC
1 LJ
0.993 LW
N
657.96 687.44 M
671.687 687.44 L
S
GR
GS
[0.5035 0 0 0.5035 0 -0.27972] CT
1 0 0 RC
1 LJ
0.993 LW
N
680.099 689.235 M
693.826 689.235 L
S
GR
GS
[0.5035 0 0 0.5035 0 -0.27972] CT
1 0 0 RC
1 LJ
0.993 LW
N
702.239 692.729 M
715.965 692.729 L
S
GR
GS
[0.5035 0 0 0.5035 0 -0.27972] CT
1 0 0 RC
1 LJ
0.993 LW
N
724.378 692.084 M
738.104 692.084 L
S
GR
GS
[0.5035 0 0 0.5035 0 -0.27972] CT
1 0 0 RC
1 LJ
0.993 LW
N
170.896 489.659 M
184.622 489.659 L
S
GR
GS
[0.5035 0 0 0.5035 0 -0.27972] CT
1 0 0 RC
1 LJ
0.993 LW
N
193.035 498.052 M
206.761 498.052 L
S
GR
GS
[0.5035 0 0 0.5035 0 -0.27972] CT
1 0 0 RC
1 LJ
0.993 LW
N
215.174 489.583 M
228.901 489.583 L
S
GR
GS
[0.5035 0 0 0.5035 0 -0.27972] CT
1 0 0 RC
1 LJ
0.993 LW
N
237.313 526.972 M
251.04 526.972 L
S
GR
GS
[0.5035 0 0 0.5035 0 -0.27972] CT
1 0 0 RC
1 LJ
0.993 LW
N
259.453 512.911 M
273.179 512.911 L
S
GR
GS
[0.5035 0 0 0.5035 0 -0.27972] CT
1 0 0 RC
1 LJ
0.993 LW
N
281.592 549.403 M
295.318 549.403 L
S
GR
GS
[0.5035 0 0 0.5035 0 -0.27972] CT
1 0 0 RC
1 LJ
0.993 LW
N
303.731 519.405 M
317.458 519.405 L
S
GR
GS
[0.5035 0 0 0.5035 0 -0.27972] CT
1 0 0 RC
1 LJ
0.993 LW
N
325.871 523.791 M
339.597 523.791 L
S
GR
GS
[0.5035 0 0 0.5035 0 -0.27972] CT
1 0 0 RC
1 LJ
0.993 LW
N
348.01 538.58 M
361.736 538.58 L
S
GR
GS
[0.5035 0 0 0.5035 0 -0.27972] CT
1 0 0 RC
1 LJ
0.993 LW
N
370.149 533.58 M
383.876 533.58 L
S
GR
GS
[0.5035 0 0 0.5035 0 -0.27972] CT
1 0 0 RC
1 LJ
0.993 LW
N
392.289 522.498 M
406.015 522.498 L
S
GR
GS
[0.5035 0 0 0.5035 0 -0.27972] CT
1 0 0 RC
1 LJ
0.993 LW
N
414.428 540.536 M
428.154 540.536 L
S
GR
GS
[0.5035 0 0 0.5035 0 -0.27972] CT
1 0 0 RC
1 LJ
0.993 LW
N
436.567 539.881 M
450.294 539.881 L
S
GR
GS
[0.5035 0 0 0.5035 0 -0.27972] CT
1 0 0 RC
1 LJ
0.993 LW
N
458.706 552.491 M
472.433 552.491 L
S
GR
GS
[0.5035 0 0 0.5035 0 -0.27972] CT
1 0 0 RC
1 LJ
0.993 LW
N
480.846 555.372 M
494.572 555.372 L
S
GR
GS
[0.5035 0 0 0.5035 0 -0.27972] CT
1 0 0 RC
1 LJ
0.993 LW
N
502.985 543.938 M
516.711 543.938 L
S
GR
GS
[0.5035 0 0 0.5035 0 -0.27972] CT
1 0 0 RC
1 LJ
0.993 LW
N
525.124 561.5 M
538.851 561.5 L
S
GR
GS
[0.5035 0 0 0.5035 0 -0.27972] CT
1 0 0 RC
1 LJ
0.993 LW
N
547.264 564.976 M
560.99 564.976 L
S
GR
GS
[0.5035 0 0 0.5035 0 -0.27972] CT
1 0 0 RC
1 LJ
0.993 LW
N
569.403 555.444 M
583.129 555.444 L
S
GR
GS
[0.5035 0 0 0.5035 0 -0.27972] CT
1 0 0 RC
1 LJ
0.993 LW
N
591.542 561.615 M
605.269 561.615 L
S
GR
GS
[0.5035 0 0 0.5035 0 -0.27972] CT
1 0 0 RC
1 LJ
0.993 LW
N
613.682 561.658 M
627.408 561.658 L
S
GR
GS
[0.5035 0 0 0.5035 0 -0.27972] CT
1 0 0 RC
1 LJ
0.993 LW
N
635.821 557.058 M
649.547 557.058 L
S
GR
GS
[0.5035 0 0 0.5035 0 -0.27972] CT
1 0 0 RC
1 LJ
0.993 LW
N
657.96 559.37 M
671.687 559.37 L
S
GR
GS
[0.5035 0 0 0.5035 0 -0.27972] CT
1 0 0 RC
1 LJ
0.993 LW
N
680.099 565.165 M
693.826 565.165 L
S
GR
GS
[0.5035 0 0 0.5035 0 -0.27972] CT
1 0 0 RC
1 LJ
0.993 LW
N
702.239 564.729 M
715.965 564.729 L
S
GR
GS
[0.5035 0 0 0.5035 0 -0.27972] CT
1 0 0 RC
1 LJ
0.993 LW
N
724.378 565.636 M
738.104 565.636 L
S
GR
GS
[0.5035 0 0 0.5035 0 -0.27972] CT
1 0 0 RC
1 LJ
0.993 LW
N
157.774 511.499 M
177.759 558.554 L
199.898 564.092 L
222.037 565.629 L
244.177 596.841 L
266.316 579.741 L
288.455 613.247 L
310.595 584.471 L
332.734 589.362 L
354.873 604.894 L
377.012 599.357 L
399.152 588.524 L
421.291 603.971 L
443.43 603.296 L
465.57 618.444 L
487.709 620.233 L
509.848 609.227 L
531.988 625.958 L
554.127 628.37 L
576.266 619.121 L
598.405 625.557 L
620.545 623.542 L
642.684 620.079 L
664.823 623.405 L
686.963 627.2 L
709.102 628.729 L
731.241 628.86 L
S
GR
GS
[0.5035 0 0 0.5035 89.50089 280.9503] CT
1 0 0 RC
N
1.986 0 M
1.986 1.097 1.097 1.986 0 1.986 C
-1.097 1.986 -1.986 1.097 -1.986 0 C
-1.986 -1.097 -1.097 -1.986 0 -1.986 C
1.097 -1.986 1.986 -1.097 1.986 0 C
cp
f
GR
GS
[0.5035 0 0 0.5035 100.64795 283.73846] CT
1 0 0 RC
N
1.986 0 M
1.986 1.097 1.097 1.986 0 1.986 C
-1.097 1.986 -1.986 1.097 -1.986 0 C
-1.986 -1.097 -1.097 -1.986 0 -1.986 C
1.097 -1.986 1.986 -1.097 1.986 0 C
cp
f
GR
GS
[0.5035 0 0 0.5035 111.79501 284.51258] CT
1 0 0 RC
N
1.986 0 M
1.986 1.097 1.097 1.986 0 1.986 C
-1.097 1.986 -1.986 1.097 -1.986 0 C
-1.986 -1.097 -1.097 -1.986 0 -1.986 C
1.097 -1.986 1.986 -1.097 1.986 0 C
cp
f
GR
GS
[0.5035 0 0 0.5035 122.94207 300.22751] CT
1 0 0 RC
N
1.986 0 M
1.986 1.097 1.097 1.986 0 1.986 C
-1.097 1.986 -1.986 1.097 -1.986 0 C
-1.986 -1.097 -1.097 -1.986 0 -1.986 C
1.097 -1.986 1.986 -1.097 1.986 0 C
cp
f
GR
GS
[0.5035 0 0 0.5035 134.08913 291.6178] CT
1 0 0 RC
N
1.986 0 M
1.986 1.097 1.097 1.986 0 1.986 C
-1.097 1.986 -1.986 1.097 -1.986 0 C
-1.986 -1.097 -1.097 -1.986 0 -1.986 C
1.097 -1.986 1.986 -1.097 1.986 0 C
cp
f
GR
GS
[0.5035 0 0 0.5035 145.2362 308.48803] CT
1 0 0 RC
N
1.986 0 M
1.986 1.097 1.097 1.986 0 1.986 C
-1.097 1.986 -1.986 1.097 -1.986 0 C
-1.986 -1.097 -1.097 -1.986 0 -1.986 C
1.097 -1.986 1.986 -1.097 1.986 0 C
cp
f
GR
GS
[0.5035 0 0 0.5035 156.38325 293.99942] CT
1 0 0 RC
N
1.986 0 M
1.986 1.097 1.097 1.986 0 1.986 C
-1.097 1.986 -1.986 1.097 -1.986 0 C
-1.986 -1.097 -1.097 -1.986 0 -1.986 C
1.097 -1.986 1.986 -1.097 1.986 0 C
cp
f
GR
GS
[0.5035 0 0 0.5035 167.53031 296.46211] CT
1 0 0 RC
N
1.986 0 M
1.986 1.097 1.097 1.986 0 1.986 C
-1.097 1.986 -1.986 1.097 -1.986 0 C
-1.986 -1.097 -1.097 -1.986 0 -1.986 C
1.097 -1.986 1.986 -1.097 1.986 0 C
cp
f
GR
GS
[0.5035 0 0 0.5035 178.67738 304.28238] CT
1 0 0 RC
N
1.986 0 M
1.986 1.097 1.097 1.986 0 1.986 C
-1.097 1.986 -1.986 1.097 -1.986 0 C
-1.986 -1.097 -1.097 -1.986 0 -1.986 C
1.097 -1.986 1.986 -1.097 1.986 0 C
cp
f
GR
GS
[0.5035 0 0 0.5035 189.82445 301.49434] CT
1 0 0 RC
N
1.986 0 M
1.986 1.097 1.097 1.986 0 1.986 C
-1.097 1.986 -1.986 1.097 -1.986 0 C
-1.986 -1.097 -1.097 -1.986 0 -1.986 C
1.097 -1.986 1.986 -1.097 1.986 0 C
cp
f
GR
GS
[0.5035 0 0 0.5035 200.9715 296.03983] CT
1 0 0 RC
N
1.986 0 M
1.986 1.097 1.097 1.986 0 1.986 C
-1.097 1.986 -1.986 1.097 -1.986 0 C
-1.986 -1.097 -1.097 -1.986 0 -1.986 C
1.097 -1.986 1.986 -1.097 1.986 0 C
cp
f
GR
GS
[0.5035 0 0 0.5035 212.11857 303.81742] CT
1 0 0 RC
N
1.986 0 M
1.986 1.097 1.097 1.986 0 1.986 C
-1.097 1.986 -1.986 1.097 -1.986 0 C
-1.986 -1.097 -1.097 -1.986 0 -1.986 C
1.097 -1.986 1.986 -1.097 1.986 0 C
cp
f
GR
GS
[0.5035 0 0 0.5035 223.26563 303.47781] CT
1 0 0 RC
N
1.986 0 M
1.986 1.097 1.097 1.986 0 1.986 C
-1.097 1.986 -1.986 1.097 -1.986 0 C
-1.986 -1.097 -1.097 -1.986 0 -1.986 C
1.097 -1.986 1.986 -1.097 1.986 0 C
cp
f
GR
GS
[0.5035 0 0 0.5035 234.41268 311.10478] CT
1 0 0 RC
N
1.986 0 M
1.986 1.097 1.097 1.986 0 1.986 C
-1.097 1.986 -1.986 1.097 -1.986 0 C
-1.986 -1.097 -1.097 -1.986 0 -1.986 C
1.097 -1.986 1.986 -1.097 1.986 0 C
cp
f
GR
GS
[0.5035 0 0 0.5035 245.55975 312.00544] CT
1 0 0 RC
N
1.986 0 M
1.986 1.097 1.097 1.986 0 1.986 C
-1.097 1.986 -1.986 1.097 -1.986 0 C
-1.986 -1.097 -1.097 -1.986 0 -1.986 C
1.097 -1.986 1.986 -1.097 1.986 0 C
cp
f
GR
GS
[0.5035 0 0 0.5035 256.70682 306.46418] CT
1 0 0 RC
N
1.986 0 M
1.986 1.097 1.097 1.986 0 1.986 C
-1.097 1.986 -1.986 1.097 -1.986 0 C
-1.986 -1.097 -1.097 -1.986 0 -1.986 C
1.097 -1.986 1.986 -1.097 1.986 0 C
cp
f
GR
GS
[0.5035 0 0 0.5035 267.85387 314.88816] CT
1 0 0 RC
N
1.986 0 M
1.986 1.097 1.097 1.986 0 1.986 C
-1.097 1.986 -1.986 1.097 -1.986 0 C
-1.986 -1.097 -1.097 -1.986 0 -1.986 C
1.097 -1.986 1.986 -1.097 1.986 0 C
cp
f
GR
GS
[0.5035 0 0 0.5035 279.00095 316.10262] CT
1 0 0 RC
N
1.986 0 M
1.986 1.097 1.097 1.986 0 1.986 C
-1.097 1.986 -1.986 1.097 -1.986 0 C
-1.986 -1.097 -1.097 -1.986 0 -1.986 C
1.097 -1.986 1.986 -1.097 1.986 0 C
cp
f
GR
GS
[0.5035 0 0 0.5035 290.148 311.44531] CT
1 0 0 RC
N
1.986 0 M
1.986 1.097 1.097 1.986 0 1.986 C
-1.097 1.986 -1.986 1.097 -1.986 0 C
-1.986 -1.097 -1.097 -1.986 0 -1.986 C
1.097 -1.986 1.986 -1.097 1.986 0 C
cp
f
GR
GS
[0.5035 0 0 0.5035 301.29505 314.68601] CT
1 0 0 RC
N
1.986 0 M
1.986 1.097 1.097 1.986 0 1.986 C
-1.097 1.986 -1.986 1.097 -1.986 0 C
-1.986 -1.097 -1.097 -1.986 0 -1.986 C
1.097 -1.986 1.986 -1.097 1.986 0 C
cp
f
GR
GS
[0.5035 0 0 0.5035 312.44213 313.67161] CT
1 0 0 RC
N
1.986 0 M
1.986 1.097 1.097 1.986 0 1.986 C
-1.097 1.986 -1.986 1.097 -1.986 0 C
-1.986 -1.097 -1.097 -1.986 0 -1.986 C
1.097 -1.986 1.986 -1.097 1.986 0 C
cp
f
GR
GS
[0.5035 0 0 0.5035 323.58918 311.92769] CT
1 0 0 RC
N
1.986 0 M
1.986 1.097 1.097 1.986 0 1.986 C
-1.097 1.986 -1.986 1.097 -1.986 0 C
-1.986 -1.097 -1.097 -1.986 0 -1.986 C
1.097 -1.986 1.986 -1.097 1.986 0 C
cp
f
GR
GS
[0.5035 0 0 0.5035 334.73623 313.60253] CT
1 0 0 RC
N
1.986 0 M
1.986 1.097 1.097 1.986 0 1.986 C
-1.097 1.986 -1.986 1.097 -1.986 0 C
-1.986 -1.097 -1.097 -1.986 0 -1.986 C
1.097 -1.986 1.986 -1.097 1.986 0 C
cp
f
GR
GS
[0.5035 0 0 0.5035 345.88332 315.51311] CT
1 0 0 RC
N
1.986 0 M
1.986 1.097 1.097 1.986 0 1.986 C
-1.097 1.986 -1.986 1.097 -1.986 0 C
-1.986 -1.097 -1.097 -1.986 0 -1.986 C
1.097 -1.986 1.986 -1.097 1.986 0 C
cp
f
GR
GS
[0.5035 0 0 0.5035 357.03037 316.28313] CT
1 0 0 RC
N
1.986 0 M
1.986 1.097 1.097 1.986 0 1.986 C
-1.097 1.986 -1.986 1.097 -1.986 0 C
-1.986 -1.097 -1.097 -1.986 0 -1.986 C
1.097 -1.986 1.986 -1.097 1.986 0 C
cp
f
GR
GS
[0.5035 0 0 0.5035 368.17742 316.34911] CT
1 0 0 RC
N
1.986 0 M
1.986 1.097 1.097 1.986 0 1.986 C
-1.097 1.986 -1.986 1.097 -1.986 0 C
-1.986 -1.097 -1.097 -1.986 0 -1.986 C
1.097 -1.986 1.986 -1.097 1.986 0 C
cp
f
GR
GS
[0.5035 0 0 0.5035 0 -0.27972] CT
1 GC
N
516 556 M
516 508 L
731 508 L
731 556 L
cp
f
GR
GS
[0.5035 0 0 0.5035 278.43356 261.97447] CT
/Helvetica 17.875 F
GS
[1 0 0 1 0 0] CT
0 6 moveto 
1 -1 scale
(Train MAE, rotation) t 
GR
GR
GS
[0.5035 0 0 0.5035 0 -0.27972] CT
0 0 1 RC
1 LJ
0.993 LW
N
520 520.866 M
550 520.866 L
S
GR
GS
[0.5035 0 0 0.5035 269.37062 261.97447] CT
0 0 1 RC
N
1.986 0 M
1.986 1.097 1.097 1.986 0 1.986 C
-1.097 1.986 -1.986 1.097 -1.986 0 C
-1.986 -1.097 -1.097 -1.986 0 -1.986 C
1.097 -1.986 1.986 -1.097 1.986 0 C
cp
f
GR
GS
[0.5035 0 0 0.5035 278.43356 273.18636] CT
/Helvetica 17.875 F
GS
[1 0 0 1 0 0] CT
0 6 moveto 
1 -1 scale
(Test MAE, rotation) t 
GR
GR
GS
[0.5035 0 0 0.5035 0 -0.27972] CT
1 0 0 RC
1 LJ
0.993 LW
N
520 543.134 M
550 543.134 L
S
GR
GS
[0.5035 0 0 0.5035 269.37062 273.18636] CT
1 0 0 RC
N
1.986 0 M
1.986 1.097 1.097 1.986 0 1.986 C
-1.097 1.986 -1.986 1.097 -1.986 0 C
-1.986 -1.097 -1.097 -1.986 0 -1.986 C
1.097 -1.986 1.986 -1.097 1.986 0 C
cp
f
GR
GS
[0.5035 0 0 0.5035 0 -0.27972] CT
0.149 GC
10.0 ML
0.993 LW
N
516 556 M
516 508 L
731 508 L
731 556 L
cp
S
GR
GS
[0.5035 0 0 0.5035 0 -0.27972] CT
1 GC
N
157.833 450 M
751.167 450 L
751.167 94 L
157.833 94 L
cp
f
GR
GS
[0.5035 0 0 0.5035 0 -0.27972] CT
0.775 GC
[1 3] 0 setdash
2 LJ
0.993 LW
N
166.689 450 M
166.689 94 L
S
GR
GS
[0.5035 0 0 0.5035 0 -0.27972] CT
0.775 GC
[1 3] 0 setdash
2 LJ
0.993 LW
N
177.759 450 M
177.759 94 L
S
GR
GS
[0.5035 0 0 0.5035 0 -0.27972] CT
0.775 GC
[1 3] 0 setdash
2 LJ
0.993 LW
N
188.828 450 M
188.828 94 L
S
GR
GS
[0.5035 0 0 0.5035 0 -0.27972] CT
0.775 GC
[1 3] 0 setdash
2 LJ
0.993 LW
N
210.968 450 M
210.968 94 L
S
GR
GS
[0.5035 0 0 0.5035 0 -0.27972] CT
0.775 GC
[1 3] 0 setdash
2 LJ
0.993 LW
N
222.037 450 M
222.037 94 L
S
GR
GS
[0.5035 0 0 0.5035 0 -0.27972] CT
0.775 GC
[1 3] 0 setdash
2 LJ
0.993 LW
N
233.107 450 M
233.107 94 L
S
GR
GS
[0.5035 0 0 0.5035 0 -0.27972] CT
0.775 GC
[1 3] 0 setdash
2 LJ
0.993 LW
N
244.177 450 M
244.177 94 L
S
GR
GS
[0.5035 0 0 0.5035 0 -0.27972] CT
0.775 GC
[1 3] 0 setdash
2 LJ
0.993 LW
N
255.246 450 M
255.246 94 L
S
GR
GS
[0.5035 0 0 0.5035 0 -0.27972] CT
0.775 GC
[1 3] 0 setdash
2 LJ
0.993 LW
N
266.316 450 M
266.316 94 L
S
GR
GS
[0.5035 0 0 0.5035 0 -0.27972] CT
0.775 GC
[1 3] 0 setdash
2 LJ
0.993 LW
N
277.386 450 M
277.386 94 L
S
GR
GS
[0.5035 0 0 0.5035 0 -0.27972] CT
0.775 GC
[1 3] 0 setdash
2 LJ
0.993 LW
N
288.455 450 M
288.455 94 L
S
GR
GS
[0.5035 0 0 0.5035 0 -0.27972] CT
0.775 GC
[1 3] 0 setdash
2 LJ
0.993 LW
N
299.525 450 M
299.525 94 L
S
GR
GS
[0.5035 0 0 0.5035 0 -0.27972] CT
0.775 GC
[1 3] 0 setdash
2 LJ
0.993 LW
N
321.664 450 M
321.664 94 L
S
GR
GS
[0.5035 0 0 0.5035 0 -0.27972] CT
0.775 GC
[1 3] 0 setdash
2 LJ
0.993 LW
N
332.734 450 M
332.734 94 L
S
GR
GS
[0.5035 0 0 0.5035 0 -0.27972] CT
0.775 GC
[1 3] 0 setdash
2 LJ
0.993 LW
N
343.803 450 M
343.803 94 L
S
GR
GS
[0.5035 0 0 0.5035 0 -0.27972] CT
0.775 GC
[1 3] 0 setdash
2 LJ
0.993 LW
N
354.873 450 M
354.873 94 L
S
GR
GS
[0.5035 0 0 0.5035 0 -0.27972] CT
0.775 GC
[1 3] 0 setdash
2 LJ
0.993 LW
N
365.943 450 M
365.943 94 L
S
GR
GS
[0.5035 0 0 0.5035 0 -0.27972] CT
0.775 GC
[1 3] 0 setdash
2 LJ
0.993 LW
N
377.012 450 M
377.012 94 L
S
GR
GS
[0.5035 0 0 0.5035 0 -0.27972] CT
0.775 GC
[1 3] 0 setdash
2 LJ
0.993 LW
N
388.082 450 M
388.082 94 L
S
GR
GS
[0.5035 0 0 0.5035 0 -0.27972] CT
0.775 GC
[1 3] 0 setdash
2 LJ
0.993 LW
N
399.152 450 M
399.152 94 L
S
GR
GS
[0.5035 0 0 0.5035 0 -0.27972] CT
0.775 GC
[1 3] 0 setdash
2 LJ
0.993 LW
N
410.221 450 M
410.221 94 L
S
GR
GS
[0.5035 0 0 0.5035 0 -0.27972] CT
0.775 GC
[1 3] 0 setdash
2 LJ
0.993 LW
N
432.361 450 M
432.361 94 L
S
GR
GS
[0.5035 0 0 0.5035 0 -0.27972] CT
0.775 GC
[1 3] 0 setdash
2 LJ
0.993 LW
N
443.43 450 M
443.43 94 L
S
GR
GS
[0.5035 0 0 0.5035 0 -0.27972] CT
0.775 GC
[1 3] 0 setdash
2 LJ
0.993 LW
N
454.5 450 M
454.5 94 L
S
GR
GS
[0.5035 0 0 0.5035 0 -0.27972] CT
0.775 GC
[1 3] 0 setdash
2 LJ
0.993 LW
N
465.57 450 M
465.57 94 L
S
GR
GS
[0.5035 0 0 0.5035 0 -0.27972] CT
0.775 GC
[1 3] 0 setdash
2 LJ
0.993 LW
N
476.639 450 M
476.639 94 L
S
GR
GS
[0.5035 0 0 0.5035 0 -0.27972] CT
0.775 GC
[1 3] 0 setdash
2 LJ
0.993 LW
N
487.709 450 M
487.709 94 L
S
GR
GS
[0.5035 0 0 0.5035 0 -0.27972] CT
0.775 GC
[1 3] 0 setdash
2 LJ
0.993 LW
N
498.779 450 M
498.779 94 L
S
GR
GS
[0.5035 0 0 0.5035 0 -0.27972] CT
0.775 GC
[1 3] 0 setdash
2 LJ
0.993 LW
N
509.848 450 M
509.848 94 L
S
GR
GS
[0.5035 0 0 0.5035 0 -0.27972] CT
0.775 GC
[1 3] 0 setdash
2 LJ
0.993 LW
N
520.918 450 M
520.918 94 L
S
GR
GS
[0.5035 0 0 0.5035 0 -0.27972] CT
0.775 GC
[1 3] 0 setdash
2 LJ
0.993 LW
N
543.057 450 M
543.057 94 L
S
GR
GS
[0.5035 0 0 0.5035 0 -0.27972] CT
0.775 GC
[1 3] 0 setdash
2 LJ
0.993 LW
N
554.127 450 M
554.127 94 L
S
GR
GS
[0.5035 0 0 0.5035 0 -0.27972] CT
0.775 GC
[1 3] 0 setdash
2 LJ
0.993 LW
N
565.197 450 M
565.197 94 L
S
GR
GS
[0.5035 0 0 0.5035 0 -0.27972] CT
0.775 GC
[1 3] 0 setdash
2 LJ
0.993 LW
N
576.266 450 M
576.266 94 L
S
GR
GS
[0.5035 0 0 0.5035 0 -0.27972] CT
0.775 GC
[1 3] 0 setdash
2 LJ
0.993 LW
N
587.336 450 M
587.336 94 L
S
GR
GS
[0.5035 0 0 0.5035 0 -0.27972] CT
0.775 GC
[1 3] 0 setdash
2 LJ
0.993 LW
N
598.405 450 M
598.405 94 L
S
GR
GS
[0.5035 0 0 0.5035 0 -0.27972] CT
0.775 GC
[1 3] 0 setdash
2 LJ
0.993 LW
N
609.475 450 M
609.475 94 L
S
GR
GS
[0.5035 0 0 0.5035 0 -0.27972] CT
0.775 GC
[1 3] 0 setdash
2 LJ
0.993 LW
N
620.545 450 M
620.545 94 L
S
GR
GS
[0.5035 0 0 0.5035 0 -0.27972] CT
0.775 GC
[1 3] 0 setdash
2 LJ
0.993 LW
N
631.614 450 M
631.614 94 L
S
GR
GS
[0.5035 0 0 0.5035 0 -0.27972] CT
0.775 GC
[1 3] 0 setdash
2 LJ
0.993 LW
N
653.754 450 M
653.754 94 L
S
GR
GS
[0.5035 0 0 0.5035 0 -0.27972] CT
0.775 GC
[1 3] 0 setdash
2 LJ
0.993 LW
N
664.823 450 M
664.823 94 L
S
GR
GS
[0.5035 0 0 0.5035 0 -0.27972] CT
0.775 GC
[1 3] 0 setdash
2 LJ
0.993 LW
N
675.893 450 M
675.893 94 L
S
GR
GS
[0.5035 0 0 0.5035 0 -0.27972] CT
0.775 GC
[1 3] 0 setdash
2 LJ
0.993 LW
N
686.963 450 M
686.963 94 L
S
GR
GS
[0.5035 0 0 0.5035 0 -0.27972] CT
0.775 GC
[1 3] 0 setdash
2 LJ
0.993 LW
N
698.032 450 M
698.032 94 L
S
GR
GS
[0.5035 0 0 0.5035 0 -0.27972] CT
0.775 GC
[1 3] 0 setdash
2 LJ
0.993 LW
N
709.102 450 M
709.102 94 L
S
GR
GS
[0.5035 0 0 0.5035 0 -0.27972] CT
0.775 GC
[1 3] 0 setdash
2 LJ
0.993 LW
N
720.172 450 M
720.172 94 L
S
GR
GS
[0.5035 0 0 0.5035 0 -0.27972] CT
0.775 GC
[1 3] 0 setdash
2 LJ
0.993 LW
N
731.241 450 M
731.241 94 L
S
GR
GS
[0.5035 0 0 0.5035 0 -0.27972] CT
0.775 GC
[1 3] 0 setdash
2 LJ
0.993 LW
N
742.311 450 M
742.311 94 L
S
GR
GS
[0.5035 0 0 0.5035 0 -0.27972] CT
0.873 GC
1 LJ
0.993 LW
N
199.898 450 M
199.898 94 L
S
GR
GS
[0.5035 0 0 0.5035 0 -0.27972] CT
0.873 GC
1 LJ
0.993 LW
N
310.595 450 M
310.595 94 L
S
GR
GS
[0.5035 0 0 0.5035 0 -0.27972] CT
0.873 GC
1 LJ
0.993 LW
N
421.291 450 M
421.291 94 L
S
GR
GS
[0.5035 0 0 0.5035 0 -0.27972] CT
0.873 GC
1 LJ
0.993 LW
N
531.988 450 M
531.988 94 L
S
GR
GS
[0.5035 0 0 0.5035 0 -0.27972] CT
0.873 GC
1 LJ
0.993 LW
N
642.684 450 M
642.684 94 L
S
GR
GS
[0.5035 0 0 0.5035 0 -0.27972] CT
0.775 GC
[1 3] 0 setdash
2 LJ
0.993 LW
N
751.167 437.286 M
157.833 437.286 L
S
GR
GS
[0.5035 0 0 0.5035 0 -0.27972] CT
0.775 GC
[1 3] 0 setdash
2 LJ
0.993 LW
N
751.167 424.571 M
157.833 424.571 L
S
GR
GS
[0.5035 0 0 0.5035 0 -0.27972] CT
0.775 GC
[1 3] 0 setdash
2 LJ
0.993 LW
N
751.167 411.857 M
157.833 411.857 L
S
GR
GS
[0.5035 0 0 0.5035 0 -0.27972] CT
0.775 GC
[1 3] 0 setdash
2 LJ
0.993 LW
N
751.167 386.429 M
157.833 386.429 L
S
GR
GS
[0.5035 0 0 0.5035 0 -0.27972] CT
0.775 GC
[1 3] 0 setdash
2 LJ
0.993 LW
N
751.167 373.714 M
157.833 373.714 L
S
GR
GS
[0.5035 0 0 0.5035 0 -0.27972] CT
0.775 GC
[1 3] 0 setdash
2 LJ
0.993 LW
N
751.167 361 M
157.833 361 L
S
GR
GS
[0.5035 0 0 0.5035 0 -0.27972] CT
0.775 GC
[1 3] 0 setdash
2 LJ
0.993 LW
N
751.167 335.571 M
157.833 335.571 L
S
GR
GS
[0.5035 0 0 0.5035 0 -0.27972] CT
0.775 GC
[1 3] 0 setdash
2 LJ
0.993 LW
N
751.167 322.857 M
157.833 322.857 L
S
GR
GS
[0.5035 0 0 0.5035 0 -0.27972] CT
0.775 GC
[1 3] 0 setdash
2 LJ
0.993 LW
N
751.167 310.143 M
157.833 310.143 L
S
GR
GS
[0.5035 0 0 0.5035 0 -0.27972] CT
0.775 GC
[1 3] 0 setdash
2 LJ
0.993 LW
N
751.167 284.714 M
157.833 284.714 L
S
GR
GS
[0.5035 0 0 0.5035 0 -0.27972] CT
0.775 GC
[1 3] 0 setdash
2 LJ
0.993 LW
N
751.167 272 M
157.833 272 L
S
GR
GS
[0.5035 0 0 0.5035 0 -0.27972] CT
0.775 GC
[1 3] 0 setdash
2 LJ
0.993 LW
N
751.167 259.286 M
157.833 259.286 L
S
GR
GS
[0.5035 0 0 0.5035 0 -0.27972] CT
0.775 GC
[1 3] 0 setdash
2 LJ
0.993 LW
N
751.167 233.857 M
157.833 233.857 L
S
GR
GS
[0.5035 0 0 0.5035 0 -0.27972] CT
0.775 GC
[1 3] 0 setdash
2 LJ
0.993 LW
N
751.167 221.143 M
157.833 221.143 L
S
GR
GS
[0.5035 0 0 0.5035 0 -0.27972] CT
0.775 GC
[1 3] 0 setdash
2 LJ
0.993 LW
N
751.167 208.429 M
157.833 208.429 L
S
GR
GS
[0.5035 0 0 0.5035 0 -0.27972] CT
0.775 GC
[1 3] 0 setdash
2 LJ
0.993 LW
N
751.167 183 M
157.833 183 L
S
GR
GS
[0.5035 0 0 0.5035 0 -0.27972] CT
0.775 GC
[1 3] 0 setdash
2 LJ
0.993 LW
N
751.167 170.286 M
157.833 170.286 L
S
GR
GS
[0.5035 0 0 0.5035 0 -0.27972] CT
0.775 GC
[1 3] 0 setdash
2 LJ
0.993 LW
N
751.167 157.571 M
157.833 157.571 L
S
GR
GS
[0.5035 0 0 0.5035 0 -0.27972] CT
0.775 GC
[1 3] 0 setdash
2 LJ
0.993 LW
N
751.167 132.143 M
157.833 132.143 L
S
GR
GS
[0.5035 0 0 0.5035 0 -0.27972] CT
0.775 GC
[1 3] 0 setdash
2 LJ
0.993 LW
N
751.167 119.429 M
157.833 119.429 L
S
GR
GS
[0.5035 0 0 0.5035 0 -0.27972] CT
0.775 GC
[1 3] 0 setdash
2 LJ
0.993 LW
N
751.167 106.714 M
157.833 106.714 L
S
GR
GS
[0.5035 0 0 0.5035 0 -0.27972] CT
0.873 GC
1 LJ
0.993 LW
N
751.167 450 M
157.833 450 L
S
GR
GS
[0.5035 0 0 0.5035 0 -0.27972] CT
0.873 GC
1 LJ
0.993 LW
N
751.167 399.143 M
157.833 399.143 L
S
GR
GS
[0.5035 0 0 0.5035 0 -0.27972] CT
0.873 GC
1 LJ
0.993 LW
N
751.167 348.286 M
157.833 348.286 L
S
GR
GS
[0.5035 0 0 0.5035 0 -0.27972] CT
0.873 GC
1 LJ
0.993 LW
N
751.167 297.429 M
157.833 297.429 L
S
GR
GS
[0.5035 0 0 0.5035 0 -0.27972] CT
0.873 GC
1 LJ
0.993 LW
N
751.167 246.571 M
157.833 246.571 L
S
GR
GS
[0.5035 0 0 0.5035 0 -0.27972] CT
0.873 GC
1 LJ
0.993 LW
N
751.167 195.714 M
157.833 195.714 L
S
GR
GS
[0.5035 0 0 0.5035 0 -0.27972] CT
0.873 GC
1 LJ
0.993 LW
N
751.167 144.857 M
157.833 144.857 L
S
GR
GS
[0.5035 0 0 0.5035 0 -0.27972] CT
0.873 GC
1 LJ
0.993 LW
N
751.167 94 M
157.833 94 L
S
GR
GS
[0.5035 0 0 0.5035 0 -0.27972] CT
0.149 GC
2 setlinecap
1 LJ
0.993 LW
N
157.833 450 M
751.167 450 L
S
GR
GS
[0.5035 0 0 0.5035 0 -0.27972] CT
0.149 GC
2 setlinecap
1 LJ
0.993 LW
N
157.833 94 M
751.167 94 L
S
GR
GS
[0.5035 0 0 0.5035 0 -0.27972] CT
0.149 GC
2 setlinecap
1 LJ
0.993 LW
N
199.898 450 M
199.898 444.067 L
S
GR
GS
[0.5035 0 0 0.5035 0 -0.27972] CT
0.149 GC
2 setlinecap
1 LJ
0.993 LW
N
310.595 450 M
310.595 444.067 L
S
GR
GS
[0.5035 0 0 0.5035 0 -0.27972] CT
0.149 GC
2 setlinecap
1 LJ
0.993 LW
N
421.291 450 M
421.291 444.067 L
S
GR
GS
[0.5035 0 0 0.5035 0 -0.27972] CT
0.149 GC
2 setlinecap
1 LJ
0.993 LW
N
531.988 450 M
531.988 444.067 L
S
GR
GS
[0.5035 0 0 0.5035 0 -0.27972] CT
0.149 GC
2 setlinecap
1 LJ
0.993 LW
N
642.684 450 M
642.684 444.067 L
S
GR
GS
[0.5035 0 0 0.5035 0 -0.27972] CT
0.149 GC
2 setlinecap
1 LJ
0.993 LW
N
199.898 94 M
199.898 99.933 L
S
GR
GS
[0.5035 0 0 0.5035 0 -0.27972] CT
0.149 GC
2 setlinecap
1 LJ
0.993 LW
N
310.595 94 M
310.595 99.933 L
S
GR
GS
[0.5035 0 0 0.5035 0 -0.27972] CT
0.149 GC
2 setlinecap
1 LJ
0.993 LW
N
421.291 94 M
421.291 99.933 L
S
GR
GS
[0.5035 0 0 0.5035 0 -0.27972] CT
0.149 GC
2 setlinecap
1 LJ
0.993 LW
N
531.988 94 M
531.988 99.933 L
S
GR
GS
[0.5035 0 0 0.5035 0 -0.27972] CT
0.149 GC
2 setlinecap
1 LJ
0.993 LW
N
642.684 94 M
642.684 99.933 L
S
GR
GS
[0.5035 0 0 0.5035 0 -0.27972] CT
0.149 GC
2 setlinecap
1 LJ
0.993 LW
N
157.833 450 M
157.833 94 L
S
GR
GS
[0.5035 0 0 0.5035 0 -0.27972] CT
0.149 GC
2 setlinecap
1 LJ
0.993 LW
N
751.167 450 M
751.167 94 L
S
GR
GS
[0.5035 0 0 0.5035 0 -0.27972] CT
0.149 GC
2 setlinecap
1 LJ
0.993 LW
N
157.833 450 M
163.767 450 L
S
GR
GS
[0.5035 0 0 0.5035 0 -0.27972] CT
0.149 GC
2 setlinecap
1 LJ
0.993 LW
N
157.833 399.143 M
163.767 399.143 L
S
GR
GS
[0.5035 0 0 0.5035 0 -0.27972] CT
0.149 GC
2 setlinecap
1 LJ
0.993 LW
N
157.833 348.286 M
163.767 348.286 L
S
GR
GS
[0.5035 0 0 0.5035 0 -0.27972] CT
0.149 GC
2 setlinecap
1 LJ
0.993 LW
N
157.833 297.429 M
163.767 297.429 L
S
GR
GS
[0.5035 0 0 0.5035 0 -0.27972] CT
0.149 GC
2 setlinecap
1 LJ
0.993 LW
N
157.833 246.571 M
163.767 246.571 L
S
GR
GS
[0.5035 0 0 0.5035 0 -0.27972] CT
0.149 GC
2 setlinecap
1 LJ
0.993 LW
N
157.833 195.714 M
163.767 195.714 L
S
GR
GS
[0.5035 0 0 0.5035 0 -0.27972] CT
0.149 GC
2 setlinecap
1 LJ
0.993 LW
N
157.833 144.857 M
163.767 144.857 L
S
GR
GS
[0.5035 0 0 0.5035 0 -0.27972] CT
0.149 GC
2 setlinecap
1 LJ
0.993 LW
N
157.833 94 M
163.767 94 L
S
GR
GS
[0.5035 0 0 0.5035 0 -0.27972] CT
0.149 GC
2 setlinecap
1 LJ
0.993 LW
N
751.167 450 M
745.233 450 L
S
GR
GS
[0.5035 0 0 0.5035 0 -0.27972] CT
0.149 GC
2 setlinecap
1 LJ
0.993 LW
N
751.167 399.143 M
745.233 399.143 L
S
GR
GS
[0.5035 0 0 0.5035 0 -0.27972] CT
0.149 GC
2 setlinecap
1 LJ
0.993 LW
N
751.167 348.286 M
745.233 348.286 L
S
GR
GS
[0.5035 0 0 0.5035 0 -0.27972] CT
0.149 GC
2 setlinecap
1 LJ
0.993 LW
N
751.167 297.429 M
745.233 297.429 L
S
GR
GS
[0.5035 0 0 0.5035 0 -0.27972] CT
0.149 GC
2 setlinecap
1 LJ
0.993 LW
N
751.167 246.571 M
745.233 246.571 L
S
GR
GS
[0.5035 0 0 0.5035 0 -0.27972] CT
0.149 GC
2 setlinecap
1 LJ
0.993 LW
N
751.167 195.714 M
745.233 195.714 L
S
GR
GS
[0.5035 0 0 0.5035 0 -0.27972] CT
0.149 GC
2 setlinecap
1 LJ
0.993 LW
N
751.167 144.857 M
745.233 144.857 L
S
GR
GS
[0.5035 0 0 0.5035 0 -0.27972] CT
0.149 GC
2 setlinecap
1 LJ
0.993 LW
N
751.167 94 M
745.233 94 L
S
GR
GS
[0.5035 0 0 0.5035 75.46854 226.2937] CT
0.149 GC
/Helvetica 19.861 F
GS
[1 0 0 1 0 0] CT
-32 7 moveto 
1 -1 scale
(3.5) t 
GR
GR
GS
[0.5035 0 0 0.5035 75.46854 200.68731] CT
0.149 GC
/Helvetica 19.861 F
GS
[1 0 0 1 0 0] CT
-13 7 moveto 
1 -1 scale
(4) t 
GR
GR
GS
[0.5035 0 0 0.5035 75.46854 175.08091] CT
0.149 GC
/Helvetica 19.861 F
GS
[1 0 0 1 0 0] CT
-32 7 moveto 
1 -1 scale
(4.5) t 
GR
GR
GS
[0.5035 0 0 0.5035 75.46854 149.47452] CT
0.149 GC
/Helvetica 19.861 F
GS
[1 0 0 1 0 0] CT
-13 7 moveto 
1 -1 scale
(5) t 
GR
GR
GS
[0.5035 0 0 0.5035 75.46854 123.86813] CT
0.149 GC
/Helvetica 19.861 F
GS
[1 0 0 1 0 0] CT
-32 7 moveto 
1 -1 scale
(5.5) t 
GR
GR
GS
[0.5035 0 0 0.5035 75.46854 98.26173] CT
0.149 GC
/Helvetica 19.861 F
GS
[1 0 0 1 0 0] CT
-13 7 moveto 
1 -1 scale
(6) t 
GR
GR
GS
[0.5035 0 0 0.5035 75.46854 72.65534] CT
0.149 GC
/Helvetica 19.861 F
GS
[1 0 0 1 0 0] CT
-32 7 moveto 
1 -1 scale
(6.5) t 
GR
GR
GS
[0.5035 0 0 0.5035 75.46854 47.04895] CT
0.149 GC
/Helvetica 19.861 F
GS
[1 0 0 1 0 0] CT
-13 7 moveto 
1 -1 scale
(7) t 
GR
GR
GS
[0 -0.5035 0.5035 0 56.35665 136.67123] CT
0.149 GC
/Helvetica 21.847 F
GS
[1 0 0 1 0 0] CT
-135.5 -6 moveto 
1 -1 scale
(Translational error [mm]) t 
GR
GR
GS
[0.5035 0 0 0.5035 228.83939 45.66432] CT
/Helvetica-Bold 21.847 F
GS
[1 0 0 1 0 0] CT
-278 -33 moveto 
1 -1 scale
(Robot-camera calibration error with 99 % CI,) t 
GR
GR
GS
[0.5035 0 0 0.5035 228.83939 45.66432] CT
/Helvetica-Bold 21.847 F
GS
[1 0 0 1 0 0] CT
-211 -6 moveto 
1 -1 scale
(10-repeat 10-fold cross validation) t 
GR
GR
GS
[0.5035 0 0 0.5035 0 -0.27972] CT
0 0 1 RC
1 LJ
0.993 LW
N
177.759 410.505 M
177.759 358.137 L
S
GR
GS
[0.5035 0 0 0.5035 0 -0.27972] CT
0 0 1 RC
1 LJ
0.993 LW
N
199.898 383.469 M
199.898 340.476 L
S
GR
GS
[0.5035 0 0 0.5035 0 -0.27972] CT
0 0 1 RC
1 LJ
0.993 LW
N
222.037 376.735 M
222.037 330.386 L
S
GR
GS
[0.5035 0 0 0.5035 0 -0.27972] CT
0 0 1 RC
1 LJ
0.993 LW
N
244.177 349.06 M
244.177 309.868 L
S
GR
GS
[0.5035 0 0 0.5035 0 -0.27972] CT
0 0 1 RC
1 LJ
0.993 LW
N
266.316 362.116 M
266.316 319.888 L
S
GR
GS
[0.5035 0 0 0.5035 0 -0.27972] CT
0 0 1 RC
1 LJ
0.993 LW
N
288.455 344.466 M
288.455 308.236 L
S
GR
GS
[0.5035 0 0 0.5035 0 -0.27972] CT
0 0 1 RC
1 LJ
0.993 LW
N
310.595 340.641 M
310.595 306.718 L
S
GR
GS
[0.5035 0 0 0.5035 0 -0.27972] CT
0 0 1 RC
1 LJ
0.993 LW
N
332.734 330.246 M
332.734 297.984 L
S
GR
GS
[0.5035 0 0 0.5035 0 -0.27972] CT
0 0 1 RC
1 LJ
0.993 LW
N
354.873 337.335 M
354.873 307.091 L
S
GR
GS
[0.5035 0 0 0.5035 0 -0.27972] CT
0 0 1 RC
1 LJ
0.993 LW
N
377.012 325.096 M
377.012 296.311 L
S
GR
GS
[0.5035 0 0 0.5035 0 -0.27972] CT
0 0 1 RC
1 LJ
0.993 LW
N
399.152 315.362 M
399.152 291.584 L
S
GR
GS
[0.5035 0 0 0.5035 0 -0.27972] CT
0 0 1 RC
1 LJ
0.993 LW
N
421.291 322.971 M
421.291 298.619 L
S
GR
GS
[0.5035 0 0 0.5035 0 -0.27972] CT
0 0 1 RC
1 LJ
0.993 LW
N
443.43 319.338 M
443.43 296.146 L
S
GR
GS
[0.5035 0 0 0.5035 0 -0.27972] CT
0 0 1 RC
1 LJ
0.993 LW
N
465.57 313.675 M
465.57 290.505 L
S
GR
GS
[0.5035 0 0 0.5035 0 -0.27972] CT
0 0 1 RC
1 LJ
0.993 LW
N
487.709 300.375 M
487.709 282.4 L
S
GR
GS
[0.5035 0 0 0.5035 0 -0.27972] CT
0 0 1 RC
1 LJ
0.993 LW
N
509.848 305.675 M
509.848 286.945 L
S
GR
GS
[0.5035 0 0 0.5035 0 -0.27972] CT
0 0 1 RC
1 LJ
0.993 LW
N
531.988 307.228 M
531.988 288.909 L
S
GR
GS
[0.5035 0 0 0.5035 0 -0.27972] CT
0 0 1 RC
1 LJ
0.993 LW
N
554.127 297.617 M
554.127 279.922 L
S
GR
GS
[0.5035 0 0 0.5035 0 -0.27972] CT
0 0 1 RC
1 LJ
0.993 LW
N
576.266 304.238 M
576.266 287.433 L
S
GR
GS
[0.5035 0 0 0.5035 0 -0.27972] CT
0 0 1 RC
1 LJ
0.993 LW
N
598.405 301.525 M
598.405 287.351 L
S
GR
GS
[0.5035 0 0 0.5035 0 -0.27972] CT
0 0 1 RC
1 LJ
0.993 LW
N
620.545 298.799 M
620.545 284.032 L
S
GR
GS
[0.5035 0 0 0.5035 0 -0.27972] CT
0 0 1 RC
1 LJ
0.993 LW
N
642.684 293.966 M
642.684 280.9 L
S
GR
GS
[0.5035 0 0 0.5035 0 -0.27972] CT
0 0 1 RC
1 LJ
0.993 LW
N
664.823 299.389 M
664.823 287.012 L
S
GR
GS
[0.5035 0 0 0.5035 0 -0.27972] CT
0 0 1 RC
1 LJ
0.993 LW
N
686.963 299.97 M
686.963 286.91 L
S
GR
GS
[0.5035 0 0 0.5035 0 -0.27972] CT
0 0 1 RC
1 LJ
0.993 LW
N
709.102 295.652 M
709.102 284.688 L
S
GR
GS
[0.5035 0 0 0.5035 0 -0.27972] CT
0 0 1 RC
1 LJ
0.993 LW
N
731.241 293.408 M
731.241 283.78 L
S
GR
GS
[0.5035 0 0 0.5035 0 -0.27972] CT
0 0 1 RC
1 LJ
0.993 LW
N
157.774 394.479 M
162.483 394.479 L
S
GR
GS
[0.5035 0 0 0.5035 0 -0.27972] CT
0 0 1 RC
1 LJ
0.993 LW
N
170.896 410.505 M
184.622 410.505 L
S
GR
GS
[0.5035 0 0 0.5035 0 -0.27972] CT
0 0 1 RC
1 LJ
0.993 LW
N
193.035 383.469 M
206.761 383.469 L
S
GR
GS
[0.5035 0 0 0.5035 0 -0.27972] CT
0 0 1 RC
1 LJ
0.993 LW
N
215.174 376.735 M
228.901 376.735 L
S
GR
GS
[0.5035 0 0 0.5035 0 -0.27972] CT
0 0 1 RC
1 LJ
0.993 LW
N
237.313 349.06 M
251.04 349.06 L
S
GR
GS
[0.5035 0 0 0.5035 0 -0.27972] CT
0 0 1 RC
1 LJ
0.993 LW
N
259.453 362.116 M
273.179 362.116 L
S
GR
GS
[0.5035 0 0 0.5035 0 -0.27972] CT
0 0 1 RC
1 LJ
0.993 LW
N
281.592 344.466 M
295.318 344.466 L
S
GR
GS
[0.5035 0 0 0.5035 0 -0.27972] CT
0 0 1 RC
1 LJ
0.993 LW
N
303.731 340.641 M
317.458 340.641 L
S
GR
GS
[0.5035 0 0 0.5035 0 -0.27972] CT
0 0 1 RC
1 LJ
0.993 LW
N
325.871 330.246 M
339.597 330.246 L
S
GR
GS
[0.5035 0 0 0.5035 0 -0.27972] CT
0 0 1 RC
1 LJ
0.993 LW
N
348.01 337.335 M
361.736 337.335 L
S
GR
GS
[0.5035 0 0 0.5035 0 -0.27972] CT
0 0 1 RC
1 LJ
0.993 LW
N
370.149 325.096 M
383.876 325.096 L
S
GR
GS
[0.5035 0 0 0.5035 0 -0.27972] CT
0 0 1 RC
1 LJ
0.993 LW
N
392.289 315.362 M
406.015 315.362 L
S
GR
GS
[0.5035 0 0 0.5035 0 -0.27972] CT
0 0 1 RC
1 LJ
0.993 LW
N
414.428 322.971 M
428.154 322.971 L
S
GR
GS
[0.5035 0 0 0.5035 0 -0.27972] CT
0 0 1 RC
1 LJ
0.993 LW
N
436.567 319.338 M
450.294 319.338 L
S
GR
GS
[0.5035 0 0 0.5035 0 -0.27972] CT
0 0 1 RC
1 LJ
0.993 LW
N
458.706 313.675 M
472.433 313.675 L
S
GR
GS
[0.5035 0 0 0.5035 0 -0.27972] CT
0 0 1 RC
1 LJ
0.993 LW
N
480.846 300.375 M
494.572 300.375 L
S
GR
GS
[0.5035 0 0 0.5035 0 -0.27972] CT
0 0 1 RC
1 LJ
0.993 LW
N
502.985 305.675 M
516.711 305.675 L
S
GR
GS
[0.5035 0 0 0.5035 0 -0.27972] CT
0 0 1 RC
1 LJ
0.993 LW
N
525.124 307.228 M
538.851 307.228 L
S
GR
GS
[0.5035 0 0 0.5035 0 -0.27972] CT
0 0 1 RC
1 LJ
0.993 LW
N
547.264 297.617 M
560.99 297.617 L
S
GR
GS
[0.5035 0 0 0.5035 0 -0.27972] CT
0 0 1 RC
1 LJ
0.993 LW
N
569.403 304.238 M
583.129 304.238 L
S
GR
GS
[0.5035 0 0 0.5035 0 -0.27972] CT
0 0 1 RC
1 LJ
0.993 LW
N
591.542 301.525 M
605.269 301.525 L
S
GR
GS
[0.5035 0 0 0.5035 0 -0.27972] CT
0 0 1 RC
1 LJ
0.993 LW
N
613.682 298.799 M
627.408 298.799 L
S
GR
GS
[0.5035 0 0 0.5035 0 -0.27972] CT
0 0 1 RC
1 LJ
0.993 LW
N
635.821 293.966 M
649.547 293.966 L
S
GR
GS
[0.5035 0 0 0.5035 0 -0.27972] CT
0 0 1 RC
1 LJ
0.993 LW
N
657.96 299.389 M
671.687 299.389 L
S
GR
GS
[0.5035 0 0 0.5035 0 -0.27972] CT
0 0 1 RC
1 LJ
0.993 LW
N
680.099 299.97 M
693.826 299.97 L
S
GR
GS
[0.5035 0 0 0.5035 0 -0.27972] CT
0 0 1 RC
1 LJ
0.993 LW
N
702.239 295.652 M
715.965 295.652 L
S
GR
GS
[0.5035 0 0 0.5035 0 -0.27972] CT
0 0 1 RC
1 LJ
0.993 LW
N
724.378 293.408 M
738.104 293.408 L
S
GR
GS
[0.5035 0 0 0.5035 0 -0.27972] CT
0 0 1 RC
1 LJ
0.993 LW
N
157.774 327.024 M
162.483 327.024 L
S
GR
GS
[0.5035 0 0 0.5035 0 -0.27972] CT
0 0 1 RC
1 LJ
0.993 LW
N
170.896 358.137 M
184.622 358.137 L
S
GR
GS
[0.5035 0 0 0.5035 0 -0.27972] CT
0 0 1 RC
1 LJ
0.993 LW
N
193.035 340.476 M
206.761 340.476 L
S
GR
GS
[0.5035 0 0 0.5035 0 -0.27972] CT
0 0 1 RC
1 LJ
0.993 LW
N
215.174 330.386 M
228.901 330.386 L
S
GR
GS
[0.5035 0 0 0.5035 0 -0.27972] CT
0 0 1 RC
1 LJ
0.993 LW
N
237.313 309.868 M
251.04 309.868 L
S
GR
GS
[0.5035 0 0 0.5035 0 -0.27972] CT
0 0 1 RC
1 LJ
0.993 LW
N
259.453 319.888 M
273.179 319.888 L
S
GR
GS
[0.5035 0 0 0.5035 0 -0.27972] CT
0 0 1 RC
1 LJ
0.993 LW
N
281.592 308.236 M
295.318 308.236 L
S
GR
GS
[0.5035 0 0 0.5035 0 -0.27972] CT
0 0 1 RC
1 LJ
0.993 LW
N
303.731 306.718 M
317.458 306.718 L
S
GR
GS
[0.5035 0 0 0.5035 0 -0.27972] CT
0 0 1 RC
1 LJ
0.993 LW
N
325.871 297.984 M
339.597 297.984 L
S
GR
GS
[0.5035 0 0 0.5035 0 -0.27972] CT
0 0 1 RC
1 LJ
0.993 LW
N
348.01 307.091 M
361.736 307.091 L
S
GR
GS
[0.5035 0 0 0.5035 0 -0.27972] CT
0 0 1 RC
1 LJ
0.993 LW
N
370.149 296.311 M
383.876 296.311 L
S
GR
GS
[0.5035 0 0 0.5035 0 -0.27972] CT
0 0 1 RC
1 LJ
0.993 LW
N
392.289 291.584 M
406.015 291.584 L
S
GR
GS
[0.5035 0 0 0.5035 0 -0.27972] CT
0 0 1 RC
1 LJ
0.993 LW
N
414.428 298.619 M
428.154 298.619 L
S
GR
GS
[0.5035 0 0 0.5035 0 -0.27972] CT
0 0 1 RC
1 LJ
0.993 LW
N
436.567 296.146 M
450.294 296.146 L
S
GR
GS
[0.5035 0 0 0.5035 0 -0.27972] CT
0 0 1 RC
1 LJ
0.993 LW
N
458.706 290.505 M
472.433 290.505 L
S
GR
GS
[0.5035 0 0 0.5035 0 -0.27972] CT
0 0 1 RC
1 LJ
0.993 LW
N
480.846 282.4 M
494.572 282.4 L
S
GR
GS
[0.5035 0 0 0.5035 0 -0.27972] CT
0 0 1 RC
1 LJ
0.993 LW
N
502.985 286.945 M
516.711 286.945 L
S
GR
GS
[0.5035 0 0 0.5035 0 -0.27972] CT
0 0 1 RC
1 LJ
0.993 LW
N
525.124 288.909 M
538.851 288.909 L
S
GR
GS
[0.5035 0 0 0.5035 0 -0.27972] CT
0 0 1 RC
1 LJ
0.993 LW
N
547.264 279.922 M
560.99 279.922 L
S
GR
GS
[0.5035 0 0 0.5035 0 -0.27972] CT
0 0 1 RC
1 LJ
0.993 LW
N
569.403 287.433 M
583.129 287.433 L
S
GR
GS
[0.5035 0 0 0.5035 0 -0.27972] CT
0 0 1 RC
1 LJ
0.993 LW
N
591.542 287.351 M
605.269 287.351 L
S
GR
GS
[0.5035 0 0 0.5035 0 -0.27972] CT
0 0 1 RC
1 LJ
0.993 LW
N
613.682 284.032 M
627.408 284.032 L
S
GR
GS
[0.5035 0 0 0.5035 0 -0.27972] CT
0 0 1 RC
1 LJ
0.993 LW
N
635.821 280.9 M
649.547 280.9 L
S
GR
GS
[0.5035 0 0 0.5035 0 -0.27972] CT
0 0 1 RC
1 LJ
0.993 LW
N
657.96 287.012 M
671.687 287.012 L
S
GR
GS
[0.5035 0 0 0.5035 0 -0.27972] CT
0 0 1 RC
1 LJ
0.993 LW
N
680.099 286.91 M
693.826 286.91 L
S
GR
GS
[0.5035 0 0 0.5035 0 -0.27972] CT
0 0 1 RC
1 LJ
0.993 LW
N
702.239 284.688 M
715.965 284.688 L
S
GR
GS
[0.5035 0 0 0.5035 0 -0.27972] CT
0 0 1 RC
1 LJ
0.993 LW
N
724.378 283.78 M
738.104 283.78 L
S
GR
GS
[0.5035 0 0 0.5035 0 -0.27972] CT
0 0 1 RC
1 LJ
0.993 LW
N
157.774 363.045 M
177.759 384.321 L
199.898 361.972 L
222.037 353.56 L
244.177 329.464 L
266.316 341.002 L
288.455 326.351 L
310.595 323.68 L
332.734 314.115 L
354.873 322.213 L
377.012 310.703 L
399.152 303.473 L
421.291 310.795 L
443.43 307.742 L
465.57 302.09 L
487.709 291.388 L
509.848 296.31 L
531.988 298.069 L
554.127 288.77 L
576.266 295.835 L
598.405 294.438 L
620.545 291.415 L
642.684 287.433 L
664.823 293.201 L
686.963 293.44 L
709.102 290.17 L
731.241 288.594 L
S
GR
GS
[0.5035 0 0 0.5035 89.50089 193.22458] CT
0 0 1 RC
N
1.986 0 M
1.986 1.097 1.097 1.986 0 1.986 C
-1.097 1.986 -1.986 1.097 -1.986 0 C
-1.986 -1.097 -1.097 -1.986 0 -1.986 C
1.097 -1.986 1.986 -1.097 1.986 0 C
cp
f
GR
GS
[0.5035 0 0 0.5035 100.64795 181.97214] CT
0 0 1 RC
N
1.986 0 M
1.986 1.097 1.097 1.986 0 1.986 C
-1.097 1.986 -1.986 1.097 -1.986 0 C
-1.986 -1.097 -1.097 -1.986 0 -1.986 C
1.097 -1.986 1.986 -1.097 1.986 0 C
cp
f
GR
GS
[0.5035 0 0 0.5035 111.79501 177.73673] CT
0 0 1 RC
N
1.986 0 M
1.986 1.097 1.097 1.986 0 1.986 C
-1.097 1.986 -1.986 1.097 -1.986 0 C
-1.986 -1.097 -1.097 -1.986 0 -1.986 C
1.097 -1.986 1.986 -1.097 1.986 0 C
cp
f
GR
GS
[0.5035 0 0 0.5035 122.94207 165.60421] CT
0 0 1 RC
N
1.986 0 M
1.986 1.097 1.097 1.986 0 1.986 C
-1.097 1.986 -1.986 1.097 -1.986 0 C
-1.986 -1.097 -1.097 -1.986 0 -1.986 C
1.097 -1.986 1.986 -1.097 1.986 0 C
cp
f
GR
GS
[0.5035 0 0 0.5035 134.08913 171.41372] CT
0 0 1 RC
N
1.986 0 M
1.986 1.097 1.097 1.986 0 1.986 C
-1.097 1.986 -1.986 1.097 -1.986 0 C
-1.986 -1.097 -1.097 -1.986 0 -1.986 C
1.097 -1.986 1.986 -1.097 1.986 0 C
cp
f
GR
GS
[0.5035 0 0 0.5035 145.2362 164.03683] CT
0 0 1 RC
N
1.986 0 M
1.986 1.097 1.097 1.986 0 1.986 C
-1.097 1.986 -1.986 1.097 -1.986 0 C
-1.986 -1.097 -1.097 -1.986 0 -1.986 C
1.097 -1.986 1.986 -1.097 1.986 0 C
cp
f
GR
GS
[0.5035 0 0 0.5035 156.38325 162.69179] CT
0 0 1 RC
N
1.986 0 M
1.986 1.097 1.097 1.986 0 1.986 C
-1.097 1.986 -1.986 1.097 -1.986 0 C
-1.986 -1.097 -1.097 -1.986 0 -1.986 C
1.097 -1.986 1.986 -1.097 1.986 0 C
cp
f
GR
GS
[0.5035 0 0 0.5035 167.53031 157.87608] CT
0 0 1 RC
N
1.986 0 M
1.986 1.097 1.097 1.986 0 1.986 C
-1.097 1.986 -1.986 1.097 -1.986 0 C
-1.986 -1.097 -1.097 -1.986 0 -1.986 C
1.097 -1.986 1.986 -1.097 1.986 0 C
cp
f
GR
GS
[0.5035 0 0 0.5035 178.67738 161.95333] CT
0 0 1 RC
N
1.986 0 M
1.986 1.097 1.097 1.986 0 1.986 C
-1.097 1.986 -1.986 1.097 -1.986 0 C
-1.986 -1.097 -1.097 -1.986 0 -1.986 C
1.097 -1.986 1.986 -1.097 1.986 0 C
cp
f
GR
GS
[0.5035 0 0 0.5035 189.82445 156.15824] CT
0 0 1 RC
N
1.986 0 M
1.986 1.097 1.097 1.986 0 1.986 C
-1.097 1.986 -1.986 1.097 -1.986 0 C
-1.986 -1.097 -1.097 -1.986 0 -1.986 C
1.097 -1.986 1.986 -1.097 1.986 0 C
cp
f
GR
GS
[0.5035 0 0 0.5035 200.9715 152.51779] CT
0 0 1 RC
N
1.986 0 M
1.986 1.097 1.097 1.986 0 1.986 C
-1.097 1.986 -1.986 1.097 -1.986 0 C
-1.986 -1.097 -1.097 -1.986 0 -1.986 C
1.097 -1.986 1.986 -1.097 1.986 0 C
cp
f
GR
GS
[0.5035 0 0 0.5035 212.11857 156.2044] CT
0 0 1 RC
N
1.986 0 M
1.986 1.097 1.097 1.986 0 1.986 C
-1.097 1.986 -1.986 1.097 -1.986 0 C
-1.986 -1.097 -1.097 -1.986 0 -1.986 C
1.097 -1.986 1.986 -1.097 1.986 0 C
cp
f
GR
GS
[0.5035 0 0 0.5035 223.26563 154.66715] CT
0 0 1 RC
N
1.986 0 M
1.986 1.097 1.097 1.986 0 1.986 C
-1.097 1.986 -1.986 1.097 -1.986 0 C
-1.986 -1.097 -1.097 -1.986 0 -1.986 C
1.097 -1.986 1.986 -1.097 1.986 0 C
cp
f
GR
GS
[0.5035 0 0 0.5035 234.41268 151.82164] CT
0 0 1 RC
N
1.986 0 M
1.986 1.097 1.097 1.986 0 1.986 C
-1.097 1.986 -1.986 1.097 -1.986 0 C
-1.986 -1.097 -1.097 -1.986 0 -1.986 C
1.097 -1.986 1.986 -1.097 1.986 0 C
cp
f
GR
GS
[0.5035 0 0 0.5035 245.55975 146.43292] CT
0 0 1 RC
N
1.986 0 M
1.986 1.097 1.097 1.986 0 1.986 C
-1.097 1.986 -1.986 1.097 -1.986 0 C
-1.986 -1.097 -1.097 -1.986 0 -1.986 C
1.097 -1.986 1.986 -1.097 1.986 0 C
cp
f
GR
GS
[0.5035 0 0 0.5035 256.70682 148.91128] CT
0 0 1 RC
N
1.986 0 M
1.986 1.097 1.097 1.986 0 1.986 C
-1.097 1.986 -1.986 1.097 -1.986 0 C
-1.986 -1.097 -1.097 -1.986 0 -1.986 C
1.097 -1.986 1.986 -1.097 1.986 0 C
cp
f
GR
GS
[0.5035 0 0 0.5035 267.85387 149.79679] CT
0 0 1 RC
N
1.986 0 M
1.986 1.097 1.097 1.986 0 1.986 C
-1.097 1.986 -1.986 1.097 -1.986 0 C
-1.986 -1.097 -1.097 -1.986 0 -1.986 C
1.097 -1.986 1.986 -1.097 1.986 0 C
cp
f
GR
GS
[0.5035 0 0 0.5035 279.00095 145.11482] CT
0 0 1 RC
N
1.986 0 M
1.986 1.097 1.097 1.986 0 1.986 C
-1.097 1.986 -1.986 1.097 -1.986 0 C
-1.986 -1.097 -1.097 -1.986 0 -1.986 C
1.097 -1.986 1.986 -1.097 1.986 0 C
cp
f
GR
GS
[0.5035 0 0 0.5035 290.148 148.67231] CT
0 0 1 RC
N
1.986 0 M
1.986 1.097 1.097 1.986 0 1.986 C
-1.097 1.986 -1.986 1.097 -1.986 0 C
-1.986 -1.097 -1.097 -1.986 0 -1.986 C
1.097 -1.986 1.986 -1.097 1.986 0 C
cp
f
GR
GS
[0.5035 0 0 0.5035 301.29505 147.96856] CT
0 0 1 RC
N
1.986 0 M
1.986 1.097 1.097 1.986 0 1.986 C
-1.097 1.986 -1.986 1.097 -1.986 0 C
-1.986 -1.097 -1.097 -1.986 0 -1.986 C
1.097 -1.986 1.986 -1.097 1.986 0 C
cp
f
GR
GS
[0.5035 0 0 0.5035 312.44213 146.44693] CT
0 0 1 RC
N
1.986 0 M
1.986 1.097 1.097 1.986 0 1.986 C
-1.097 1.986 -1.986 1.097 -1.986 0 C
-1.986 -1.097 -1.097 -1.986 0 -1.986 C
1.097 -1.986 1.986 -1.097 1.986 0 C
cp
f
GR
GS
[0.5035 0 0 0.5035 323.58918 144.44179] CT
0 0 1 RC
N
1.986 0 M
1.986 1.097 1.097 1.986 0 1.986 C
-1.097 1.986 -1.986 1.097 -1.986 0 C
-1.986 -1.097 -1.097 -1.986 0 -1.986 C
1.097 -1.986 1.986 -1.097 1.986 0 C
cp
f
GR
GS
[0.5035 0 0 0.5035 334.73623 147.34575] CT
0 0 1 RC
N
1.986 0 M
1.986 1.097 1.097 1.986 0 1.986 C
-1.097 1.986 -1.986 1.097 -1.986 0 C
-1.986 -1.097 -1.097 -1.986 0 -1.986 C
1.097 -1.986 1.986 -1.097 1.986 0 C
cp
f
GR
GS
[0.5035 0 0 0.5035 345.88332 147.46626] CT
0 0 1 RC
N
1.986 0 M
1.986 1.097 1.097 1.986 0 1.986 C
-1.097 1.986 -1.986 1.097 -1.986 0 C
-1.986 -1.097 -1.097 -1.986 0 -1.986 C
1.097 -1.986 1.986 -1.097 1.986 0 C
cp
f
GR
GS
[0.5035 0 0 0.5035 357.03037 145.82005] CT
0 0 1 RC
N
1.986 0 M
1.986 1.097 1.097 1.986 0 1.986 C
-1.097 1.986 -1.986 1.097 -1.986 0 C
-1.986 -1.097 -1.097 -1.986 0 -1.986 C
1.097 -1.986 1.986 -1.097 1.986 0 C
cp
f
GR
GS
[0.5035 0 0 0.5035 368.17742 145.02622] CT
0 0 1 RC
N
1.986 0 M
1.986 1.097 1.097 1.986 0 1.986 C
-1.097 1.986 -1.986 1.097 -1.986 0 C
-1.986 -1.097 -1.097 -1.986 0 -1.986 C
1.097 -1.986 1.986 -1.097 1.986 0 C
cp
f
GR
GS
[0.5035 0 0 0.5035 0 -0.27972] CT
1 0 0 RC
1 LJ
0.993 LW
N
177.759 254.638 M
177.759 109.646 L
S
GR
GS
[0.5035 0 0 0.5035 0 -0.27972] CT
1 0 0 RC
1 LJ
0.993 LW
N
199.898 280.87 M
199.898 154.273 L
S
GR
GS
[0.5035 0 0 0.5035 0 -0.27972] CT
1 0 0 RC
1 LJ
0.993 LW
N
222.037 276.214 M
222.037 144.758 L
S
GR
GS
[0.5035 0 0 0.5035 0 -0.27972] CT
1 0 0 RC
1 LJ
0.993 LW
N
244.177 309.042 M
244.177 199.634 L
S
GR
GS
[0.5035 0 0 0.5035 0 -0.27972] CT
1 0 0 RC
1 LJ
0.993 LW
N
266.316 306.052 M
266.316 207.86 L
S
GR
GS
[0.5035 0 0 0.5035 0 -0.27972] CT
1 0 0 RC
1 LJ
0.993 LW
N
288.455 323.235 M
288.455 234.093 L
S
GR
GS
[0.5035 0 0 0.5035 0 -0.27972] CT
1 0 0 RC
1 LJ
0.993 LW
N
310.595 304.228 M
310.595 219.153 L
S
GR
GS
[0.5035 0 0 0.5035 0 -0.27972] CT
1 0 0 RC
1 LJ
0.993 LW
N
332.734 325.419 M
332.734 235.681 L
S
GR
GS
[0.5035 0 0 0.5035 0 -0.27972] CT
1 0 0 RC
1 LJ
0.993 LW
N
354.873 317.46 M
354.873 225.13 L
S
GR
GS
[0.5035 0 0 0.5035 0 -0.27972] CT
1 0 0 RC
1 LJ
0.993 LW
N
377.012 302.839 M
377.012 214.622 L
S
GR
GS
[0.5035 0 0 0.5035 0 -0.27972] CT
1 0 0 RC
1 LJ
0.993 LW
N
399.152 305.42 M
399.152 215.534 L
S
GR
GS
[0.5035 0 0 0.5035 0 -0.27972] CT
1 0 0 RC
1 LJ
0.993 LW
N
421.291 317.097 M
421.291 227.903 L
S
GR
GS
[0.5035 0 0 0.5035 0 -0.27972] CT
1 0 0 RC
1 LJ
0.993 LW
N
443.43 314.603 M
443.43 239.857 L
S
GR
GS
[0.5035 0 0 0.5035 0 -0.27972] CT
1 0 0 RC
1 LJ
0.993 LW
N
465.57 321.858 M
465.57 240.947 L
S
GR
GS
[0.5035 0 0 0.5035 0 -0.27972] CT
1 0 0 RC
1 LJ
0.993 LW
N
487.709 331.924 M
487.709 251.13 L
S
GR
GS
[0.5035 0 0 0.5035 0 -0.27972] CT
1 0 0 RC
1 LJ
0.993 LW
N
509.848 313.099 M
509.848 233.925 L
S
GR
GS
[0.5035 0 0 0.5035 0 -0.27972] CT
1 0 0 RC
1 LJ
0.993 LW
N
531.988 323.126 M
531.988 239.691 L
S
GR
GS
[0.5035 0 0 0.5035 0 -0.27972] CT
1 0 0 RC
1 LJ
0.993 LW
N
554.127 326.661 M
554.127 250.894 L
S
GR
GS
[0.5035 0 0 0.5035 0 -0.27972] CT
1 0 0 RC
1 LJ
0.993 LW
N
576.266 325.62 M
576.266 252.474 L
S
GR
GS
[0.5035 0 0 0.5035 0 -0.27972] CT
1 0 0 RC
1 LJ
0.993 LW
N
598.405 324.915 M
598.405 253.796 L
S
GR
GS
[0.5035 0 0 0.5035 0 -0.27972] CT
1 0 0 RC
1 LJ
0.993 LW
N
620.545 327.875 M
620.545 252.655 L
S
GR
GS
[0.5035 0 0 0.5035 0 -0.27972] CT
1 0 0 RC
1 LJ
0.993 LW
N
642.684 326.041 M
642.684 253.48 L
S
GR
GS
[0.5035 0 0 0.5035 0 -0.27972] CT
1 0 0 RC
1 LJ
0.993 LW
N
664.823 328.538 M
664.823 257.356 L
S
GR
GS
[0.5035 0 0 0.5035 0 -0.27972] CT
1 0 0 RC
1 LJ
0.993 LW
N
686.963 331.921 M
686.963 259.963 L
S
GR
GS
[0.5035 0 0 0.5035 0 -0.27972] CT
1 0 0 RC
1 LJ
0.993 LW
N
709.102 333.605 M
709.102 261.226 L
S
GR
GS
[0.5035 0 0 0.5035 0 -0.27972] CT
1 0 0 RC
1 LJ
0.993 LW
N
731.241 332.149 M
731.241 261.878 L
S
GR
GS
[0.5035 0 0 0.5035 0 -0.27972] CT
1 0 0 RC
1 LJ
0.993 LW
N
157.774 178.965 M
162.483 178.965 L
S
GR
GS
[0.5035 0 0 0.5035 0 -0.27972] CT
1 0 0 RC
1 LJ
0.993 LW
N
170.896 254.638 M
184.622 254.638 L
S
GR
GS
[0.5035 0 0 0.5035 0 -0.27972] CT
1 0 0 RC
1 LJ
0.993 LW
N
193.035 280.87 M
206.761 280.87 L
S
GR
GS
[0.5035 0 0 0.5035 0 -0.27972] CT
1 0 0 RC
1 LJ
0.993 LW
N
215.174 276.214 M
228.901 276.214 L
S
GR
GS
[0.5035 0 0 0.5035 0 -0.27972] CT
1 0 0 RC
1 LJ
0.993 LW
N
237.313 309.042 M
251.04 309.042 L
S
GR
GS
[0.5035 0 0 0.5035 0 -0.27972] CT
1 0 0 RC
1 LJ
0.993 LW
N
259.453 306.052 M
273.179 306.052 L
S
GR
GS
[0.5035 0 0 0.5035 0 -0.27972] CT
1 0 0 RC
1 LJ
0.993 LW
N
281.592 323.235 M
295.318 323.235 L
S
GR
GS
[0.5035 0 0 0.5035 0 -0.27972] CT
1 0 0 RC
1 LJ
0.993 LW
N
303.731 304.228 M
317.458 304.228 L
S
GR
GS
[0.5035 0 0 0.5035 0 -0.27972] CT
1 0 0 RC
1 LJ
0.993 LW
N
325.871 325.419 M
339.597 325.419 L
S
GR
GS
[0.5035 0 0 0.5035 0 -0.27972] CT
1 0 0 RC
1 LJ
0.993 LW
N
348.01 317.46 M
361.736 317.46 L
S
GR
GS
[0.5035 0 0 0.5035 0 -0.27972] CT
1 0 0 RC
1 LJ
0.993 LW
N
370.149 302.839 M
383.876 302.839 L
S
GR
GS
[0.5035 0 0 0.5035 0 -0.27972] CT
1 0 0 RC
1 LJ
0.993 LW
N
392.289 305.42 M
406.015 305.42 L
S
GR
GS
[0.5035 0 0 0.5035 0 -0.27972] CT
1 0 0 RC
1 LJ
0.993 LW
N
414.428 317.097 M
428.154 317.097 L
S
GR
GS
[0.5035 0 0 0.5035 0 -0.27972] CT
1 0 0 RC
1 LJ
0.993 LW
N
436.567 314.603 M
450.294 314.603 L
S
GR
GS
[0.5035 0 0 0.5035 0 -0.27972] CT
1 0 0 RC
1 LJ
0.993 LW
N
458.706 321.858 M
472.433 321.858 L
S
GR
GS
[0.5035 0 0 0.5035 0 -0.27972] CT
1 0 0 RC
1 LJ
0.993 LW
N
480.846 331.924 M
494.572 331.924 L
S
GR
GS
[0.5035 0 0 0.5035 0 -0.27972] CT
1 0 0 RC
1 LJ
0.993 LW
N
502.985 313.099 M
516.711 313.099 L
S
GR
GS
[0.5035 0 0 0.5035 0 -0.27972] CT
1 0 0 RC
1 LJ
0.993 LW
N
525.124 323.126 M
538.851 323.126 L
S
GR
GS
[0.5035 0 0 0.5035 0 -0.27972] CT
1 0 0 RC
1 LJ
0.993 LW
N
547.264 326.661 M
560.99 326.661 L
S
GR
GS
[0.5035 0 0 0.5035 0 -0.27972] CT
1 0 0 RC
1 LJ
0.993 LW
N
569.403 325.62 M
583.129 325.62 L
S
GR
GS
[0.5035 0 0 0.5035 0 -0.27972] CT
1 0 0 RC
1 LJ
0.993 LW
N
591.542 324.915 M
605.269 324.915 L
S
GR
GS
[0.5035 0 0 0.5035 0 -0.27972] CT
1 0 0 RC
1 LJ
0.993 LW
N
613.682 327.875 M
627.408 327.875 L
S
GR
GS
[0.5035 0 0 0.5035 0 -0.27972] CT
1 0 0 RC
1 LJ
0.993 LW
N
635.821 326.041 M
649.547 326.041 L
S
GR
GS
[0.5035 0 0 0.5035 0 -0.27972] CT
1 0 0 RC
1 LJ
0.993 LW
N
657.96 328.538 M
671.687 328.538 L
S
GR
GS
[0.5035 0 0 0.5035 0 -0.27972] CT
1 0 0 RC
1 LJ
0.993 LW
N
680.099 331.921 M
693.826 331.921 L
S
GR
GS
[0.5035 0 0 0.5035 0 -0.27972] CT
1 0 0 RC
1 LJ
0.993 LW
N
702.239 333.605 M
715.965 333.605 L
S
GR
GS
[0.5035 0 0 0.5035 0 -0.27972] CT
1 0 0 RC
1 LJ
0.993 LW
N
724.378 332.149 M
738.104 332.149 L
S
GR
GS
[0.5035 0 0 0.5035 0 -0.27972] CT
1 0 0 RC
1 LJ
0.993 LW
N
170.896 109.646 M
184.622 109.646 L
S
GR
GS
[0.5035 0 0 0.5035 0 -0.27972] CT
1 0 0 RC
1 LJ
0.993 LW
N
193.035 154.273 M
206.761 154.273 L
S
GR
GS
[0.5035 0 0 0.5035 0 -0.27972] CT
1 0 0 RC
1 LJ
0.993 LW
N
215.174 144.758 M
228.901 144.758 L
S
GR
GS
[0.5035 0 0 0.5035 0 -0.27972] CT
1 0 0 RC
1 LJ
0.993 LW
N
237.313 199.634 M
251.04 199.634 L
S
GR
GS
[0.5035 0 0 0.5035 0 -0.27972] CT
1 0 0 RC
1 LJ
0.993 LW
N
259.453 207.86 M
273.179 207.86 L
S
GR
GS
[0.5035 0 0 0.5035 0 -0.27972] CT
1 0 0 RC
1 LJ
0.993 LW
N
281.592 234.093 M
295.318 234.093 L
S
GR
GS
[0.5035 0 0 0.5035 0 -0.27972] CT
1 0 0 RC
1 LJ
0.993 LW
N
303.731 219.153 M
317.458 219.153 L
S
GR
GS
[0.5035 0 0 0.5035 0 -0.27972] CT
1 0 0 RC
1 LJ
0.993 LW
N
325.871 235.681 M
339.597 235.681 L
S
GR
GS
[0.5035 0 0 0.5035 0 -0.27972] CT
1 0 0 RC
1 LJ
0.993 LW
N
348.01 225.13 M
361.736 225.13 L
S
GR
GS
[0.5035 0 0 0.5035 0 -0.27972] CT
1 0 0 RC
1 LJ
0.993 LW
N
370.149 214.622 M
383.876 214.622 L
S
GR
GS
[0.5035 0 0 0.5035 0 -0.27972] CT
1 0 0 RC
1 LJ
0.993 LW
N
392.289 215.534 M
406.015 215.534 L
S
GR
GS
[0.5035 0 0 0.5035 0 -0.27972] CT
1 0 0 RC
1 LJ
0.993 LW
N
414.428 227.903 M
428.154 227.903 L
S
GR
GS
[0.5035 0 0 0.5035 0 -0.27972] CT
1 0 0 RC
1 LJ
0.993 LW
N
436.567 239.857 M
450.294 239.857 L
S
GR
GS
[0.5035 0 0 0.5035 0 -0.27972] CT
1 0 0 RC
1 LJ
0.993 LW
N
458.706 240.947 M
472.433 240.947 L
S
GR
GS
[0.5035 0 0 0.5035 0 -0.27972] CT
1 0 0 RC
1 LJ
0.993 LW
N
480.846 251.13 M
494.572 251.13 L
S
GR
GS
[0.5035 0 0 0.5035 0 -0.27972] CT
1 0 0 RC
1 LJ
0.993 LW
N
502.985 233.925 M
516.711 233.925 L
S
GR
GS
[0.5035 0 0 0.5035 0 -0.27972] CT
1 0 0 RC
1 LJ
0.993 LW
N
525.124 239.691 M
538.851 239.691 L
S
GR
GS
[0.5035 0 0 0.5035 0 -0.27972] CT
1 0 0 RC
1 LJ
0.993 LW
N
547.264 250.894 M
560.99 250.894 L
S
GR
GS
[0.5035 0 0 0.5035 0 -0.27972] CT
1 0 0 RC
1 LJ
0.993 LW
N
569.403 252.474 M
583.129 252.474 L
S
GR
GS
[0.5035 0 0 0.5035 0 -0.27972] CT
1 0 0 RC
1 LJ
0.993 LW
N
591.542 253.796 M
605.269 253.796 L
S
GR
GS
[0.5035 0 0 0.5035 0 -0.27972] CT
1 0 0 RC
1 LJ
0.993 LW
N
613.682 252.655 M
627.408 252.655 L
S
GR
GS
[0.5035 0 0 0.5035 0 -0.27972] CT
1 0 0 RC
1 LJ
0.993 LW
N
635.821 253.48 M
649.547 253.48 L
S
GR
GS
[0.5035 0 0 0.5035 0 -0.27972] CT
1 0 0 RC
1 LJ
0.993 LW
N
657.96 257.356 M
671.687 257.356 L
S
GR
GS
[0.5035 0 0 0.5035 0 -0.27972] CT
1 0 0 RC
1 LJ
0.993 LW
N
680.099 259.963 M
693.826 259.963 L
S
GR
GS
[0.5035 0 0 0.5035 0 -0.27972] CT
1 0 0 RC
1 LJ
0.993 LW
N
702.239 261.226 M
715.965 261.226 L
S
GR
GS
[0.5035 0 0 0.5035 0 -0.27972] CT
1 0 0 RC
1 LJ
0.993 LW
N
724.378 261.878 M
738.104 261.878 L
S
GR
GS
[0.5035 0 0 0.5035 0 -0.27972] CT
1 0 0 RC
1 LJ
0.993 LW
N
157.774 96.439 M
177.759 182.142 L
199.898 217.571 L
222.037 210.486 L
244.177 254.338 L
266.316 256.956 L
288.455 278.664 L
310.595 261.69 L
332.734 280.55 L
354.873 271.295 L
377.012 258.731 L
399.152 260.477 L
421.291 272.5 L
443.43 277.23 L
465.57 281.403 L
487.709 291.527 L
509.848 273.512 L
531.988 281.409 L
554.127 288.777 L
576.266 289.047 L
598.405 289.355 L
620.545 290.265 L
642.684 289.761 L
664.823 292.947 L
686.963 295.942 L
709.102 297.415 L
731.241 297.014 L
S
GR
GS
[0.5035 0 0 0.5035 89.50089 91.42814] CT
1 0 0 RC
N
1.986 0 M
1.986 1.097 1.097 1.986 0 1.986 C
-1.097 1.986 -1.986 1.097 -1.986 0 C
-1.986 -1.097 -1.097 -1.986 0 -1.986 C
1.097 -1.986 1.986 -1.097 1.986 0 C
cp
f
GR
GS
[0.5035 0 0 0.5035 100.64795 109.26673] CT
1 0 0 RC
N
1.986 0 M
1.986 1.097 1.097 1.986 0 1.986 C
-1.097 1.986 -1.986 1.097 -1.986 0 C
-1.986 -1.097 -1.097 -1.986 0 -1.986 C
1.097 -1.986 1.986 -1.097 1.986 0 C
cp
f
GR
GS
[0.5035 0 0 0.5035 111.79501 105.69916] CT
1 0 0 RC
N
1.986 0 M
1.986 1.097 1.097 1.986 0 1.986 C
-1.097 1.986 -1.986 1.097 -1.986 0 C
-1.986 -1.097 -1.097 -1.986 0 -1.986 C
1.097 -1.986 1.986 -1.097 1.986 0 C
cp
f
GR
GS
[0.5035 0 0 0.5035 122.94207 127.77875] CT
1 0 0 RC
N
1.986 0 M
1.986 1.097 1.097 1.986 0 1.986 C
-1.097 1.986 -1.986 1.097 -1.986 0 C
-1.986 -1.097 -1.097 -1.986 0 -1.986 C
1.097 -1.986 1.986 -1.097 1.986 0 C
cp
f
GR
GS
[0.5035 0 0 0.5035 134.08913 129.09674] CT
1 0 0 RC
N
1.986 0 M
1.986 1.097 1.097 1.986 0 1.986 C
-1.097 1.986 -1.986 1.097 -1.986 0 C
-1.986 -1.097 -1.097 -1.986 0 -1.986 C
1.097 -1.986 1.986 -1.097 1.986 0 C
cp
f
GR
GS
[0.5035 0 0 0.5035 145.2362 140.02667] CT
1 0 0 RC
N
1.986 0 M
1.986 1.097 1.097 1.986 0 1.986 C
-1.097 1.986 -1.986 1.097 -1.986 0 C
-1.986 -1.097 -1.097 -1.986 0 -1.986 C
1.097 -1.986 1.986 -1.097 1.986 0 C
cp
f
GR
GS
[0.5035 0 0 0.5035 156.38325 131.48045] CT
1 0 0 RC
N
1.986 0 M
1.986 1.097 1.097 1.986 0 1.986 C
-1.097 1.986 -1.986 1.097 -1.986 0 C
-1.986 -1.097 -1.097 -1.986 0 -1.986 C
1.097 -1.986 1.986 -1.097 1.986 0 C
cp
f
GR
GS
[0.5035 0 0 0.5035 167.53031 140.97621] CT
1 0 0 RC
N
1.986 0 M
1.986 1.097 1.097 1.986 0 1.986 C
-1.097 1.986 -1.986 1.097 -1.986 0 C
-1.986 -1.097 -1.097 -1.986 0 -1.986 C
1.097 -1.986 1.986 -1.097 1.986 0 C
cp
f
GR
GS
[0.5035 0 0 0.5035 178.67738 136.31631] CT
1 0 0 RC
N
1.986 0 M
1.986 1.097 1.097 1.986 0 1.986 C
-1.097 1.986 -1.986 1.097 -1.986 0 C
-1.986 -1.097 -1.097 -1.986 0 -1.986 C
1.097 -1.986 1.986 -1.097 1.986 0 C
cp
f
GR
GS
[0.5035 0 0 0.5035 189.82445 129.99029] CT
1 0 0 RC
N
1.986 0 M
1.986 1.097 1.097 1.986 0 1.986 C
-1.097 1.986 -1.986 1.097 -1.986 0 C
-1.986 -1.097 -1.097 -1.986 0 -1.986 C
1.097 -1.986 1.986 -1.097 1.986 0 C
cp
f
GR
GS
[0.5035 0 0 0.5035 200.9715 130.86947] CT
1 0 0 RC
N
1.986 0 M
1.986 1.097 1.097 1.986 0 1.986 C
-1.097 1.986 -1.986 1.097 -1.986 0 C
-1.986 -1.097 -1.097 -1.986 0 -1.986 C
1.097 -1.986 1.986 -1.097 1.986 0 C
cp
f
GR
GS
[0.5035 0 0 0.5035 212.11857 136.92291] CT
1 0 0 RC
N
1.986 0 M
1.986 1.097 1.097 1.986 0 1.986 C
-1.097 1.986 -1.986 1.097 -1.986 0 C
-1.986 -1.097 -1.097 -1.986 0 -1.986 C
1.097 -1.986 1.986 -1.097 1.986 0 C
cp
f
GR
GS
[0.5035 0 0 0.5035 223.26563 139.30443] CT
1 0 0 RC
N
1.986 0 M
1.986 1.097 1.097 1.986 0 1.986 C
-1.097 1.986 -1.986 1.097 -1.986 0 C
-1.986 -1.097 -1.097 -1.986 0 -1.986 C
1.097 -1.986 1.986 -1.097 1.986 0 C
cp
f
GR
GS
[0.5035 0 0 0.5035 234.41268 141.4055] CT
1 0 0 RC
N
1.986 0 M
1.986 1.097 1.097 1.986 0 1.986 C
-1.097 1.986 -1.986 1.097 -1.986 0 C
-1.986 -1.097 -1.097 -1.986 0 -1.986 C
1.097 -1.986 1.986 -1.097 1.986 0 C
cp
f
GR
GS
[0.5035 0 0 0.5035 245.55975 146.50312] CT
1 0 0 RC
N
1.986 0 M
1.986 1.097 1.097 1.986 0 1.986 C
-1.097 1.986 -1.986 1.097 -1.986 0 C
-1.986 -1.097 -1.097 -1.986 0 -1.986 C
1.097 -1.986 1.986 -1.097 1.986 0 C
cp
f
GR
GS
[0.5035 0 0 0.5035 256.70682 137.43258] CT
1 0 0 RC
N
1.986 0 M
1.986 1.097 1.097 1.986 0 1.986 C
-1.097 1.986 -1.986 1.097 -1.986 0 C
-1.986 -1.097 -1.097 -1.986 0 -1.986 C
1.097 -1.986 1.986 -1.097 1.986 0 C
cp
f
GR
GS
[0.5035 0 0 0.5035 267.85387 141.40848] CT
1 0 0 RC
N
1.986 0 M
1.986 1.097 1.097 1.986 0 1.986 C
-1.097 1.986 -1.986 1.097 -1.986 0 C
-1.986 -1.097 -1.097 -1.986 0 -1.986 C
1.097 -1.986 1.986 -1.097 1.986 0 C
cp
f
GR
GS
[0.5035 0 0 0.5035 279.00095 145.11872] CT
1 0 0 RC
N
1.986 0 M
1.986 1.097 1.097 1.986 0 1.986 C
-1.097 1.986 -1.986 1.097 -1.986 0 C
-1.986 -1.097 -1.097 -1.986 0 -1.986 C
1.097 -1.986 1.986 -1.097 1.986 0 C
cp
f
GR
GS
[0.5035 0 0 0.5035 290.148 145.25426] CT
1 0 0 RC
N
1.986 0 M
1.986 1.097 1.097 1.986 0 1.986 C
-1.097 1.986 -1.986 1.097 -1.986 0 C
-1.986 -1.097 -1.097 -1.986 0 -1.986 C
1.097 -1.986 1.986 -1.097 1.986 0 C
cp
f
GR
GS
[0.5035 0 0 0.5035 301.29505 145.40976] CT
1 0 0 RC
N
1.986 0 M
1.986 1.097 1.097 1.986 0 1.986 C
-1.097 1.986 -1.986 1.097 -1.986 0 C
-1.986 -1.097 -1.097 -1.986 0 -1.986 C
1.097 -1.986 1.986 -1.097 1.986 0 C
cp
f
GR
GS
[0.5035 0 0 0.5035 312.44213 145.86764] CT
1 0 0 RC
N
1.986 0 M
1.986 1.097 1.097 1.986 0 1.986 C
-1.097 1.986 -1.986 1.097 -1.986 0 C
-1.986 -1.097 -1.097 -1.986 0 -1.986 C
1.097 -1.986 1.986 -1.097 1.986 0 C
cp
f
GR
GS
[0.5035 0 0 0.5035 323.58918 145.61389] CT
1 0 0 RC
N
1.986 0 M
1.986 1.097 1.097 1.986 0 1.986 C
-1.097 1.986 -1.986 1.097 -1.986 0 C
-1.986 -1.097 -1.097 -1.986 0 -1.986 C
1.097 -1.986 1.986 -1.097 1.986 0 C
cp
f
GR
GS
[0.5035 0 0 0.5035 334.73623 147.21812] CT
1 0 0 RC
N
1.986 0 M
1.986 1.097 1.097 1.986 0 1.986 C
-1.097 1.986 -1.986 1.097 -1.986 0 C
-1.986 -1.097 -1.097 -1.986 0 -1.986 C
1.097 -1.986 1.986 -1.097 1.986 0 C
cp
f
GR
GS
[0.5035 0 0 0.5035 345.88332 148.72612] CT
1 0 0 RC
N
1.986 0 M
1.986 1.097 1.097 1.986 0 1.986 C
-1.097 1.986 -1.986 1.097 -1.986 0 C
-1.986 -1.097 -1.097 -1.986 0 -1.986 C
1.097 -1.986 1.986 -1.097 1.986 0 C
cp
f
GR
GS
[0.5035 0 0 0.5035 357.03037 149.46791] CT
1 0 0 RC
N
1.986 0 M
1.986 1.097 1.097 1.986 0 1.986 C
-1.097 1.986 -1.986 1.097 -1.986 0 C
-1.986 -1.097 -1.097 -1.986 0 -1.986 C
1.097 -1.986 1.986 -1.097 1.986 0 C
cp
f
GR
GS
[0.5035 0 0 0.5035 368.17742 149.26559] CT
1 0 0 RC
N
1.986 0 M
1.986 1.097 1.097 1.986 0 1.986 C
-1.097 1.986 -1.986 1.097 -1.986 0 C
-1.986 -1.097 -1.097 -1.986 0 -1.986 C
1.097 -1.986 1.986 -1.097 1.986 0 C
cp
f
GR
GS
[0.5035 0 0 0.5035 0 -0.27972] CT
1 GC
N
451 162 M
451 114 L
731 114 L
731 162 L
cp
f
GR
GS
[0.5035 0 0 0.5035 245.70629 63.59685] CT
/Helvetica 17.875 F
GS
[1 0 0 1 0 0] CT
0 6 moveto 
1 -1 scale
(Training RMSE, translation) t 
GR
GR
GS
[0.5035 0 0 0.5035 0 -0.27972] CT
0 0 1 RC
1 LJ
0.993 LW
N
455 126.866 M
485 126.866 L
S
GR
GS
[0.5035 0 0 0.5035 236.64335 63.59685] CT
0 0 1 RC
N
1.986 0 M
1.986 1.097 1.097 1.986 0 1.986 C
-1.097 1.986 -1.986 1.097 -1.986 0 C
-1.986 -1.097 -1.097 -1.986 0 -1.986 C
1.097 -1.986 1.986 -1.097 1.986 0 C
cp
f
GR
GS
[0.5035 0 0 0.5035 245.70629 74.80873] CT
/Helvetica 17.875 F
GS
[1 0 0 1 0 0] CT
0 6 moveto 
1 -1 scale
(Test RMSE, translation) t 
GR
GR
GS
[0.5035 0 0 0.5035 0 -0.27972] CT
1 0 0 RC
1 LJ
0.993 LW
N
455 149.134 M
485 149.134 L
S
GR
GS
[0.5035 0 0 0.5035 236.64335 74.80873] CT
1 0 0 RC
N
1.986 0 M
1.986 1.097 1.097 1.986 0 1.986 C
-1.097 1.986 -1.986 1.097 -1.986 0 C
-1.986 -1.097 -1.097 -1.986 0 -1.986 C
1.097 -1.986 1.986 -1.097 1.986 0 C
cp
f
GR
GS
[0.5035 0 0 0.5035 0 -0.27972] CT
0.149 GC
10.0 ML
0.993 LW
N
451 162 M
451 114 L
731 114 L
731 162 L
cp
S
GR
%%Trailer
%%Pages: 1
%%EOF
