%!PS-Adobe-3.0 EPSF-3.0
%%Creator: (MATLAB, The Mathworks, Inc. Version 9.0.0.341360 \(R2016a\). Operating System: Linux)
%%Title: /home/mikael/skole/rovi2/rovi2/data/cam_calib/mean_reprojection_error_per_image.eps
%%CreationDate: 2016-03-10T14:45:09
%%Pages: (atend)
%%BoundingBox: 0 0 443 283
%%LanguageLevel: 3
%%EndComments
%%BeginProlog
%%BeginResource: procset (Apache XML Graphics Std ProcSet) 1.2 0
%%Version: 1.2 0
%%Copyright: (Copyright 2001-2003,2010 The Apache Software Foundation. License terms: http://www.apache.org/licenses/LICENSE-2.0)
/bd{bind def}bind def
/ld{load def}bd
/GR/grestore ld
/M/moveto ld
/LJ/setlinejoin ld
/C/curveto ld
/f/fill ld
/LW/setlinewidth ld
/GC/setgray ld
/t/show ld
/N/newpath ld
/CT/concat ld
/cp/closepath ld
/S/stroke ld
/L/lineto ld
/CC/setcmykcolor ld
/A/ashow ld
/GS/gsave ld
/RC/setrgbcolor ld
/RM/rmoveto ld
/ML/setmiterlimit ld
/re {4 2 roll M
1 index 0 rlineto
0 exch rlineto
neg 0 rlineto
cp } bd
/_ctm matrix def
/_tm matrix def
/BT { _ctm currentmatrix pop matrix _tm copy pop 0 0 moveto } bd
/ET { _ctm setmatrix } bd
/iTm { _ctm setmatrix _tm concat } bd
/Tm { _tm astore pop iTm 0 0 moveto } bd
/ux 0.0 def
/uy 0.0 def
/F {
  /Tp exch def
  /Tf exch def
  Tf findfont Tp scalefont setfont
  /cf Tf def  /cs Tp def
} bd
/ULS {currentpoint /uy exch def /ux exch def} bd
/ULE {
  /Tcx currentpoint pop def
  gsave
  newpath
  cf findfont cs scalefont dup
  /FontMatrix get 0 get /Ts exch def /FontInfo get dup
  /UnderlinePosition get Ts mul /To exch def
  /UnderlineThickness get Ts mul /Tt exch def
  ux uy To add moveto  Tcx uy To add lineto
  Tt setlinewidth stroke
  grestore
} bd
/OLE {
  /Tcx currentpoint pop def
  gsave
  newpath
  cf findfont cs scalefont dup
  /FontMatrix get 0 get /Ts exch def /FontInfo get dup
  /UnderlinePosition get Ts mul /To exch def
  /UnderlineThickness get Ts mul /Tt exch def
  ux uy To add cs add moveto Tcx uy To add cs add lineto
  Tt setlinewidth stroke
  grestore
} bd
/SOE {
  /Tcx currentpoint pop def
  gsave
  newpath
  cf findfont cs scalefont dup
  /FontMatrix get 0 get /Ts exch def /FontInfo get dup
  /UnderlinePosition get Ts mul /To exch def
  /UnderlineThickness get Ts mul /Tt exch def
  ux uy To add cs 10 mul 26 idiv add moveto Tcx uy To add cs 10 mul 26 idiv add lineto
  Tt setlinewidth stroke
  grestore
} bd
/QT {
/Y22 exch store
/X22 exch store
/Y21 exch store
/X21 exch store
currentpoint
/Y21 load 2 mul add 3 div exch
/X21 load 2 mul add 3 div exch
/X21 load 2 mul /X22 load add 3 div
/Y21 load 2 mul /Y22 load add 3 div
/X22 load /Y22 load curveto
} bd
/SSPD {
dup length /d exch dict def
{
/v exch def
/k exch def
currentpagedevice k known {
/cpdv currentpagedevice k get def
v cpdv ne {
/upd false def
/nullv v type /nulltype eq def
/nullcpdv cpdv type /nulltype eq def
nullv nullcpdv or
{
/upd true def
} {
/sametype v type cpdv type eq def
sametype {
v type /arraytype eq {
/vlen v length def
/cpdvlen cpdv length def
vlen cpdvlen eq {
0 1 vlen 1 sub {
/i exch def
/obj v i get def
/cpdobj cpdv i get def
obj cpdobj ne {
/upd true def
exit
} if
} for
} {
/upd true def
} ifelse
} {
v type /dicttype eq {
v {
/dv exch def
/dk exch def
/cpddv cpdv dk get def
dv cpddv ne {
/upd true def
exit
} if
} forall
} {
/upd true def
} ifelse
} ifelse
} if
} ifelse
upd true eq {
d k v put
} if
} if
} if
} forall
d length 0 gt {
d setpagedevice
} if
} bd
%%EndResource
%%BeginResource: procset (Apache XML Graphics EPS ProcSet) 1.0 0
%%Version: 1.0 0
%%Copyright: (Copyright 2002-2003 The Apache Software Foundation. License terms: http://www.apache.org/licenses/LICENSE-2.0)
/BeginEPSF { %def
/b4_Inc_state save def         % Save state for cleanup
/dict_count countdictstack def % Count objects on dict stack
/op_count count 1 sub def      % Count objects on operand stack
userdict begin                 % Push userdict on dict stack
/showpage { } def              % Redefine showpage, { } = null proc
0 setgray 0 setlinecap         % Prepare graphics state
1 setlinewidth 0 setlinejoin
10 setmiterlimit [ ] 0 setdash newpath
/languagelevel where           % If level not equal to 1 then
{pop languagelevel             % set strokeadjust and
1 ne                           % overprint to their defaults.
{false setstrokeadjust false setoverprint
} if
} if
} bd
/EndEPSF { %def
count op_count sub {pop} repeat            % Clean up stacks
countdictstack dict_count sub {end} repeat
b4_Inc_state restore
} bd
%%EndResource
%FOPBeginFontDict
%%IncludeResource: font Courier-Bold
%%IncludeResource: font Helvetica
%%IncludeResource: font Courier-BoldOblique
%%IncludeResource: font Courier-Oblique
%%IncludeResource: font Times-Roman
%%IncludeResource: font Helvetica-BoldOblique
%%IncludeResource: font Helvetica-Bold
%%IncludeResource: font Helvetica-Oblique
%%IncludeResource: font Times-BoldItalic
%%IncludeResource: font Courier
%%IncludeResource: font Times-Italic
%%IncludeResource: font Times-Bold
%%IncludeResource: font Symbol
%%IncludeResource: font ZapfDingbats
%FOPEndFontDict
%%BeginResource: encoding WinAnsiEncoding
/WinAnsiEncoding [
/.notdef /.notdef /.notdef /.notdef /.notdef
/.notdef /.notdef /.notdef /.notdef /.notdef
/.notdef /.notdef /.notdef /.notdef /.notdef
/.notdef /.notdef /.notdef /.notdef /.notdef
/.notdef /.notdef /.notdef /.notdef /.notdef
/.notdef /.notdef /.notdef /.notdef /.notdef
/.notdef /.notdef /space /exclam /quotedbl
/numbersign /dollar /percent /ampersand /quotesingle
/parenleft /parenright /asterisk /plus /comma
/hyphen /period /slash /zero /one
/two /three /four /five /six
/seven /eight /nine /colon /semicolon
/less /equal /greater /question /at
/A /B /C /D /E
/F /G /H /I /J
/K /L /M /N /O
/P /Q /R /S /T
/U /V /W /X /Y
/Z /bracketleft /backslash /bracketright /asciicircum
/underscore /quoteleft /a /b /c
/d /e /f /g /h
/i /j /k /l /m
/n /o /p /q /r
/s /t /u /v /w
/x /y /z /braceleft /bar
/braceright /asciitilde /bullet /Euro /bullet
/quotesinglbase /florin /quotedblbase /ellipsis /dagger
/daggerdbl /circumflex /perthousand /Scaron /guilsinglleft
/OE /bullet /Zcaron /bullet /bullet
/quoteleft /quoteright /quotedblleft /quotedblright /bullet
/endash /emdash /asciitilde /trademark /scaron
/guilsinglright /oe /bullet /zcaron /Ydieresis
/space /exclamdown /cent /sterling /currency
/yen /brokenbar /section /dieresis /copyright
/ordfeminine /guillemotleft /logicalnot /sfthyphen /registered
/macron /degree /plusminus /twosuperior /threesuperior
/acute /mu /paragraph /middot /cedilla
/onesuperior /ordmasculine /guillemotright /onequarter /onehalf
/threequarters /questiondown /Agrave /Aacute /Acircumflex
/Atilde /Adieresis /Aring /AE /Ccedilla
/Egrave /Eacute /Ecircumflex /Edieresis /Igrave
/Iacute /Icircumflex /Idieresis /Eth /Ntilde
/Ograve /Oacute /Ocircumflex /Otilde /Odieresis
/multiply /Oslash /Ugrave /Uacute /Ucircumflex
/Udieresis /Yacute /Thorn /germandbls /agrave
/aacute /acircumflex /atilde /adieresis /aring
/ae /ccedilla /egrave /eacute /ecircumflex
/edieresis /igrave /iacute /icircumflex /idieresis
/eth /ntilde /ograve /oacute /ocircumflex
/otilde /odieresis /divide /oslash /ugrave
/uacute /ucircumflex /udieresis /yacute /thorn
/ydieresis
] def
%%EndResource
%FOPBeginFontReencode
/Courier-Bold findfont
dup length dict begin
  {1 index /FID ne {def} {pop pop} ifelse} forall
  /Encoding WinAnsiEncoding def
  currentdict
end
/Courier-Bold exch definefont pop
/Helvetica findfont
dup length dict begin
  {1 index /FID ne {def} {pop pop} ifelse} forall
  /Encoding WinAnsiEncoding def
  currentdict
end
/Helvetica exch definefont pop
/Courier-BoldOblique findfont
dup length dict begin
  {1 index /FID ne {def} {pop pop} ifelse} forall
  /Encoding WinAnsiEncoding def
  currentdict
end
/Courier-BoldOblique exch definefont pop
/Courier-Oblique findfont
dup length dict begin
  {1 index /FID ne {def} {pop pop} ifelse} forall
  /Encoding WinAnsiEncoding def
  currentdict
end
/Courier-Oblique exch definefont pop
/Times-Roman findfont
dup length dict begin
  {1 index /FID ne {def} {pop pop} ifelse} forall
  /Encoding WinAnsiEncoding def
  currentdict
end
/Times-Roman exch definefont pop
/Helvetica-BoldOblique findfont
dup length dict begin
  {1 index /FID ne {def} {pop pop} ifelse} forall
  /Encoding WinAnsiEncoding def
  currentdict
end
/Helvetica-BoldOblique exch definefont pop
/Helvetica-Bold findfont
dup length dict begin
  {1 index /FID ne {def} {pop pop} ifelse} forall
  /Encoding WinAnsiEncoding def
  currentdict
end
/Helvetica-Bold exch definefont pop
/Helvetica-Oblique findfont
dup length dict begin
  {1 index /FID ne {def} {pop pop} ifelse} forall
  /Encoding WinAnsiEncoding def
  currentdict
end
/Helvetica-Oblique exch definefont pop
/Times-BoldItalic findfont
dup length dict begin
  {1 index /FID ne {def} {pop pop} ifelse} forall
  /Encoding WinAnsiEncoding def
  currentdict
end
/Times-BoldItalic exch definefont pop
/Courier findfont
dup length dict begin
  {1 index /FID ne {def} {pop pop} ifelse} forall
  /Encoding WinAnsiEncoding def
  currentdict
end
/Courier exch definefont pop
/Times-Italic findfont
dup length dict begin
  {1 index /FID ne {def} {pop pop} ifelse} forall
  /Encoding WinAnsiEncoding def
  currentdict
end
/Times-Italic exch definefont pop
/Times-Bold findfont
dup length dict begin
  {1 index /FID ne {def} {pop pop} ifelse} forall
  /Encoding WinAnsiEncoding def
  currentdict
end
/Times-Bold exch definefont pop
%FOPEndFontReencode
%%EndProlog
%%Page: 1 1
%%PageBoundingBox: 0 0 443 283
%%BeginPageSetup
[1 0 0 -1 0 283] CT
%%EndPageSetup
GS
[0.5035 0 0 0.5035 0 -0.46854] CT
N
0 0 M
879 0 L
879 563 L
0 563 L
0 0 L
cp
clip
1 GC
N
0 0 879 563 re
f
GR
GS
[0.5035 0 0 0.5035 0 -0.46854] CT
1 GC
N
0 0 879 563 re
f
GR
GS
[0.5035 0 0 0.5035 0 -0.46854] CT
1 GC
N
114 501 M
795 501 L
795 42 L
114 42 L
cp
f
GR
GS
[0.5035 0 0 0.5035 0 -0.46854] CT
0.149 GC
2 setlinecap
1 LJ
0.993 LW
N
114 501 M
795 501 L
S
GR
GS
[0.5035 0 0 0.5035 0 -0.46854] CT
0.149 GC
2 setlinecap
1 LJ
0.993 LW
N
114 42 M
795 42 L
S
GR
GS
[0.5035 0 0 0.5035 0 -0.46854] CT
0.149 GC
2 setlinecap
1 LJ
0.993 LW
N
114 501 M
114 494.19 L
S
GR
GS
[0.5035 0 0 0.5035 0 -0.46854] CT
0.149 GC
2 setlinecap
1 LJ
0.993 LW
N
199.125 501 M
199.125 494.19 L
S
GR
GS
[0.5035 0 0 0.5035 0 -0.46854] CT
0.149 GC
2 setlinecap
1 LJ
0.993 LW
N
284.25 501 M
284.25 494.19 L
S
GR
GS
[0.5035 0 0 0.5035 0 -0.46854] CT
0.149 GC
2 setlinecap
1 LJ
0.993 LW
N
369.375 501 M
369.375 494.19 L
S
GR
GS
[0.5035 0 0 0.5035 0 -0.46854] CT
0.149 GC
2 setlinecap
1 LJ
0.993 LW
N
454.5 501 M
454.5 494.19 L
S
GR
GS
[0.5035 0 0 0.5035 0 -0.46854] CT
0.149 GC
2 setlinecap
1 LJ
0.993 LW
N
539.625 501 M
539.625 494.19 L
S
GR
GS
[0.5035 0 0 0.5035 0 -0.46854] CT
0.149 GC
2 setlinecap
1 LJ
0.993 LW
N
624.75 501 M
624.75 494.19 L
S
GR
GS
[0.5035 0 0 0.5035 0 -0.46854] CT
0.149 GC
2 setlinecap
1 LJ
0.993 LW
N
709.875 501 M
709.875 494.19 L
S
GR
GS
[0.5035 0 0 0.5035 0 -0.46854] CT
0.149 GC
2 setlinecap
1 LJ
0.993 LW
N
795 501 M
795 494.19 L
S
GR
GS
[0.5035 0 0 0.5035 0 -0.46854] CT
0.149 GC
2 setlinecap
1 LJ
0.993 LW
N
114 42 M
114 48.81 L
S
GR
GS
[0.5035 0 0 0.5035 0 -0.46854] CT
0.149 GC
2 setlinecap
1 LJ
0.993 LW
N
199.125 42 M
199.125 48.81 L
S
GR
GS
[0.5035 0 0 0.5035 0 -0.46854] CT
0.149 GC
2 setlinecap
1 LJ
0.993 LW
N
284.25 42 M
284.25 48.81 L
S
GR
GS
[0.5035 0 0 0.5035 0 -0.46854] CT
0.149 GC
2 setlinecap
1 LJ
0.993 LW
N
369.375 42 M
369.375 48.81 L
S
GR
GS
[0.5035 0 0 0.5035 0 -0.46854] CT
0.149 GC
2 setlinecap
1 LJ
0.993 LW
N
454.5 42 M
454.5 48.81 L
S
GR
GS
[0.5035 0 0 0.5035 0 -0.46854] CT
0.149 GC
2 setlinecap
1 LJ
0.993 LW
N
539.625 42 M
539.625 48.81 L
S
GR
GS
[0.5035 0 0 0.5035 0 -0.46854] CT
0.149 GC
2 setlinecap
1 LJ
0.993 LW
N
624.75 42 M
624.75 48.81 L
S
GR
GS
[0.5035 0 0 0.5035 0 -0.46854] CT
0.149 GC
2 setlinecap
1 LJ
0.993 LW
N
709.875 42 M
709.875 48.81 L
S
GR
GS
[0.5035 0 0 0.5035 0 -0.46854] CT
0.149 GC
2 setlinecap
1 LJ
0.993 LW
N
795 42 M
795 48.81 L
S
GR
GS
[0.5035 0 0 0.5035 57.3986 255.78322] CT
0.149 GC
/Helvetica 19.861 F
GS
[1 0 0 1 0 0] CT
-6.5 19 moveto 
1 -1 scale
(0) t 
GR
GR
GS
[0.5035 0 0 0.5035 100.25874 255.78322] CT
0.149 GC
/Helvetica 19.861 F
GS
[1 0 0 1 0 0] CT
-6.5 19 moveto 
1 -1 scale
(5) t 
GR
GR
GS
[0.5035 0 0 0.5035 143.11888 255.78322] CT
0.149 GC
/Helvetica 19.861 F
GS
[1 0 0 1 0 0] CT
-13 19 moveto 
1 -1 scale
(10) t 
GR
GR
GS
[0.5035 0 0 0.5035 185.97902 255.78322] CT
0.149 GC
/Helvetica 19.861 F
GS
[1 0 0 1 0 0] CT
-13 19 moveto 
1 -1 scale
(15) t 
GR
GR
GS
[0.5035 0 0 0.5035 228.83916 255.78322] CT
0.149 GC
/Helvetica 19.861 F
GS
[1 0 0 1 0 0] CT
-13 19 moveto 
1 -1 scale
(20) t 
GR
GR
GS
[0.5035 0 0 0.5035 271.6993 255.78322] CT
0.149 GC
/Helvetica 19.861 F
GS
[1 0 0 1 0 0] CT
-13 19 moveto 
1 -1 scale
(25) t 
GR
GR
GS
[0.5035 0 0 0.5035 314.55944 255.78322] CT
0.149 GC
/Helvetica 19.861 F
GS
[1 0 0 1 0 0] CT
-13 19 moveto 
1 -1 scale
(30) t 
GR
GR
GS
[0.5035 0 0 0.5035 357.41958 255.78322] CT
0.149 GC
/Helvetica 19.861 F
GS
[1 0 0 1 0 0] CT
-13 19 moveto 
1 -1 scale
(35) t 
GR
GR
GS
[0.5035 0 0 0.5035 400.27972 255.78322] CT
0.149 GC
/Helvetica 19.861 F
GS
[1 0 0 1 0 0] CT
-13 19 moveto 
1 -1 scale
(40) t 
GR
GR
GS
[0.5035 0 0 0.5035 228.83933 268.86713] CT
0.149 GC
/Helvetica 21.847 F
GS
[1 0 0 1 0 0] CT
-65 21 moveto 
1 -1 scale
(Image Pairs) t 
GR
GR
GS
[0.5035 0 0 0.5035 0 -0.46854] CT
0.149 GC
2 setlinecap
1 LJ
0.993 LW
N
114 501 M
114 42 L
S
GR
GS
[0.5035 0 0 0.5035 0 -0.46854] CT
0.149 GC
2 setlinecap
1 LJ
0.993 LW
N
795 501 M
795 42 L
S
GR
GS
[0.5035 0 0 0.5035 0 -0.46854] CT
0.149 GC
2 setlinecap
1 LJ
0.993 LW
N
114 501 M
120.81 501 L
S
GR
GS
[0.5035 0 0 0.5035 0 -0.46854] CT
0.149 GC
2 setlinecap
1 LJ
0.993 LW
N
114 424.5 M
120.81 424.5 L
S
GR
GS
[0.5035 0 0 0.5035 0 -0.46854] CT
0.149 GC
2 setlinecap
1 LJ
0.993 LW
N
114 348 M
120.81 348 L
S
GR
GS
[0.5035 0 0 0.5035 0 -0.46854] CT
0.149 GC
2 setlinecap
1 LJ
0.993 LW
N
114 271.5 M
120.81 271.5 L
S
GR
GS
[0.5035 0 0 0.5035 0 -0.46854] CT
0.149 GC
2 setlinecap
1 LJ
0.993 LW
N
114 195 M
120.81 195 L
S
GR
GS
[0.5035 0 0 0.5035 0 -0.46854] CT
0.149 GC
2 setlinecap
1 LJ
0.993 LW
N
114 118.5 M
120.81 118.5 L
S
GR
GS
[0.5035 0 0 0.5035 0 -0.46854] CT
0.149 GC
2 setlinecap
1 LJ
0.993 LW
N
114 42 M
120.81 42 L
S
GR
GS
[0.5035 0 0 0.5035 0 -0.46854] CT
0.149 GC
2 setlinecap
1 LJ
0.993 LW
N
795 501 M
788.19 501 L
S
GR
GS
[0.5035 0 0 0.5035 0 -0.46854] CT
0.149 GC
2 setlinecap
1 LJ
0.993 LW
N
795 424.5 M
788.19 424.5 L
S
GR
GS
[0.5035 0 0 0.5035 0 -0.46854] CT
0.149 GC
2 setlinecap
1 LJ
0.993 LW
N
795 348 M
788.19 348 L
S
GR
GS
[0.5035 0 0 0.5035 0 -0.46854] CT
0.149 GC
2 setlinecap
1 LJ
0.993 LW
N
795 271.5 M
788.19 271.5 L
S
GR
GS
[0.5035 0 0 0.5035 0 -0.46854] CT
0.149 GC
2 setlinecap
1 LJ
0.993 LW
N
795 195 M
788.19 195 L
S
GR
GS
[0.5035 0 0 0.5035 0 -0.46854] CT
0.149 GC
2 setlinecap
1 LJ
0.993 LW
N
795 118.5 M
788.19 118.5 L
S
GR
GS
[0.5035 0 0 0.5035 0 -0.46854] CT
0.149 GC
2 setlinecap
1 LJ
0.993 LW
N
795 42 M
788.19 42 L
S
GR
GS
[0.5035 0 0 0.5035 53.3986 251.78322] CT
0.149 GC
/Helvetica 19.861 F
GS
[1 0 0 1 0 0] CT
-13 7 moveto 
1 -1 scale
(0) t 
GR
GR
GS
[0.5035 0 0 0.5035 53.3986 213.26573] CT
0.149 GC
/Helvetica 19.861 F
GS
[1 0 0 1 0 0] CT
-45 7 moveto 
1 -1 scale
(0.05) t 
GR
GR
GS
[0.5035 0 0 0.5035 53.3986 174.74825] CT
0.149 GC
/Helvetica 19.861 F
GS
[1 0 0 1 0 0] CT
-32 7 moveto 
1 -1 scale
(0.1) t 
GR
GR
GS
[0.5035 0 0 0.5035 53.3986 136.23077] CT
0.149 GC
/Helvetica 19.861 F
GS
[1 0 0 1 0 0] CT
-45 7 moveto 
1 -1 scale
(0.15) t 
GR
GR
GS
[0.5035 0 0 0.5035 53.3986 97.71328] CT
0.149 GC
/Helvetica 19.861 F
GS
[1 0 0 1 0 0] CT
-32 7 moveto 
1 -1 scale
(0.2) t 
GR
GR
GS
[0.5035 0 0 0.5035 53.3986 59.1958] CT
0.149 GC
/Helvetica 19.861 F
GS
[1 0 0 1 0 0] CT
-45 7 moveto 
1 -1 scale
(0.25) t 
GR
GR
GS
[0.5035 0 0 0.5035 53.3986 20.67831] CT
0.149 GC
/Helvetica 19.861 F
GS
[1 0 0 1 0 0] CT
-32 7 moveto 
1 -1 scale
(0.3) t 
GR
GR
GS
[0 -0.5035 0.5035 0 27.74126 136.23064] CT
0.149 GC
/Helvetica 21.847 F
GS
[1 0 0 1 0 0] CT
-109.5 -6 moveto 
1 -1 scale
(Mean Error in Pixels) t 
GR
GR
GS
[0.5035 0 0 0.5035 228.83938 19.2937] CT
/Helvetica-Bold 21.847 F
GS
[1 0 0 1 0 0] CT
-218.5 -6 moveto 
1 -1 scale
(Mean Reprojection Error per Image) t 
GR
GR
GS
[0.5035 0 0 0.5035 0 -0.46854] CT
0.149 GC
1 LJ
0.993 LW
N
114 501 M
795 501 L
S
GR
GS
[0.5035 0 0 0.5035 0 -0.46854] CT
0 0.702 1 RC
N
126.647 501 M
130.539 501 L
130.539 169.315 L
126.647 169.315 L
cp
f
GR
GS
[0.5035 0 0 0.5035 0 -0.46854] CT
0 0.702 1 RC
N
143.672 501 M
147.564 501 L
147.564 295.51 L
143.672 295.51 L
cp
f
GR
GS
[0.5035 0 0 0.5035 0 -0.46854] CT
0 0.702 1 RC
N
160.697 501 M
164.589 501 L
164.589 368.269 L
160.697 368.269 L
cp
f
GR
GS
[0.5035 0 0 0.5035 0 -0.46854] CT
0 0.702 1 RC
N
177.722 501 M
181.614 501 L
181.614 209.772 L
177.722 209.772 L
cp
f
GR
GS
[0.5035 0 0 0.5035 0 -0.46854] CT
0 0.702 1 RC
N
194.747 501 M
198.639 501 L
198.639 297.097 L
194.747 297.097 L
cp
f
GR
GS
[0.5035 0 0 0.5035 0 -0.46854] CT
0 0.702 1 RC
N
211.772 501 M
215.664 501 L
215.664 293.658 L
211.772 293.658 L
cp
f
GR
GS
[0.5035 0 0 0.5035 0 -0.46854] CT
0 0.702 1 RC
N
228.797 501 M
232.689 501 L
232.689 248.983 L
228.797 248.983 L
cp
f
GR
GS
[0.5035 0 0 0.5035 0 -0.46854] CT
0 0.702 1 RC
N
245.822 501 M
249.714 501 L
249.714 297.926 L
245.822 297.926 L
cp
f
GR
GS
[0.5035 0 0 0.5035 0 -0.46854] CT
0 0.702 1 RC
N
262.847 501 M
266.739 501 L
266.739 177.58 L
262.847 177.58 L
cp
f
GR
GS
[0.5035 0 0 0.5035 0 -0.46854] CT
0 0.702 1 RC
N
279.872 501 M
283.764 501 L
283.764 279.306 L
279.872 279.306 L
cp
f
GR
GS
[0.5035 0 0 0.5035 0 -0.46854] CT
0 0.702 1 RC
N
296.897 501 M
300.789 501 L
300.789 290.622 L
296.897 290.622 L
cp
f
GR
GS
[0.5035 0 0 0.5035 0 -0.46854] CT
0 0.702 1 RC
N
313.922 501 M
317.814 501 L
317.814 164.481 L
313.922 164.481 L
cp
f
GR
GS
[0.5035 0 0 0.5035 0 -0.46854] CT
0 0.702 1 RC
N
330.947 501 M
334.839 501 L
334.839 236.007 L
330.947 236.007 L
cp
f
GR
GS
[0.5035 0 0 0.5035 0 -0.46854] CT
0 0.702 1 RC
N
347.972 501 M
351.864 501 L
351.864 374.228 L
347.972 374.228 L
cp
f
GR
GS
[0.5035 0 0 0.5035 0 -0.46854] CT
0 0.702 1 RC
N
364.997 501 M
368.889 501 L
368.889 294.347 L
364.997 294.347 L
cp
f
GR
GS
[0.5035 0 0 0.5035 0 -0.46854] CT
0 0.702 1 RC
N
382.022 501 M
385.914 501 L
385.914 264.599 L
382.022 264.599 L
cp
f
GR
GS
[0.5035 0 0 0.5035 0 -0.46854] CT
0 0.702 1 RC
N
399.047 501 M
402.939 501 L
402.939 348.481 L
399.047 348.481 L
cp
f
GR
GS
[0.5035 0 0 0.5035 0 -0.46854] CT
0 0.702 1 RC
N
416.072 501 M
419.964 501 L
419.964 295.113 L
416.072 295.113 L
cp
f
GR
GS
[0.5035 0 0 0.5035 0 -0.46854] CT
0 0.702 1 RC
N
433.097 501 M
436.989 501 L
436.989 298.101 L
433.097 298.101 L
cp
f
GR
GS
[0.5035 0 0 0.5035 0 -0.46854] CT
0 0.702 1 RC
N
450.122 501 M
454.014 501 L
454.014 292.348 L
450.122 292.348 L
cp
f
GR
GS
[0.5035 0 0 0.5035 0 -0.46854] CT
0 0.702 1 RC
N
467.147 501 M
471.039 501 L
471.039 278.187 L
467.147 278.187 L
cp
f
GR
GS
[0.5035 0 0 0.5035 0 -0.46854] CT
0 0.702 1 RC
N
484.172 501 M
488.064 501 L
488.064 380.104 L
484.172 380.104 L
cp
f
GR
GS
[0.5035 0 0 0.5035 0 -0.46854] CT
0 0.702 1 RC
N
501.197 501 M
505.089 501 L
505.089 359.553 L
501.197 359.553 L
cp
f
GR
GS
[0.5035 0 0 0.5035 0 -0.46854] CT
0 0.702 1 RC
N
518.222 501 M
522.114 501 L
522.114 347.454 L
518.222 347.454 L
cp
f
GR
GS
[0.5035 0 0 0.5035 0 -0.46854] CT
0 0.702 1 RC
N
535.247 501 M
539.139 501 L
539.139 363.66 L
535.247 363.66 L
cp
f
GR
GS
[0.5035 0 0 0.5035 0 -0.46854] CT
0 0.702 1 RC
N
552.272 501 M
556.164 501 L
556.164 197.886 L
552.272 197.886 L
cp
f
GR
GS
[0.5035 0 0 0.5035 0 -0.46854] CT
0 0.702 1 RC
N
569.297 501 M
573.189 501 L
573.189 348.188 L
569.297 348.188 L
cp
f
GR
GS
[0.5035 0 0 0.5035 0 -0.46854] CT
0 0.702 1 RC
N
586.322 501 M
590.214 501 L
590.214 265.123 L
586.322 265.123 L
cp
f
GR
GS
[0.5035 0 0 0.5035 0 -0.46854] CT
0 0.702 1 RC
N
603.347 501 M
607.239 501 L
607.239 240.726 L
603.347 240.726 L
cp
f
GR
GS
[0.5035 0 0 0.5035 0 -0.46854] CT
0 0.702 1 RC
N
620.372 501 M
624.264 501 L
624.264 253.493 L
620.372 253.493 L
cp
f
GR
GS
[0.5035 0 0 0.5035 0 -0.46854] CT
0 0.702 1 RC
N
637.397 501 M
641.289 501 L
641.289 257.906 L
637.397 257.906 L
cp
f
GR
GS
[0.5035 0 0 0.5035 0 -0.46854] CT
0 0.702 1 RC
N
654.422 501 M
658.314 501 L
658.314 201.397 L
654.422 201.397 L
cp
f
GR
GS
[0.5035 0 0 0.5035 0 -0.46854] CT
0 0.702 1 RC
N
671.447 501 M
675.339 501 L
675.339 343.703 L
671.447 343.703 L
cp
f
GR
GS
[0.5035 0 0 0.5035 0 -0.46854] CT
0 0.702 1 RC
N
688.472 501 M
692.364 501 L
692.364 311.226 L
688.472 311.226 L
cp
f
GR
GS
[0.5035 0 0 0.5035 0 -0.46854] CT
0 0.702 1 RC
N
705.497 501 M
709.389 501 L
709.389 290.546 L
705.497 290.546 L
cp
f
GR
GS
[0.5035 0 0 0.5035 0 -0.46854] CT
0 0.702 1 RC
N
722.522 501 M
726.414 501 L
726.414 361.761 L
722.522 361.761 L
cp
f
GR
GS
[0.5035 0 0 0.5035 0 -0.46854] CT
0 0.702 1 RC
N
739.547 501 M
743.439 501 L
743.439 116.015 L
739.547 116.015 L
cp
f
GR
GS
[0.5035 0 0 0.5035 0 -0.46854] CT
0 0.702 1 RC
N
756.572 501 M
760.464 501 L
760.464 196.697 L
756.572 196.697 L
cp
f
GR
GS
[0.5035 0 0 0.5035 0 -0.46854] CT
10.0 ML
0.993 LW
N
126.647 501 M
126.647 169.315 L
130.539 169.315 L
130.539 501 L
cp
S
GR
GS
[0.5035 0 0 0.5035 0 -0.46854] CT
10.0 ML
0.993 LW
N
143.672 501 M
143.672 295.51 L
147.564 295.51 L
147.564 501 L
cp
S
GR
GS
[0.5035 0 0 0.5035 0 -0.46854] CT
10.0 ML
0.993 LW
N
160.697 501 M
160.697 368.269 L
164.589 368.269 L
164.589 501 L
cp
S
GR
GS
[0.5035 0 0 0.5035 0 -0.46854] CT
10.0 ML
0.993 LW
N
177.722 501 M
177.722 209.772 L
181.614 209.772 L
181.614 501 L
cp
S
GR
GS
[0.5035 0 0 0.5035 0 -0.46854] CT
10.0 ML
0.993 LW
N
194.747 501 M
194.747 297.097 L
198.639 297.097 L
198.639 501 L
cp
S
GR
GS
[0.5035 0 0 0.5035 0 -0.46854] CT
10.0 ML
0.993 LW
N
211.772 501 M
211.772 293.658 L
215.664 293.658 L
215.664 501 L
cp
S
GR
GS
[0.5035 0 0 0.5035 0 -0.46854] CT
10.0 ML
0.993 LW
N
228.797 501 M
228.797 248.983 L
232.689 248.983 L
232.689 501 L
cp
S
GR
GS
[0.5035 0 0 0.5035 0 -0.46854] CT
10.0 ML
0.993 LW
N
245.822 501 M
245.822 297.926 L
249.714 297.926 L
249.714 501 L
cp
S
GR
GS
[0.5035 0 0 0.5035 0 -0.46854] CT
10.0 ML
0.993 LW
N
262.847 501 M
262.847 177.58 L
266.739 177.58 L
266.739 501 L
cp
S
GR
GS
[0.5035 0 0 0.5035 0 -0.46854] CT
10.0 ML
0.993 LW
N
279.872 501 M
279.872 279.306 L
283.764 279.306 L
283.764 501 L
cp
S
GR
GS
[0.5035 0 0 0.5035 0 -0.46854] CT
10.0 ML
0.993 LW
N
296.897 501 M
296.897 290.622 L
300.789 290.622 L
300.789 501 L
cp
S
GR
GS
[0.5035 0 0 0.5035 0 -0.46854] CT
10.0 ML
0.993 LW
N
313.922 501 M
313.922 164.481 L
317.814 164.481 L
317.814 501 L
cp
S
GR
GS
[0.5035 0 0 0.5035 0 -0.46854] CT
10.0 ML
0.993 LW
N
330.947 501 M
330.947 236.007 L
334.839 236.007 L
334.839 501 L
cp
S
GR
GS
[0.5035 0 0 0.5035 0 -0.46854] CT
10.0 ML
0.993 LW
N
347.972 501 M
347.972 374.228 L
351.864 374.228 L
351.864 501 L
cp
S
GR
GS
[0.5035 0 0 0.5035 0 -0.46854] CT
10.0 ML
0.993 LW
N
364.997 501 M
364.997 294.347 L
368.889 294.347 L
368.889 501 L
cp
S
GR
GS
[0.5035 0 0 0.5035 0 -0.46854] CT
10.0 ML
0.993 LW
N
382.022 501 M
382.022 264.599 L
385.914 264.599 L
385.914 501 L
cp
S
GR
GS
[0.5035 0 0 0.5035 0 -0.46854] CT
10.0 ML
0.993 LW
N
399.047 501 M
399.047 348.481 L
402.939 348.481 L
402.939 501 L
cp
S
GR
GS
[0.5035 0 0 0.5035 0 -0.46854] CT
10.0 ML
0.993 LW
N
416.072 501 M
416.072 295.113 L
419.964 295.113 L
419.964 501 L
cp
S
GR
GS
[0.5035 0 0 0.5035 0 -0.46854] CT
10.0 ML
0.993 LW
N
433.097 501 M
433.097 298.101 L
436.989 298.101 L
436.989 501 L
cp
S
GR
GS
[0.5035 0 0 0.5035 0 -0.46854] CT
10.0 ML
0.993 LW
N
450.122 501 M
450.122 292.348 L
454.014 292.348 L
454.014 501 L
cp
S
GR
GS
[0.5035 0 0 0.5035 0 -0.46854] CT
10.0 ML
0.993 LW
N
467.147 501 M
467.147 278.187 L
471.039 278.187 L
471.039 501 L
cp
S
GR
GS
[0.5035 0 0 0.5035 0 -0.46854] CT
10.0 ML
0.993 LW
N
484.172 501 M
484.172 380.104 L
488.064 380.104 L
488.064 501 L
cp
S
GR
GS
[0.5035 0 0 0.5035 0 -0.46854] CT
10.0 ML
0.993 LW
N
501.197 501 M
501.197 359.553 L
505.089 359.553 L
505.089 501 L
cp
S
GR
GS
[0.5035 0 0 0.5035 0 -0.46854] CT
10.0 ML
0.993 LW
N
518.222 501 M
518.222 347.454 L
522.114 347.454 L
522.114 501 L
cp
S
GR
GS
[0.5035 0 0 0.5035 0 -0.46854] CT
10.0 ML
0.993 LW
N
535.247 501 M
535.247 363.66 L
539.139 363.66 L
539.139 501 L
cp
S
GR
GS
[0.5035 0 0 0.5035 0 -0.46854] CT
10.0 ML
0.993 LW
N
552.272 501 M
552.272 197.886 L
556.164 197.886 L
556.164 501 L
cp
S
GR
GS
[0.5035 0 0 0.5035 0 -0.46854] CT
10.0 ML
0.993 LW
N
569.297 501 M
569.297 348.188 L
573.189 348.188 L
573.189 501 L
cp
S
GR
GS
[0.5035 0 0 0.5035 0 -0.46854] CT
10.0 ML
0.993 LW
N
586.322 501 M
586.322 265.123 L
590.214 265.123 L
590.214 501 L
cp
S
GR
GS
[0.5035 0 0 0.5035 0 -0.46854] CT
10.0 ML
0.993 LW
N
603.347 501 M
603.347 240.726 L
607.239 240.726 L
607.239 501 L
cp
S
GR
GS
[0.5035 0 0 0.5035 0 -0.46854] CT
10.0 ML
0.993 LW
N
620.372 501 M
620.372 253.493 L
624.264 253.493 L
624.264 501 L
cp
S
GR
GS
[0.5035 0 0 0.5035 0 -0.46854] CT
10.0 ML
0.993 LW
N
637.397 501 M
637.397 257.906 L
641.289 257.906 L
641.289 501 L
cp
S
GR
GS
[0.5035 0 0 0.5035 0 -0.46854] CT
10.0 ML
0.993 LW
N
654.422 501 M
654.422 201.397 L
658.314 201.397 L
658.314 501 L
cp
S
GR
GS
[0.5035 0 0 0.5035 0 -0.46854] CT
10.0 ML
0.993 LW
N
671.447 501 M
671.447 343.703 L
675.339 343.703 L
675.339 501 L
cp
S
GR
GS
[0.5035 0 0 0.5035 0 -0.46854] CT
10.0 ML
0.993 LW
N
688.472 501 M
688.472 311.226 L
692.364 311.226 L
692.364 501 L
cp
S
GR
GS
[0.5035 0 0 0.5035 0 -0.46854] CT
10.0 ML
0.993 LW
N
705.497 501 M
705.497 290.546 L
709.389 290.546 L
709.389 501 L
cp
S
GR
GS
[0.5035 0 0 0.5035 0 -0.46854] CT
10.0 ML
0.993 LW
N
722.522 501 M
722.522 361.761 L
726.414 361.761 L
726.414 501 L
cp
S
GR
GS
[0.5035 0 0 0.5035 0 -0.46854] CT
10.0 ML
0.993 LW
N
739.547 501 M
739.547 116.015 L
743.439 116.015 L
743.439 501 L
cp
S
GR
GS
[0.5035 0 0 0.5035 0 -0.46854] CT
10.0 ML
0.993 LW
N
756.572 501 M
756.572 196.697 L
760.464 196.697 L
760.464 501 L
cp
S
GR
GS
[0.5035 0 0 0.5035 0 -0.46854] CT
0.949 0.773 0.58 RC
N
131.511 501 M
135.403 501 L
135.403 189.069 L
131.511 189.069 L
cp
f
GR
GS
[0.5035 0 0 0.5035 0 -0.46854] CT
0.949 0.773 0.58 RC
N
148.536 501 M
152.428 501 L
152.428 263.217 L
148.536 263.217 L
cp
f
GR
GS
[0.5035 0 0 0.5035 0 -0.46854] CT
0.949 0.773 0.58 RC
N
165.561 501 M
169.453 501 L
169.453 378.561 L
165.561 378.561 L
cp
f
GR
GS
[0.5035 0 0 0.5035 0 -0.46854] CT
0.949 0.773 0.58 RC
N
182.586 501 M
186.478 501 L
186.478 202.013 L
182.586 202.013 L
cp
f
GR
GS
[0.5035 0 0 0.5035 0 -0.46854] CT
0.949 0.773 0.58 RC
N
199.611 501 M
203.503 501 L
203.503 237.161 L
199.611 237.161 L
cp
f
GR
GS
[0.5035 0 0 0.5035 0 -0.46854] CT
0.949 0.773 0.58 RC
N
216.636 501 M
220.528 501 L
220.528 261.816 L
216.636 261.816 L
cp
f
GR
GS
[0.5035 0 0 0.5035 0 -0.46854] CT
0.949 0.773 0.58 RC
N
233.661 501 M
237.553 501 L
237.553 203.805 L
233.661 203.805 L
cp
f
GR
GS
[0.5035 0 0 0.5035 0 -0.46854] CT
0.949 0.773 0.58 RC
N
250.686 501 M
254.578 501 L
254.578 332.065 L
250.686 332.065 L
cp
f
GR
GS
[0.5035 0 0 0.5035 0 -0.46854] CT
0.949 0.773 0.58 RC
N
267.711 501 M
271.603 501 L
271.603 323.514 L
267.711 323.514 L
cp
f
GR
GS
[0.5035 0 0 0.5035 0 -0.46854] CT
0.949 0.773 0.58 RC
N
284.736 501 M
288.628 501 L
288.628 293.763 L
284.736 293.763 L
cp
f
GR
GS
[0.5035 0 0 0.5035 0 -0.46854] CT
0.949 0.773 0.58 RC
N
301.761 501 M
305.653 501 L
305.653 240.624 L
301.761 240.624 L
cp
f
GR
GS
[0.5035 0 0 0.5035 0 -0.46854] CT
0.949 0.773 0.58 RC
N
318.786 501 M
322.678 501 L
322.678 136.134 L
318.786 136.134 L
cp
f
GR
GS
[0.5035 0 0 0.5035 0 -0.46854] CT
0.949 0.773 0.58 RC
N
335.811 501 M
339.703 501 L
339.703 215.966 L
335.811 215.966 L
cp
f
GR
GS
[0.5035 0 0 0.5035 0 -0.46854] CT
0.949 0.773 0.58 RC
N
352.836 501 M
356.728 501 L
356.728 352.908 L
352.836 352.908 L
cp
f
GR
GS
[0.5035 0 0 0.5035 0 -0.46854] CT
0.949 0.773 0.58 RC
N
369.861 501 M
373.753 501 L
373.753 293.423 L
369.861 293.423 L
cp
f
GR
GS
[0.5035 0 0 0.5035 0 -0.46854] CT
0.949 0.773 0.58 RC
N
386.886 501 M
390.778 501 L
390.778 255.414 L
386.886 255.414 L
cp
f
GR
GS
[0.5035 0 0 0.5035 0 -0.46854] CT
0.949 0.773 0.58 RC
N
403.911 501 M
407.803 501 L
407.803 320.558 L
403.911 320.558 L
cp
f
GR
GS
[0.5035 0 0 0.5035 0 -0.46854] CT
0.949 0.773 0.58 RC
N
420.936 501 M
424.828 501 L
424.828 283.75 L
420.936 283.75 L
cp
f
GR
GS
[0.5035 0 0 0.5035 0 -0.46854] CT
0.949 0.773 0.58 RC
N
437.961 501 M
441.853 501 L
441.853 293.398 L
437.961 293.398 L
cp
f
GR
GS
[0.5035 0 0 0.5035 0 -0.46854] CT
0.949 0.773 0.58 RC
N
454.986 501 M
458.878 501 L
458.878 271.177 L
454.986 271.177 L
cp
f
GR
GS
[0.5035 0 0 0.5035 0 -0.46854] CT
0.949 0.773 0.58 RC
N
472.011 501 M
475.903 501 L
475.903 311.618 L
472.011 311.618 L
cp
f
GR
GS
[0.5035 0 0 0.5035 0 -0.46854] CT
0.949 0.773 0.58 RC
N
489.036 501 M
492.928 501 L
492.928 377.314 L
489.036 377.314 L
cp
f
GR
GS
[0.5035 0 0 0.5035 0 -0.46854] CT
0.949 0.773 0.58 RC
N
506.061 501 M
509.953 501 L
509.953 389.983 L
506.061 389.983 L
cp
f
GR
GS
[0.5035 0 0 0.5035 0 -0.46854] CT
0.949 0.773 0.58 RC
N
523.086 501 M
526.978 501 L
526.978 375.454 L
523.086 375.454 L
cp
f
GR
GS
[0.5035 0 0 0.5035 0 -0.46854] CT
0.949 0.773 0.58 RC
N
540.111 501 M
544.003 501 L
544.003 386.775 L
540.111 386.775 L
cp
f
GR
GS
[0.5035 0 0 0.5035 0 -0.46854] CT
0.949 0.773 0.58 RC
N
557.136 501 M
561.028 501 L
561.028 268.589 L
557.136 268.589 L
cp
f
GR
GS
[0.5035 0 0 0.5035 0 -0.46854] CT
0.949 0.773 0.58 RC
N
574.161 501 M
578.053 501 L
578.053 342.192 L
574.161 342.192 L
cp
f
GR
GS
[0.5035 0 0 0.5035 0 -0.46854] CT
0.949 0.773 0.58 RC
N
591.186 501 M
595.078 501 L
595.078 291.7 L
591.186 291.7 L
cp
f
GR
GS
[0.5035 0 0 0.5035 0 -0.46854] CT
0.949 0.773 0.58 RC
N
608.211 501 M
612.103 501 L
612.103 218.521 L
608.211 218.521 L
cp
f
GR
GS
[0.5035 0 0 0.5035 0 -0.46854] CT
0.949 0.773 0.58 RC
N
625.236 501 M
629.128 501 L
629.128 265.917 L
625.236 265.917 L
cp
f
GR
GS
[0.5035 0 0 0.5035 0 -0.46854] CT
0.949 0.773 0.58 RC
N
642.261 501 M
646.153 501 L
646.153 220.584 L
642.261 220.584 L
cp
f
GR
GS
[0.5035 0 0 0.5035 0 -0.46854] CT
0.949 0.773 0.58 RC
N
659.286 501 M
663.178 501 L
663.178 181.046 L
659.286 181.046 L
cp
f
GR
GS
[0.5035 0 0 0.5035 0 -0.46854] CT
0.949 0.773 0.58 RC
N
676.311 501 M
680.203 501 L
680.203 319.473 L
676.311 319.473 L
cp
f
GR
GS
[0.5035 0 0 0.5035 0 -0.46854] CT
0.949 0.773 0.58 RC
N
693.336 501 M
697.228 501 L
697.228 336.152 L
693.336 336.152 L
cp
f
GR
GS
[0.5035 0 0 0.5035 0 -0.46854] CT
0.949 0.773 0.58 RC
N
710.361 501 M
714.253 501 L
714.253 316.984 L
710.361 316.984 L
cp
f
GR
GS
[0.5035 0 0 0.5035 0 -0.46854] CT
0.949 0.773 0.58 RC
N
727.386 501 M
731.278 501 L
731.278 352.888 L
727.386 352.888 L
cp
f
GR
GS
[0.5035 0 0 0.5035 0 -0.46854] CT
0.949 0.773 0.58 RC
N
744.411 501 M
748.303 501 L
748.303 198.346 L
744.411 198.346 L
cp
f
GR
GS
[0.5035 0 0 0.5035 0 -0.46854] CT
0.949 0.773 0.58 RC
N
761.436 501 M
765.328 501 L
765.328 208.221 L
761.436 208.221 L
cp
f
GR
GS
[0.5035 0 0 0.5035 0 -0.46854] CT
10.0 ML
0.993 LW
N
131.511 501 M
131.511 189.069 L
135.403 189.069 L
135.403 501 L
cp
S
GR
GS
[0.5035 0 0 0.5035 0 -0.46854] CT
10.0 ML
0.993 LW
N
148.536 501 M
148.536 263.217 L
152.428 263.217 L
152.428 501 L
cp
S
GR
GS
[0.5035 0 0 0.5035 0 -0.46854] CT
10.0 ML
0.993 LW
N
165.561 501 M
165.561 378.561 L
169.453 378.561 L
169.453 501 L
cp
S
GR
GS
[0.5035 0 0 0.5035 0 -0.46854] CT
10.0 ML
0.993 LW
N
182.586 501 M
182.586 202.013 L
186.478 202.013 L
186.478 501 L
cp
S
GR
GS
[0.5035 0 0 0.5035 0 -0.46854] CT
10.0 ML
0.993 LW
N
199.611 501 M
199.611 237.161 L
203.503 237.161 L
203.503 501 L
cp
S
GR
GS
[0.5035 0 0 0.5035 0 -0.46854] CT
10.0 ML
0.993 LW
N
216.636 501 M
216.636 261.816 L
220.528 261.816 L
220.528 501 L
cp
S
GR
GS
[0.5035 0 0 0.5035 0 -0.46854] CT
10.0 ML
0.993 LW
N
233.661 501 M
233.661 203.805 L
237.553 203.805 L
237.553 501 L
cp
S
GR
GS
[0.5035 0 0 0.5035 0 -0.46854] CT
10.0 ML
0.993 LW
N
250.686 501 M
250.686 332.065 L
254.578 332.065 L
254.578 501 L
cp
S
GR
GS
[0.5035 0 0 0.5035 0 -0.46854] CT
10.0 ML
0.993 LW
N
267.711 501 M
267.711 323.514 L
271.603 323.514 L
271.603 501 L
cp
S
GR
GS
[0.5035 0 0 0.5035 0 -0.46854] CT
10.0 ML
0.993 LW
N
284.736 501 M
284.736 293.763 L
288.628 293.763 L
288.628 501 L
cp
S
GR
GS
[0.5035 0 0 0.5035 0 -0.46854] CT
10.0 ML
0.993 LW
N
301.761 501 M
301.761 240.624 L
305.653 240.624 L
305.653 501 L
cp
S
GR
GS
[0.5035 0 0 0.5035 0 -0.46854] CT
10.0 ML
0.993 LW
N
318.786 501 M
318.786 136.134 L
322.678 136.134 L
322.678 501 L
cp
S
GR
GS
[0.5035 0 0 0.5035 0 -0.46854] CT
10.0 ML
0.993 LW
N
335.811 501 M
335.811 215.966 L
339.703 215.966 L
339.703 501 L
cp
S
GR
GS
[0.5035 0 0 0.5035 0 -0.46854] CT
10.0 ML
0.993 LW
N
352.836 501 M
352.836 352.908 L
356.728 352.908 L
356.728 501 L
cp
S
GR
GS
[0.5035 0 0 0.5035 0 -0.46854] CT
10.0 ML
0.993 LW
N
369.861 501 M
369.861 293.423 L
373.753 293.423 L
373.753 501 L
cp
S
GR
GS
[0.5035 0 0 0.5035 0 -0.46854] CT
10.0 ML
0.993 LW
N
386.886 501 M
386.886 255.414 L
390.778 255.414 L
390.778 501 L
cp
S
GR
GS
[0.5035 0 0 0.5035 0 -0.46854] CT
10.0 ML
0.993 LW
N
403.911 501 M
403.911 320.558 L
407.803 320.558 L
407.803 501 L
cp
S
GR
GS
[0.5035 0 0 0.5035 0 -0.46854] CT
10.0 ML
0.993 LW
N
420.936 501 M
420.936 283.75 L
424.828 283.75 L
424.828 501 L
cp
S
GR
GS
[0.5035 0 0 0.5035 0 -0.46854] CT
10.0 ML
0.993 LW
N
437.961 501 M
437.961 293.398 L
441.853 293.398 L
441.853 501 L
cp
S
GR
GS
[0.5035 0 0 0.5035 0 -0.46854] CT
10.0 ML
0.993 LW
N
454.986 501 M
454.986 271.177 L
458.878 271.177 L
458.878 501 L
cp
S
GR
GS
[0.5035 0 0 0.5035 0 -0.46854] CT
10.0 ML
0.993 LW
N
472.011 501 M
472.011 311.618 L
475.903 311.618 L
475.903 501 L
cp
S
GR
GS
[0.5035 0 0 0.5035 0 -0.46854] CT
10.0 ML
0.993 LW
N
489.036 501 M
489.036 377.314 L
492.928 377.314 L
492.928 501 L
cp
S
GR
GS
[0.5035 0 0 0.5035 0 -0.46854] CT
10.0 ML
0.993 LW
N
506.061 501 M
506.061 389.983 L
509.953 389.983 L
509.953 501 L
cp
S
GR
GS
[0.5035 0 0 0.5035 0 -0.46854] CT
10.0 ML
0.993 LW
N
523.086 501 M
523.086 375.454 L
526.978 375.454 L
526.978 501 L
cp
S
GR
GS
[0.5035 0 0 0.5035 0 -0.46854] CT
10.0 ML
0.993 LW
N
540.111 501 M
540.111 386.775 L
544.003 386.775 L
544.003 501 L
cp
S
GR
GS
[0.5035 0 0 0.5035 0 -0.46854] CT
10.0 ML
0.993 LW
N
557.136 501 M
557.136 268.589 L
561.028 268.589 L
561.028 501 L
cp
S
GR
GS
[0.5035 0 0 0.5035 0 -0.46854] CT
10.0 ML
0.993 LW
N
574.161 501 M
574.161 342.192 L
578.053 342.192 L
578.053 501 L
cp
S
GR
GS
[0.5035 0 0 0.5035 0 -0.46854] CT
10.0 ML
0.993 LW
N
591.186 501 M
591.186 291.7 L
595.078 291.7 L
595.078 501 L
cp
S
GR
GS
[0.5035 0 0 0.5035 0 -0.46854] CT
10.0 ML
0.993 LW
N
608.211 501 M
608.211 218.521 L
612.103 218.521 L
612.103 501 L
cp
S
GR
GS
[0.5035 0 0 0.5035 0 -0.46854] CT
10.0 ML
0.993 LW
N
625.236 501 M
625.236 265.917 L
629.128 265.917 L
629.128 501 L
cp
S
GR
GS
[0.5035 0 0 0.5035 0 -0.46854] CT
10.0 ML
0.993 LW
N
642.261 501 M
642.261 220.584 L
646.153 220.584 L
646.153 501 L
cp
S
GR
GS
[0.5035 0 0 0.5035 0 -0.46854] CT
10.0 ML
0.993 LW
N
659.286 501 M
659.286 181.046 L
663.178 181.046 L
663.178 501 L
cp
S
GR
GS
[0.5035 0 0 0.5035 0 -0.46854] CT
10.0 ML
0.993 LW
N
676.311 501 M
676.311 319.473 L
680.203 319.473 L
680.203 501 L
cp
S
GR
GS
[0.5035 0 0 0.5035 0 -0.46854] CT
10.0 ML
0.993 LW
N
693.336 501 M
693.336 336.152 L
697.228 336.152 L
697.228 501 L
cp
S
GR
GS
[0.5035 0 0 0.5035 0 -0.46854] CT
10.0 ML
0.993 LW
N
710.361 501 M
710.361 316.984 L
714.253 316.984 L
714.253 501 L
cp
S
GR
GS
[0.5035 0 0 0.5035 0 -0.46854] CT
10.0 ML
0.993 LW
N
727.386 501 M
727.386 352.888 L
731.278 352.888 L
731.278 501 L
cp
S
GR
GS
[0.5035 0 0 0.5035 0 -0.46854] CT
10.0 ML
0.993 LW
N
744.411 501 M
744.411 198.346 L
748.303 198.346 L
748.303 501 L
cp
S
GR
GS
[0.5035 0 0 0.5035 0 -0.46854] CT
10.0 ML
0.993 LW
N
761.436 501 M
761.436 208.221 L
765.328 208.221 L
765.328 501 L
cp
S
GR
GS
[0.5035 0 0 0.5035 0 -0.46854] CT
0 0.447 0.741 RC
[10 6] 0 setdash
2 LJ
0.993 LW
N
114 280.519 M
795 280.519 L
S
GR
GS
[0.5035 0 0 0.5035 0 -0.46854] CT
0 0 1 RC
N
126.647 501 M
130.539 501 L
130.539 501 L
126.647 501 L
cp
f
GR
GS
[0.5035 0 0 0.5035 0 -0.46854] CT
0 0 1 RC
N
143.672 501 M
147.564 501 L
147.564 501 L
143.672 501 L
cp
f
GR
GS
[0.5035 0 0 0.5035 0 -0.46854] CT
0 0 1 RC
N
160.697 501 M
164.589 501 L
164.589 501 L
160.697 501 L
cp
f
GR
GS
[0.5035 0 0 0.5035 0 -0.46854] CT
0 0 1 RC
N
177.722 501 M
181.614 501 L
181.614 501 L
177.722 501 L
cp
f
GR
GS
[0.5035 0 0 0.5035 0 -0.46854] CT
0 0 1 RC
N
194.747 501 M
198.639 501 L
198.639 501 L
194.747 501 L
cp
f
GR
GS
[0.5035 0 0 0.5035 0 -0.46854] CT
0 0 1 RC
N
211.772 501 M
215.664 501 L
215.664 501 L
211.772 501 L
cp
f
GR
GS
[0.5035 0 0 0.5035 0 -0.46854] CT
0 0 1 RC
N
228.797 501 M
232.689 501 L
232.689 501 L
228.797 501 L
cp
f
GR
GS
[0.5035 0 0 0.5035 0 -0.46854] CT
0 0 1 RC
N
245.822 501 M
249.714 501 L
249.714 501 L
245.822 501 L
cp
f
GR
GS
[0.5035 0 0 0.5035 0 -0.46854] CT
0 0 1 RC
N
262.847 501 M
266.739 501 L
266.739 501 L
262.847 501 L
cp
f
GR
GS
[0.5035 0 0 0.5035 0 -0.46854] CT
0 0 1 RC
N
279.872 501 M
283.764 501 L
283.764 501 L
279.872 501 L
cp
f
GR
GS
[0.5035 0 0 0.5035 0 -0.46854] CT
0 0 1 RC
N
296.897 501 M
300.789 501 L
300.789 501 L
296.897 501 L
cp
f
GR
GS
[0.5035 0 0 0.5035 0 -0.46854] CT
0 0 1 RC
N
313.922 501 M
317.814 501 L
317.814 501 L
313.922 501 L
cp
f
GR
GS
[0.5035 0 0 0.5035 0 -0.46854] CT
0 0 1 RC
N
330.947 501 M
334.839 501 L
334.839 501 L
330.947 501 L
cp
f
GR
GS
[0.5035 0 0 0.5035 0 -0.46854] CT
0 0 1 RC
N
347.972 501 M
351.864 501 L
351.864 501 L
347.972 501 L
cp
f
GR
GS
[0.5035 0 0 0.5035 0 -0.46854] CT
0 0 1 RC
N
364.997 501 M
368.889 501 L
368.889 501 L
364.997 501 L
cp
f
GR
GS
[0.5035 0 0 0.5035 0 -0.46854] CT
0 0 1 RC
N
382.022 501 M
385.914 501 L
385.914 501 L
382.022 501 L
cp
f
GR
GS
[0.5035 0 0 0.5035 0 -0.46854] CT
0 0 1 RC
N
399.047 501 M
402.939 501 L
402.939 501 L
399.047 501 L
cp
f
GR
GS
[0.5035 0 0 0.5035 0 -0.46854] CT
0 0 1 RC
N
416.072 501 M
419.964 501 L
419.964 501 L
416.072 501 L
cp
f
GR
GS
[0.5035 0 0 0.5035 0 -0.46854] CT
0 0 1 RC
N
433.097 501 M
436.989 501 L
436.989 501 L
433.097 501 L
cp
f
GR
GS
[0.5035 0 0 0.5035 0 -0.46854] CT
0 0 1 RC
N
450.122 501 M
454.014 501 L
454.014 501 L
450.122 501 L
cp
f
GR
GS
[0.5035 0 0 0.5035 0 -0.46854] CT
0 0 1 RC
N
467.147 501 M
471.039 501 L
471.039 501 L
467.147 501 L
cp
f
GR
GS
[0.5035 0 0 0.5035 0 -0.46854] CT
0 0 1 RC
N
484.172 501 M
488.064 501 L
488.064 501 L
484.172 501 L
cp
f
GR
GS
[0.5035 0 0 0.5035 0 -0.46854] CT
0 0 1 RC
N
501.197 501 M
505.089 501 L
505.089 501 L
501.197 501 L
cp
f
GR
GS
[0.5035 0 0 0.5035 0 -0.46854] CT
0 0 1 RC
N
518.222 501 M
522.114 501 L
522.114 501 L
518.222 501 L
cp
f
GR
GS
[0.5035 0 0 0.5035 0 -0.46854] CT
0 0 1 RC
N
535.247 501 M
539.139 501 L
539.139 501 L
535.247 501 L
cp
f
GR
GS
[0.5035 0 0 0.5035 0 -0.46854] CT
0 0 1 RC
N
552.272 501 M
556.164 501 L
556.164 501 L
552.272 501 L
cp
f
GR
GS
[0.5035 0 0 0.5035 0 -0.46854] CT
0 0 1 RC
N
569.297 501 M
573.189 501 L
573.189 501 L
569.297 501 L
cp
f
GR
GS
[0.5035 0 0 0.5035 0 -0.46854] CT
0 0 1 RC
N
586.322 501 M
590.214 501 L
590.214 501 L
586.322 501 L
cp
f
GR
GS
[0.5035 0 0 0.5035 0 -0.46854] CT
0 0 1 RC
N
603.347 501 M
607.239 501 L
607.239 501 L
603.347 501 L
cp
f
GR
GS
[0.5035 0 0 0.5035 0 -0.46854] CT
0 0 1 RC
N
620.372 501 M
624.264 501 L
624.264 501 L
620.372 501 L
cp
f
GR
GS
[0.5035 0 0 0.5035 0 -0.46854] CT
0 0 1 RC
N
637.397 501 M
641.289 501 L
641.289 501 L
637.397 501 L
cp
f
GR
GS
[0.5035 0 0 0.5035 0 -0.46854] CT
0 0 1 RC
N
654.422 501 M
658.314 501 L
658.314 501 L
654.422 501 L
cp
f
GR
GS
[0.5035 0 0 0.5035 0 -0.46854] CT
0 0 1 RC
N
671.447 501 M
675.339 501 L
675.339 501 L
671.447 501 L
cp
f
GR
GS
[0.5035 0 0 0.5035 0 -0.46854] CT
0 0 1 RC
N
688.472 501 M
692.364 501 L
692.364 501 L
688.472 501 L
cp
f
GR
GS
[0.5035 0 0 0.5035 0 -0.46854] CT
0 0 1 RC
N
705.497 501 M
709.389 501 L
709.389 501 L
705.497 501 L
cp
f
GR
GS
[0.5035 0 0 0.5035 0 -0.46854] CT
0 0 1 RC
N
722.522 501 M
726.414 501 L
726.414 501 L
722.522 501 L
cp
f
GR
GS
[0.5035 0 0 0.5035 0 -0.46854] CT
0 0 1 RC
N
739.547 501 M
743.439 501 L
743.439 501 L
739.547 501 L
cp
f
GR
GS
[0.5035 0 0 0.5035 0 -0.46854] CT
0 0 1 RC
N
756.572 501 M
760.464 501 L
760.464 501 L
756.572 501 L
cp
f
GR
GS
[0.5035 0 0 0.5035 0 -0.46854] CT
10.0 ML
0.993 LW
N
126.647 501 M
126.647 501 L
130.539 501 L
130.539 501 L
cp
S
GR
GS
[0.5035 0 0 0.5035 0 -0.46854] CT
10.0 ML
0.993 LW
N
143.672 501 M
143.672 501 L
147.564 501 L
147.564 501 L
cp
S
GR
GS
[0.5035 0 0 0.5035 0 -0.46854] CT
10.0 ML
0.993 LW
N
160.697 501 M
160.697 501 L
164.589 501 L
164.589 501 L
cp
S
GR
GS
[0.5035 0 0 0.5035 0 -0.46854] CT
10.0 ML
0.993 LW
N
177.722 501 M
177.722 501 L
181.614 501 L
181.614 501 L
cp
S
GR
GS
[0.5035 0 0 0.5035 0 -0.46854] CT
10.0 ML
0.993 LW
N
194.747 501 M
194.747 501 L
198.639 501 L
198.639 501 L
cp
S
GR
GS
[0.5035 0 0 0.5035 0 -0.46854] CT
10.0 ML
0.993 LW
N
211.772 501 M
211.772 501 L
215.664 501 L
215.664 501 L
cp
S
GR
GS
[0.5035 0 0 0.5035 0 -0.46854] CT
10.0 ML
0.993 LW
N
228.797 501 M
228.797 501 L
232.689 501 L
232.689 501 L
cp
S
GR
GS
[0.5035 0 0 0.5035 0 -0.46854] CT
10.0 ML
0.993 LW
N
245.822 501 M
245.822 501 L
249.714 501 L
249.714 501 L
cp
S
GR
GS
[0.5035 0 0 0.5035 0 -0.46854] CT
10.0 ML
0.993 LW
N
262.847 501 M
262.847 501 L
266.739 501 L
266.739 501 L
cp
S
GR
GS
[0.5035 0 0 0.5035 0 -0.46854] CT
10.0 ML
0.993 LW
N
279.872 501 M
279.872 501 L
283.764 501 L
283.764 501 L
cp
S
GR
GS
[0.5035 0 0 0.5035 0 -0.46854] CT
10.0 ML
0.993 LW
N
296.897 501 M
296.897 501 L
300.789 501 L
300.789 501 L
cp
S
GR
GS
[0.5035 0 0 0.5035 0 -0.46854] CT
10.0 ML
0.993 LW
N
313.922 501 M
313.922 501 L
317.814 501 L
317.814 501 L
cp
S
GR
GS
[0.5035 0 0 0.5035 0 -0.46854] CT
10.0 ML
0.993 LW
N
330.947 501 M
330.947 501 L
334.839 501 L
334.839 501 L
cp
S
GR
GS
[0.5035 0 0 0.5035 0 -0.46854] CT
10.0 ML
0.993 LW
N
347.972 501 M
347.972 501 L
351.864 501 L
351.864 501 L
cp
S
GR
GS
[0.5035 0 0 0.5035 0 -0.46854] CT
10.0 ML
0.993 LW
N
364.997 501 M
364.997 501 L
368.889 501 L
368.889 501 L
cp
S
GR
GS
[0.5035 0 0 0.5035 0 -0.46854] CT
10.0 ML
0.993 LW
N
382.022 501 M
382.022 501 L
385.914 501 L
385.914 501 L
cp
S
GR
GS
[0.5035 0 0 0.5035 0 -0.46854] CT
10.0 ML
0.993 LW
N
399.047 501 M
399.047 501 L
402.939 501 L
402.939 501 L
cp
S
GR
GS
[0.5035 0 0 0.5035 0 -0.46854] CT
10.0 ML
0.993 LW
N
416.072 501 M
416.072 501 L
419.964 501 L
419.964 501 L
cp
S
GR
GS
[0.5035 0 0 0.5035 0 -0.46854] CT
10.0 ML
0.993 LW
N
433.097 501 M
433.097 501 L
436.989 501 L
436.989 501 L
cp
S
GR
GS
[0.5035 0 0 0.5035 0 -0.46854] CT
10.0 ML
0.993 LW
N
450.122 501 M
450.122 501 L
454.014 501 L
454.014 501 L
cp
S
GR
GS
[0.5035 0 0 0.5035 0 -0.46854] CT
10.0 ML
0.993 LW
N
467.147 501 M
467.147 501 L
471.039 501 L
471.039 501 L
cp
S
GR
GS
[0.5035 0 0 0.5035 0 -0.46854] CT
10.0 ML
0.993 LW
N
484.172 501 M
484.172 501 L
488.064 501 L
488.064 501 L
cp
S
GR
GS
[0.5035 0 0 0.5035 0 -0.46854] CT
10.0 ML
0.993 LW
N
501.197 501 M
501.197 501 L
505.089 501 L
505.089 501 L
cp
S
GR
GS
[0.5035 0 0 0.5035 0 -0.46854] CT
10.0 ML
0.993 LW
N
518.222 501 M
518.222 501 L
522.114 501 L
522.114 501 L
cp
S
GR
GS
[0.5035 0 0 0.5035 0 -0.46854] CT
10.0 ML
0.993 LW
N
535.247 501 M
535.247 501 L
539.139 501 L
539.139 501 L
cp
S
GR
GS
[0.5035 0 0 0.5035 0 -0.46854] CT
10.0 ML
0.993 LW
N
552.272 501 M
552.272 501 L
556.164 501 L
556.164 501 L
cp
S
GR
GS
[0.5035 0 0 0.5035 0 -0.46854] CT
10.0 ML
0.993 LW
N
569.297 501 M
569.297 501 L
573.189 501 L
573.189 501 L
cp
S
GR
GS
[0.5035 0 0 0.5035 0 -0.46854] CT
10.0 ML
0.993 LW
N
586.322 501 M
586.322 501 L
590.214 501 L
590.214 501 L
cp
S
GR
GS
[0.5035 0 0 0.5035 0 -0.46854] CT
10.0 ML
0.993 LW
N
603.347 501 M
603.347 501 L
607.239 501 L
607.239 501 L
cp
S
GR
GS
[0.5035 0 0 0.5035 0 -0.46854] CT
10.0 ML
0.993 LW
N
620.372 501 M
620.372 501 L
624.264 501 L
624.264 501 L
cp
S
GR
GS
[0.5035 0 0 0.5035 0 -0.46854] CT
10.0 ML
0.993 LW
N
637.397 501 M
637.397 501 L
641.289 501 L
641.289 501 L
cp
S
GR
GS
[0.5035 0 0 0.5035 0 -0.46854] CT
10.0 ML
0.993 LW
N
654.422 501 M
654.422 501 L
658.314 501 L
658.314 501 L
cp
S
GR
GS
[0.5035 0 0 0.5035 0 -0.46854] CT
10.0 ML
0.993 LW
N
671.447 501 M
671.447 501 L
675.339 501 L
675.339 501 L
cp
S
GR
GS
[0.5035 0 0 0.5035 0 -0.46854] CT
10.0 ML
0.993 LW
N
688.472 501 M
688.472 501 L
692.364 501 L
692.364 501 L
cp
S
GR
GS
[0.5035 0 0 0.5035 0 -0.46854] CT
10.0 ML
0.993 LW
N
705.497 501 M
705.497 501 L
709.389 501 L
709.389 501 L
cp
S
GR
GS
[0.5035 0 0 0.5035 0 -0.46854] CT
10.0 ML
0.993 LW
N
722.522 501 M
722.522 501 L
726.414 501 L
726.414 501 L
cp
S
GR
GS
[0.5035 0 0 0.5035 0 -0.46854] CT
10.0 ML
0.993 LW
N
739.547 501 M
739.547 501 L
743.439 501 L
743.439 501 L
cp
S
GR
GS
[0.5035 0 0 0.5035 0 -0.46854] CT
10.0 ML
0.993 LW
N
756.572 501 M
756.572 501 L
760.464 501 L
760.464 501 L
cp
S
GR
GS
[0.5035 0 0 0.5035 0 -0.46854] CT
0.745 0.396 0.004 RC
N
131.511 501 M
135.403 501 L
135.403 501 L
131.511 501 L
cp
f
GR
GS
[0.5035 0 0 0.5035 0 -0.46854] CT
0.745 0.396 0.004 RC
N
148.536 501 M
152.428 501 L
152.428 501 L
148.536 501 L
cp
f
GR
GS
[0.5035 0 0 0.5035 0 -0.46854] CT
0.745 0.396 0.004 RC
N
165.561 501 M
169.453 501 L
169.453 501 L
165.561 501 L
cp
f
GR
GS
[0.5035 0 0 0.5035 0 -0.46854] CT
0.745 0.396 0.004 RC
N
182.586 501 M
186.478 501 L
186.478 501 L
182.586 501 L
cp
f
GR
GS
[0.5035 0 0 0.5035 0 -0.46854] CT
0.745 0.396 0.004 RC
N
199.611 501 M
203.503 501 L
203.503 501 L
199.611 501 L
cp
f
GR
GS
[0.5035 0 0 0.5035 0 -0.46854] CT
0.745 0.396 0.004 RC
N
216.636 501 M
220.528 501 L
220.528 501 L
216.636 501 L
cp
f
GR
GS
[0.5035 0 0 0.5035 0 -0.46854] CT
0.745 0.396 0.004 RC
N
233.661 501 M
237.553 501 L
237.553 501 L
233.661 501 L
cp
f
GR
GS
[0.5035 0 0 0.5035 0 -0.46854] CT
0.745 0.396 0.004 RC
N
250.686 501 M
254.578 501 L
254.578 501 L
250.686 501 L
cp
f
GR
GS
[0.5035 0 0 0.5035 0 -0.46854] CT
0.745 0.396 0.004 RC
N
267.711 501 M
271.603 501 L
271.603 501 L
267.711 501 L
cp
f
GR
GS
[0.5035 0 0 0.5035 0 -0.46854] CT
0.745 0.396 0.004 RC
N
284.736 501 M
288.628 501 L
288.628 501 L
284.736 501 L
cp
f
GR
GS
[0.5035 0 0 0.5035 0 -0.46854] CT
0.745 0.396 0.004 RC
N
301.761 501 M
305.653 501 L
305.653 501 L
301.761 501 L
cp
f
GR
GS
[0.5035 0 0 0.5035 0 -0.46854] CT
0.745 0.396 0.004 RC
N
318.786 501 M
322.678 501 L
322.678 501 L
318.786 501 L
cp
f
GR
GS
[0.5035 0 0 0.5035 0 -0.46854] CT
0.745 0.396 0.004 RC
N
335.811 501 M
339.703 501 L
339.703 501 L
335.811 501 L
cp
f
GR
GS
[0.5035 0 0 0.5035 0 -0.46854] CT
0.745 0.396 0.004 RC
N
352.836 501 M
356.728 501 L
356.728 501 L
352.836 501 L
cp
f
GR
GS
[0.5035 0 0 0.5035 0 -0.46854] CT
0.745 0.396 0.004 RC
N
369.861 501 M
373.753 501 L
373.753 501 L
369.861 501 L
cp
f
GR
GS
[0.5035 0 0 0.5035 0 -0.46854] CT
0.745 0.396 0.004 RC
N
386.886 501 M
390.778 501 L
390.778 501 L
386.886 501 L
cp
f
GR
GS
[0.5035 0 0 0.5035 0 -0.46854] CT
0.745 0.396 0.004 RC
N
403.911 501 M
407.803 501 L
407.803 501 L
403.911 501 L
cp
f
GR
GS
[0.5035 0 0 0.5035 0 -0.46854] CT
0.745 0.396 0.004 RC
N
420.936 501 M
424.828 501 L
424.828 501 L
420.936 501 L
cp
f
GR
GS
[0.5035 0 0 0.5035 0 -0.46854] CT
0.745 0.396 0.004 RC
N
437.961 501 M
441.853 501 L
441.853 501 L
437.961 501 L
cp
f
GR
GS
[0.5035 0 0 0.5035 0 -0.46854] CT
0.745 0.396 0.004 RC
N
454.986 501 M
458.878 501 L
458.878 501 L
454.986 501 L
cp
f
GR
GS
[0.5035 0 0 0.5035 0 -0.46854] CT
0.745 0.396 0.004 RC
N
472.011 501 M
475.903 501 L
475.903 501 L
472.011 501 L
cp
f
GR
GS
[0.5035 0 0 0.5035 0 -0.46854] CT
0.745 0.396 0.004 RC
N
489.036 501 M
492.928 501 L
492.928 501 L
489.036 501 L
cp
f
GR
GS
[0.5035 0 0 0.5035 0 -0.46854] CT
0.745 0.396 0.004 RC
N
506.061 501 M
509.953 501 L
509.953 501 L
506.061 501 L
cp
f
GR
GS
[0.5035 0 0 0.5035 0 -0.46854] CT
0.745 0.396 0.004 RC
N
523.086 501 M
526.978 501 L
526.978 501 L
523.086 501 L
cp
f
GR
GS
[0.5035 0 0 0.5035 0 -0.46854] CT
0.745 0.396 0.004 RC
N
540.111 501 M
544.003 501 L
544.003 501 L
540.111 501 L
cp
f
GR
GS
[0.5035 0 0 0.5035 0 -0.46854] CT
0.745 0.396 0.004 RC
N
557.136 501 M
561.028 501 L
561.028 501 L
557.136 501 L
cp
f
GR
GS
[0.5035 0 0 0.5035 0 -0.46854] CT
0.745 0.396 0.004 RC
N
574.161 501 M
578.053 501 L
578.053 501 L
574.161 501 L
cp
f
GR
GS
[0.5035 0 0 0.5035 0 -0.46854] CT
0.745 0.396 0.004 RC
N
591.186 501 M
595.078 501 L
595.078 501 L
591.186 501 L
cp
f
GR
GS
[0.5035 0 0 0.5035 0 -0.46854] CT
0.745 0.396 0.004 RC
N
608.211 501 M
612.103 501 L
612.103 501 L
608.211 501 L
cp
f
GR
GS
[0.5035 0 0 0.5035 0 -0.46854] CT
0.745 0.396 0.004 RC
N
625.236 501 M
629.128 501 L
629.128 501 L
625.236 501 L
cp
f
GR
GS
[0.5035 0 0 0.5035 0 -0.46854] CT
0.745 0.396 0.004 RC
N
642.261 501 M
646.153 501 L
646.153 501 L
642.261 501 L
cp
f
GR
GS
[0.5035 0 0 0.5035 0 -0.46854] CT
0.745 0.396 0.004 RC
N
659.286 501 M
663.178 501 L
663.178 501 L
659.286 501 L
cp
f
GR
GS
[0.5035 0 0 0.5035 0 -0.46854] CT
0.745 0.396 0.004 RC
N
676.311 501 M
680.203 501 L
680.203 501 L
676.311 501 L
cp
f
GR
GS
[0.5035 0 0 0.5035 0 -0.46854] CT
0.745 0.396 0.004 RC
N
693.336 501 M
697.228 501 L
697.228 501 L
693.336 501 L
cp
f
GR
GS
[0.5035 0 0 0.5035 0 -0.46854] CT
0.745 0.396 0.004 RC
N
710.361 501 M
714.253 501 L
714.253 501 L
710.361 501 L
cp
f
GR
GS
[0.5035 0 0 0.5035 0 -0.46854] CT
0.745 0.396 0.004 RC
N
727.386 501 M
731.278 501 L
731.278 501 L
727.386 501 L
cp
f
GR
GS
[0.5035 0 0 0.5035 0 -0.46854] CT
0.745 0.396 0.004 RC
N
744.411 501 M
748.303 501 L
748.303 501 L
744.411 501 L
cp
f
GR
GS
[0.5035 0 0 0.5035 0 -0.46854] CT
0.745 0.396 0.004 RC
N
761.436 501 M
765.328 501 L
765.328 501 L
761.436 501 L
cp
f
GR
GS
[0.5035 0 0 0.5035 0 -0.46854] CT
10.0 ML
0.993 LW
N
131.511 501 M
131.511 501 L
135.403 501 L
135.403 501 L
cp
S
GR
GS
[0.5035 0 0 0.5035 0 -0.46854] CT
10.0 ML
0.993 LW
N
148.536 501 M
148.536 501 L
152.428 501 L
152.428 501 L
cp
S
GR
GS
[0.5035 0 0 0.5035 0 -0.46854] CT
10.0 ML
0.993 LW
N
165.561 501 M
165.561 501 L
169.453 501 L
169.453 501 L
cp
S
GR
GS
[0.5035 0 0 0.5035 0 -0.46854] CT
10.0 ML
0.993 LW
N
182.586 501 M
182.586 501 L
186.478 501 L
186.478 501 L
cp
S
GR
GS
[0.5035 0 0 0.5035 0 -0.46854] CT
10.0 ML
0.993 LW
N
199.611 501 M
199.611 501 L
203.503 501 L
203.503 501 L
cp
S
GR
GS
[0.5035 0 0 0.5035 0 -0.46854] CT
10.0 ML
0.993 LW
N
216.636 501 M
216.636 501 L
220.528 501 L
220.528 501 L
cp
S
GR
GS
[0.5035 0 0 0.5035 0 -0.46854] CT
10.0 ML
0.993 LW
N
233.661 501 M
233.661 501 L
237.553 501 L
237.553 501 L
cp
S
GR
GS
[0.5035 0 0 0.5035 0 -0.46854] CT
10.0 ML
0.993 LW
N
250.686 501 M
250.686 501 L
254.578 501 L
254.578 501 L
cp
S
GR
GS
[0.5035 0 0 0.5035 0 -0.46854] CT
10.0 ML
0.993 LW
N
267.711 501 M
267.711 501 L
271.603 501 L
271.603 501 L
cp
S
GR
GS
[0.5035 0 0 0.5035 0 -0.46854] CT
10.0 ML
0.993 LW
N
284.736 501 M
284.736 501 L
288.628 501 L
288.628 501 L
cp
S
GR
GS
[0.5035 0 0 0.5035 0 -0.46854] CT
10.0 ML
0.993 LW
N
301.761 501 M
301.761 501 L
305.653 501 L
305.653 501 L
cp
S
GR
GS
[0.5035 0 0 0.5035 0 -0.46854] CT
10.0 ML
0.993 LW
N
318.786 501 M
318.786 501 L
322.678 501 L
322.678 501 L
cp
S
GR
GS
[0.5035 0 0 0.5035 0 -0.46854] CT
10.0 ML
0.993 LW
N
335.811 501 M
335.811 501 L
339.703 501 L
339.703 501 L
cp
S
GR
GS
[0.5035 0 0 0.5035 0 -0.46854] CT
10.0 ML
0.993 LW
N
352.836 501 M
352.836 501 L
356.728 501 L
356.728 501 L
cp
S
GR
GS
[0.5035 0 0 0.5035 0 -0.46854] CT
10.0 ML
0.993 LW
N
369.861 501 M
369.861 501 L
373.753 501 L
373.753 501 L
cp
S
GR
GS
[0.5035 0 0 0.5035 0 -0.46854] CT
10.0 ML
0.993 LW
N
386.886 501 M
386.886 501 L
390.778 501 L
390.778 501 L
cp
S
GR
GS
[0.5035 0 0 0.5035 0 -0.46854] CT
10.0 ML
0.993 LW
N
403.911 501 M
403.911 501 L
407.803 501 L
407.803 501 L
cp
S
GR
GS
[0.5035 0 0 0.5035 0 -0.46854] CT
10.0 ML
0.993 LW
N
420.936 501 M
420.936 501 L
424.828 501 L
424.828 501 L
cp
S
GR
GS
[0.5035 0 0 0.5035 0 -0.46854] CT
10.0 ML
0.993 LW
N
437.961 501 M
437.961 501 L
441.853 501 L
441.853 501 L
cp
S
GR
GS
[0.5035 0 0 0.5035 0 -0.46854] CT
10.0 ML
0.993 LW
N
454.986 501 M
454.986 501 L
458.878 501 L
458.878 501 L
cp
S
GR
GS
[0.5035 0 0 0.5035 0 -0.46854] CT
10.0 ML
0.993 LW
N
472.011 501 M
472.011 501 L
475.903 501 L
475.903 501 L
cp
S
GR
GS
[0.5035 0 0 0.5035 0 -0.46854] CT
10.0 ML
0.993 LW
N
489.036 501 M
489.036 501 L
492.928 501 L
492.928 501 L
cp
S
GR
GS
[0.5035 0 0 0.5035 0 -0.46854] CT
10.0 ML
0.993 LW
N
506.061 501 M
506.061 501 L
509.953 501 L
509.953 501 L
cp
S
GR
GS
[0.5035 0 0 0.5035 0 -0.46854] CT
10.0 ML
0.993 LW
N
523.086 501 M
523.086 501 L
526.978 501 L
526.978 501 L
cp
S
GR
GS
[0.5035 0 0 0.5035 0 -0.46854] CT
10.0 ML
0.993 LW
N
540.111 501 M
540.111 501 L
544.003 501 L
544.003 501 L
cp
S
GR
GS
[0.5035 0 0 0.5035 0 -0.46854] CT
10.0 ML
0.993 LW
N
557.136 501 M
557.136 501 L
561.028 501 L
561.028 501 L
cp
S
GR
GS
[0.5035 0 0 0.5035 0 -0.46854] CT
10.0 ML
0.993 LW
N
574.161 501 M
574.161 501 L
578.053 501 L
578.053 501 L
cp
S
GR
GS
[0.5035 0 0 0.5035 0 -0.46854] CT
10.0 ML
0.993 LW
N
591.186 501 M
591.186 501 L
595.078 501 L
595.078 501 L
cp
S
GR
GS
[0.5035 0 0 0.5035 0 -0.46854] CT
10.0 ML
0.993 LW
N
608.211 501 M
608.211 501 L
612.103 501 L
612.103 501 L
cp
S
GR
GS
[0.5035 0 0 0.5035 0 -0.46854] CT
10.0 ML
0.993 LW
N
625.236 501 M
625.236 501 L
629.128 501 L
629.128 501 L
cp
S
GR
GS
[0.5035 0 0 0.5035 0 -0.46854] CT
10.0 ML
0.993 LW
N
642.261 501 M
642.261 501 L
646.153 501 L
646.153 501 L
cp
S
GR
GS
[0.5035 0 0 0.5035 0 -0.46854] CT
10.0 ML
0.993 LW
N
659.286 501 M
659.286 501 L
663.178 501 L
663.178 501 L
cp
S
GR
GS
[0.5035 0 0 0.5035 0 -0.46854] CT
10.0 ML
0.993 LW
N
676.311 501 M
676.311 501 L
680.203 501 L
680.203 501 L
cp
S
GR
GS
[0.5035 0 0 0.5035 0 -0.46854] CT
10.0 ML
0.993 LW
N
693.336 501 M
693.336 501 L
697.228 501 L
697.228 501 L
cp
S
GR
GS
[0.5035 0 0 0.5035 0 -0.46854] CT
10.0 ML
0.993 LW
N
710.361 501 M
710.361 501 L
714.253 501 L
714.253 501 L
cp
S
GR
GS
[0.5035 0 0 0.5035 0 -0.46854] CT
10.0 ML
0.993 LW
N
727.386 501 M
727.386 501 L
731.278 501 L
731.278 501 L
cp
S
GR
GS
[0.5035 0 0 0.5035 0 -0.46854] CT
10.0 ML
0.993 LW
N
744.411 501 M
744.411 501 L
748.303 501 L
748.303 501 L
cp
S
GR
GS
[0.5035 0 0 0.5035 0 -0.46854] CT
10.0 ML
0.993 LW
N
761.436 501 M
761.436 501 L
765.328 501 L
765.328 501 L
cp
S
GR
GS
[0.5035 0 0 0.5035 0 -0.46854] CT
1 GC
N
381 142 M
381 71 L
702 71 L
702 142 L
cp
f
GR
GS
[0.5035 0 0 0.5035 210.46154 41.82517] CT
/Helvetica 17.875 F
GS
[1 0 0 1 0 0] CT
0 6 moveto 
1 -1 scale
(Left camera) t 
GR
GR
GS
[0.5035 0 0 0.5035 0 -0.46854] CT
0 0.702 1 RC
N
385 92.55 M
385 75.45 L
415 75.45 L
415 92.55 L
cp
f
GR
GS
[0.5035 0 0 0.5035 0 -0.46854] CT
10.0 ML
0.993 LW
N
385 92.55 M
385 75.45 L
415 75.45 L
415 92.55 L
cp
S
GR
GS
[0.5035 0 0 0.5035 210.46154 53.15384] CT
/Helvetica 17.875 F
GS
[1 0 0 1 0 0] CT
0 6 moveto 
1 -1 scale
(Right camera) t 
GR
GR
GS
[0.5035 0 0 0.5035 0 -0.46854] CT
0.949 0.773 0.58 RC
N
385 115.05 M
385 97.95 L
415 97.95 L
415 115.05 L
cp
f
GR
GS
[0.5035 0 0 0.5035 0 -0.46854] CT
10.0 ML
0.993 LW
N
385 115.05 M
385 97.95 L
415 97.95 L
415 115.05 L
cp
S
GR
GS
[0.5035 0 0 0.5035 210.46154 64.48251] CT
/Helvetica 17.875 F
GS
[1 0 0 1 0 0] CT
0 6 moveto 
1 -1 scale
(Overall Mean Error: 0.14 pixels) t 
GR
GR
GS
[0.5035 0 0 0.5035 0 -0.46854] CT
0 0.447 0.741 RC
[10 6] 0 setdash
2 LJ
0.993 LW
N
385 129 M
415 129 L
S
GR
GS
[0.5035 0 0 0.5035 0 -0.46854] CT
0.149 GC
10.0 ML
0.993 LW
N
381 142 M
381 71 L
702 71 L
702 142 L
cp
S
GR
%%Trailer
%%Pages: 1
%%EOF
