%!PS-Adobe-3.0 EPSF-3.0
%%DocumentNeededResources: font Helvetica
%%+ font Helvetica-Bold
%%+ font Helvetica-Oblique
%%+ font Helvetica-BoldOblique
%%+ font Symbol
%%Title: R Graphics Output
%%Creator: R Software
%%Pages: (atend)
%%BoundingBox: 0 0 432 216
%%EndComments
%%BeginProlog
/bp  { gs sRGB gs } def
% begin .ps.prolog
/gs  { gsave } bind def
/gr  { grestore } bind def
/ep  { showpage gr gr } bind def
/m   { moveto } bind def
/l  { rlineto } bind def
/np  { newpath } bind def
/cp  { closepath } bind def
/f   { fill } bind def
/o   { stroke } bind def
/c   { newpath 0 360 arc } bind def
/r   { 4 2 roll moveto 1 copy 3 -1 roll exch 0 exch rlineto 0 rlineto -1 mul 0 exch rlineto closepath } bind def
/p1  { stroke } bind def
/p2  { gsave bg fill grestore newpath } bind def
/p3  { gsave bg fill grestore stroke } bind def
/p6  { gsave bg eofill grestore newpath } bind def
/p7  { gsave bg eofill grestore stroke } bind def
/t   { 5 -2 roll moveto gsave rotate
       1 index stringwidth pop
       mul neg 0 rmoveto show grestore } bind def
/ta  { 4 -2 roll moveto gsave rotate show } bind def
/tb  { 2 -1 roll 0 rmoveto show } bind def
/cl  { grestore gsave newpath 3 index 3 index moveto 1 index
       4 -1 roll lineto  exch 1 index lineto lineto
       closepath clip newpath } bind def
/rgb { setrgbcolor } bind def
/s   { scalefont setfont } bind def
% end   .ps.prolog
/sRGB { [ /CIEBasedABC
          << /DecodeLMN
               [ { dup 0.03928 le
                        {12.92321 div}
                        {0.055 add 1.055 div 2.4 exp }
                     ifelse
                 } bind dup dup
               ]
             /MatrixLMN [0.412457 0.212673 0.019334
                         0.357576 0.715152 0.119192
                         0.180437 0.072175 0.950301]
             /WhitePoint [0.9505 1.0 1.0890]
           >>
         ] setcolorspace } bind def
/srgb { setcolor } bind def
%%IncludeResource: font Helvetica
/Helvetica findfont
dup length dict begin
  {1 index /FID ne {def} {pop pop} ifelse} forall
  /Encoding ISOLatin1Encoding def
  currentdict
  end
/Font1 exch definefont pop
%%IncludeResource: font Helvetica-Bold
/Helvetica-Bold findfont
dup length dict begin
  {1 index /FID ne {def} {pop pop} ifelse} forall
  /Encoding ISOLatin1Encoding def
  currentdict
  end
/Font2 exch definefont pop
%%IncludeResource: font Helvetica-Oblique
/Helvetica-Oblique findfont
dup length dict begin
  {1 index /FID ne {def} {pop pop} ifelse} forall
  /Encoding ISOLatin1Encoding def
  currentdict
  end
/Font3 exch definefont pop
%%IncludeResource: font Helvetica-BoldOblique
/Helvetica-BoldOblique findfont
dup length dict begin
  {1 index /FID ne {def} {pop pop} ifelse} forall
  /Encoding ISOLatin1Encoding def
  currentdict
  end
/Font4 exch definefont pop
%%IncludeResource: font Symbol
/Symbol findfont
dup length dict begin
  {1 index /FID ne {def} {pop pop} ifelse} forall
  currentdict
  end
/Font5 exch definefont pop
%%EndProlog
%%Page: 1 1
bp
28.80 64.80 403.20 208.80 cl
0 0 0 srgb
2.25 setlinewidth
[] 0 setdash
0 setlinecap
1 setlinejoin
10.00 setmiterlimit
np
66.12 83.47 m
0 106.66 l
o
0.75 setlinewidth
[ 2.25 3.75] 0 setdash
1 setlinecap
np
42.67 136.80 m
12.63 0 l
o
np
82.38 136.80 m
-14.26 0 l
o
0.75 setlinewidth
[] 0 setdash
np
42.67 110.13 m
0 53.34 l
o
np
82.38 110.13 m
0 53.34 l
o
np
55.30 83.47 m
0 106.66 l
12.82 0 l
0 -106.66 l
-12.82 0 l
o
96.10 136.80 2.70 c p1
91.64 136.80 2.70 c p1
389.33 136.80 2.70 c p1
384.47 136.80 2.70 c p1
384.74 136.80 2.70 c p1
256.90 136.80 2.70 c p1
0.00 0.00 432.00 216.00 cl
0 0 0 srgb
0.75 setlinewidth
[] 0 setdash
1 setlinecap
1 setlinejoin
10.00 setmiterlimit
np
34.38 64.80 m
349.35 0 l
o
np
34.38 64.80 m
0 -7.20 l
o
np
92.61 64.80 m
0 -7.20 l
o
np
150.83 64.80 m
0 -7.20 l
o
np
209.06 64.80 m
0 -7.20 l
o
np
267.28 64.80 m
0 -7.20 l
o
np
325.51 64.80 m
0 -7.20 l
o
np
383.73 64.80 m
0 -7.20 l
o
/Font1 findfont 12 s
34.38 38.88 (0.01) .5 0 t
92.61 38.88 (0.02) .5 0 t
150.83 38.88 (0.03) .5 0 t
209.06 38.88 (0.04) .5 0 t
267.28 38.88 (0.05) .5 0 t
325.51 38.88 (0.06) .5 0 t
383.73 38.88 (0.07) .5 0 t
0.00 0.00 432.00 216.00 cl
/Font1 findfont 12 s
0 0 0 srgb
216.00 10.08 (Time [s]) .5 0 t
0.00 0.00 432.00 216.00 cl
0 0 0 srgb
0.75 setlinewidth
[] 0 setdash
1 setlinecap
1 setlinejoin
10.00 setmiterlimit
np
28.80 64.80 m
374.40 0 l
0 144.00 l
-374.40 0 l
0 -144.00 l
o
ep
%%Trailer
%%Pages: 1
%%EOF
