%!PS-Adobe-3.0 EPSF-3.0
%%DocumentNeededResources: font Helvetica
%%+ font Helvetica-Bold
%%+ font Helvetica-Oblique
%%+ font Helvetica-BoldOblique
%%+ font Symbol
%%Title: R Graphics Output
%%Creator: R Software
%%Pages: (atend)
%%BoundingBox: 0 0 432 288
%%EndComments
%%BeginProlog
/bp  { gs sRGB gs } def
% begin .ps.prolog
/gs  { gsave } bind def
/gr  { grestore } bind def
/ep  { showpage gr gr } bind def
/m   { moveto } bind def
/l  { rlineto } bind def
/np  { newpath } bind def
/cp  { closepath } bind def
/f   { fill } bind def
/o   { stroke } bind def
/c   { newpath 0 360 arc } bind def
/r   { 4 2 roll moveto 1 copy 3 -1 roll exch 0 exch rlineto 0 rlineto -1 mul 0 exch rlineto closepath } bind def
/p1  { stroke } bind def
/p2  { gsave bg fill grestore newpath } bind def
/p3  { gsave bg fill grestore stroke } bind def
/p6  { gsave bg eofill grestore newpath } bind def
/p7  { gsave bg eofill grestore stroke } bind def
/t   { 5 -2 roll moveto gsave rotate
       1 index stringwidth pop
       mul neg 0 rmoveto show grestore } bind def
/ta  { 4 -2 roll moveto gsave rotate show } bind def
/tb  { 2 -1 roll 0 rmoveto show } bind def
/cl  { grestore gsave newpath 3 index 3 index moveto 1 index
       4 -1 roll lineto  exch 1 index lineto lineto
       closepath clip newpath } bind def
/rgb { setrgbcolor } bind def
/s   { scalefont setfont } bind def
% end   .ps.prolog
/sRGB { [ /CIEBasedABC
          << /DecodeLMN
               [ { dup 0.03928 le
                        {12.92321 div}
                        {0.055 add 1.055 div 2.4 exp }
                     ifelse
                 } bind dup dup
               ]
             /MatrixLMN [0.412457 0.212673 0.019334
                         0.357576 0.715152 0.119192
                         0.180437 0.072175 0.950301]
             /WhitePoint [0.9505 1.0 1.0890]
           >>
         ] setcolorspace } bind def
/srgb { setcolor } bind def
%%IncludeResource: font Helvetica
/Helvetica findfont
dup length dict begin
  {1 index /FID ne {def} {pop pop} ifelse} forall
  /Encoding ISOLatin1Encoding def
  currentdict
  end
/Font1 exch definefont pop
%%IncludeResource: font Helvetica-Bold
/Helvetica-Bold findfont
dup length dict begin
  {1 index /FID ne {def} {pop pop} ifelse} forall
  /Encoding ISOLatin1Encoding def
  currentdict
  end
/Font2 exch definefont pop
%%IncludeResource: font Helvetica-Oblique
/Helvetica-Oblique findfont
dup length dict begin
  {1 index /FID ne {def} {pop pop} ifelse} forall
  /Encoding ISOLatin1Encoding def
  currentdict
  end
/Font3 exch definefont pop
%%IncludeResource: font Helvetica-BoldOblique
/Helvetica-BoldOblique findfont
dup length dict begin
  {1 index /FID ne {def} {pop pop} ifelse} forall
  /Encoding ISOLatin1Encoding def
  currentdict
  end
/Font4 exch definefont pop
%%IncludeResource: font Symbol
/Symbol findfont
dup length dict begin
  {1 index /FID ne {def} {pop pop} ifelse} forall
  currentdict
  end
/Font5 exch definefont pop
%%EndProlog
%%Page: 1 1
bp
57.60 57.60 374.40 280.80 cl
0 0 0 srgb
0.75 setlinewidth
[] 0 setdash
1 setlinecap
1 setlinejoin
10.00 setmiterlimit
np
61.93 288.00 m
6.85 -88.63 l
o
np
72.05 185.52 m
23.90 -58.58 l
o
np
103.36 114.81 m
19.94 -23.18 l
o
np
135.15 87.05 m
15.04 1.86 l
o
np
164.33 88.07 m
15.34 -3.77 l
o
np
193.87 82.67 m
14.93 0.18 l
o
np
223.20 82.72 m
14.94 -0.46 l
o
np
252.52 81.59 m
14.96 -0.94 l
o
np
281.74 81.55 m
15.19 2.89 l
o
np
311.06 84.35 m
15.22 -3.10 l
o
np
340.53 80.08 m
14.94 0.54 l
o
69.33 192.19 2.70 c p1
98.67 120.27 2.70 c p1
128.00 86.17 2.70 c p1
157.33 89.79 2.70 c p1
186.67 82.58 2.70 c p1
216.00 82.94 2.70 c p1
245.33 82.04 2.70 c p1
274.67 80.20 2.70 c p1
304.00 85.78 2.70 c p1
333.33 79.82 2.70 c p1
362.67 80.88 2.70 c p1
0.00 0.00 432.00 288.00 cl
0.00 0.00 432.00 288.00 cl
0 0 0 srgb
0.75 setlinewidth
[] 0 setdash
1 setlinecap
1 setlinejoin
10.00 setmiterlimit
np
57.60 65.87 m
0 206.66 l
o
np
57.60 65.87 m
-7.20 0 l
o
np
57.60 117.53 m
-7.20 0 l
o
np
57.60 169.20 m
-7.20 0 l
o
np
57.60 220.87 m
-7.20 0 l
o
np
57.60 272.53 m
-7.20 0 l
o
/Font1 findfont 12 s
43.20 61.56 (0) 1 0 t
43.20 113.23 (100) 1 0 t
43.20 164.89 (200) 1 0 t
43.20 216.56 (300) 1 0 t
43.20 268.23 (400) 1 0 t
57.60 57.60 374.40 280.80 cl
0 0 0 srgb
0.75 setlinewidth
[] 0 setdash
1 setlinecap
1 setlinejoin
10.00 setmiterlimit
np
40.00 83.89 m
0 204.11 l
o
np
37.84 83.89 m
2.16 0 l
2.16 0 l
o
np
69.33 116.52 m
0 151.34 l
o
np
67.17 116.52 m
2.16 0 l
2.16 0 l
o
np
71.49 267.86 m
-2.16 0 l
-2.16 0 l
o
np
98.67 71.71 m
0 97.12 l
o
np
96.51 71.71 m
2.16 0 l
2.16 0 l
o
np
100.83 168.83 m
-2.16 0 l
-2.16 0 l
o
np
128.00 67.04 m
0 38.26 l
o
np
125.84 67.04 m
2.16 0 l
2.16 0 l
o
np
130.16 105.30 m
-2.16 0 l
-2.16 0 l
o
np
157.33 71.27 m
0 37.04 l
o
np
155.17 71.27 m
2.16 0 l
2.16 0 l
o
np
159.49 108.31 m
-2.16 0 l
-2.16 0 l
o
np
186.67 66.93 m
0 31.30 l
o
np
184.51 66.93 m
2.16 0 l
2.16 0 l
o
np
188.83 98.23 m
-2.16 0 l
-2.16 0 l
o
np
216.00 69.86 m
0 26.16 l
o
np
213.84 69.86 m
2.16 0 l
2.16 0 l
o
np
218.16 96.02 m
-2.16 0 l
-2.16 0 l
o
np
245.33 67.40 m
0 29.28 l
o
np
243.17 67.40 m
2.16 0 l
2.16 0 l
o
np
247.49 96.68 m
-2.16 0 l
-2.16 0 l
o
np
274.67 69.30 m
0 21.81 l
o
np
272.51 69.30 m
2.16 0 l
2.16 0 l
o
np
276.83 91.11 m
-2.16 0 l
-2.16 0 l
o
np
304.00 65.27 m
0 41.03 l
o
np
301.84 65.27 m
2.16 0 l
2.16 0 l
o
np
306.16 106.30 m
-2.16 0 l
-2.16 0 l
o
np
333.33 68.38 m
0 22.87 l
o
np
331.17 68.38 m
2.16 0 l
2.16 0 l
o
np
335.49 91.25 m
-2.16 0 l
-2.16 0 l
o
np
362.67 69.12 m
0 23.51 l
o
np
360.51 69.12 m
2.16 0 l
2.16 0 l
o
np
364.83 92.63 m
-2.16 0 l
-2.16 0 l
o
0.00 0.00 432.00 288.00 cl
/Font1 findfont 12 s
0 0 0 srgb
11.52 155.87 (T) 90 ta
-1.440 (r) tb
0.180 (ies) tb gr
57.60 57.60 374.40 280.80 cl
0.8275 0.8275 0.8275 srgb
0.75 setlinewidth
[ 0.00 3.00] 0 setdash
1 setlinecap
1 setlinejoin
10.00 setmiterlimit
np
69.33 57.60 m
0 223.20 l
o
np
128.00 57.60 m
0 223.20 l
o
np
186.67 57.60 m
0 223.20 l
o
np
245.33 57.60 m
0 223.20 l
o
np
304.00 57.60 m
0 223.20 l
o
np
362.67 57.60 m
0 223.20 l
o
np
57.60 65.87 m
316.80 0 l
o
np
57.60 117.53 m
316.80 0 l
o
np
57.60 169.20 m
316.80 0 l
o
np
57.60 220.87 m
316.80 0 l
o
np
57.60 272.53 m
316.80 0 l
o
57.60 57.60 374.40 280.80 cl
1 0 0 srgb
0.75 setlinewidth
[] 0 setdash
1 setlinecap
1 setlinejoin
10.00 setmiterlimit
np
60.68 288.00 m
8.04 -94.68 l
o
np
72.27 179.57 m
23.46 -52.43 l
o
np
103.64 115.36 m
19.38 -20.26 l
o
np
135.13 90.86 m
15.07 2.04 l
o
np
164.35 92.24 m
15.30 -3.54 l
o
np
193.87 87.15 m
14.93 0.15 l
o
np
223.20 87.19 m
14.94 -0.39 l
o
np
252.53 86.62 m
14.94 0.02 l
o
np
281.67 88.33 m
15.33 3.71 l
o
np
311.09 92.48 m
15.15 -2.67 l
o
np
340.52 88.12 m
14.96 -0.91 l
o
69.33 186.14 2.70 c p1
98.67 120.56 2.70 c p1
128.00 89.90 2.70 c p1
157.33 93.87 2.70 c p1
186.67 87.07 2.70 c p1
216.00 87.37 2.70 c p1
245.33 86.61 2.70 c p1
274.67 86.64 2.70 c p1
304.00 93.72 2.70 c p1
333.33 88.56 2.70 c p1
362.67 86.77 2.70 c p1
0.00 0.00 432.00 288.00 cl
0.00 0.00 432.00 288.00 cl
/Font1 findfont 12 s
1 0 0 srgb
429.12 169.20 (Time [s]) .5 90 t
0.75 setlinewidth
[] 0 setdash
1 setlinecap
1 setlinejoin
10.00 setmiterlimit
np
374.40 65.87 m
0 206.66 l
o
np
374.40 65.87 m
7.20 0 l
o
np
374.40 117.53 m
7.20 0 l
o
np
374.40 169.20 m
7.20 0 l
o
np
374.40 220.87 m
7.20 0 l
o
np
374.40 272.53 m
7.20 0 l
o
388.80 61.56 (0.000) 0 0 t
388.80 113.23 (0.025) 0 0 t
388.80 164.89 (0.050) 0 0 t
388.80 216.56 (0.075) 0 0 t
388.80 268.23 (0.100) 0 0 t
57.60 57.60 374.40 280.80 cl
1 0 0 srgb
0.75 setlinewidth
[] 0 setdash
1 setlinecap
1 setlinejoin
10.00 setmiterlimit
np
40.00 34.36 m
0 253.64 l
o
np
37.84 34.36 m
2.16 0 l
2.16 0 l
o
np
69.33 109.25 m
0 153.79 l
o
np
67.17 109.25 m
2.16 0 l
2.16 0 l
o
np
71.49 263.04 m
-2.16 0 l
-2.16 0 l
o
np
98.67 80.65 m
0 79.83 l
o
np
96.51 80.65 m
2.16 0 l
2.16 0 l
o
np
100.83 160.48 m
-2.16 0 l
-2.16 0 l
o
np
128.00 74.53 m
0 30.73 l
o
np
125.84 74.53 m
2.16 0 l
2.16 0 l
o
np
130.16 105.26 m
-2.16 0 l
-2.16 0 l
o
np
157.33 76.32 m
0 35.10 l
o
np
155.17 76.32 m
2.16 0 l
2.16 0 l
o
np
159.49 111.42 m
-2.16 0 l
-2.16 0 l
o
np
186.67 74.59 m
0 24.97 l
o
np
184.51 74.59 m
2.16 0 l
2.16 0 l
o
np
188.83 99.56 m
-2.16 0 l
-2.16 0 l
o
np
216.00 75.64 m
0 23.47 l
o
np
213.84 75.64 m
2.16 0 l
2.16 0 l
o
np
218.16 99.11 m
-2.16 0 l
-2.16 0 l
o
np
245.33 74.99 m
0 23.24 l
o
np
243.17 74.99 m
2.16 0 l
2.16 0 l
o
np
247.49 98.23 m
-2.16 0 l
-2.16 0 l
o
np
274.67 73.96 m
0 25.37 l
o
np
272.51 73.96 m
2.16 0 l
2.16 0 l
o
np
276.83 99.33 m
-2.16 0 l
-2.16 0 l
o
np
304.00 74.61 m
0 38.23 l
o
np
301.84 74.61 m
2.16 0 l
2.16 0 l
o
np
306.16 112.84 m
-2.16 0 l
-2.16 0 l
o
np
333.33 71.28 m
0 34.56 l
o
np
331.17 71.28 m
2.16 0 l
2.16 0 l
o
np
335.49 105.84 m
-2.16 0 l
-2.16 0 l
o
np
362.67 76.87 m
0 19.81 l
o
np
360.51 76.87 m
2.16 0 l
2.16 0 l
o
np
364.83 96.68 m
-2.16 0 l
-2.16 0 l
o
0.00 0.00 432.00 288.00 cl
0 0 0 srgb
0.75 setlinewidth
[] 0 setdash
1 setlinecap
1 setlinejoin
10.00 setmiterlimit
np
57.60 57.60 m
305.07 0 l
o
np
69.33 57.60 m
0 -7.20 l
o
np
128.00 57.60 m
0 -7.20 l
o
np
186.67 57.60 m
0 -7.20 l
o
np
245.33 57.60 m
0 -7.20 l
o
np
304.00 57.60 m
0 -7.20 l
o
np
362.67 57.60 m
0 -7.20 l
o
/Font1 findfont 12 s
69.33 31.68 (15) .5 0 t
128.00 31.68 (20) .5 0 t
186.67 31.68 (25) .5 0 t
245.33 31.68 (30) .5 0 t
304.00 31.68 (35) .5 0 t
362.67 31.68 (40) .5 0 t
216.00 10.08 (Angle [deg]) .5 0 t
ep
%%Trailer
%%Pages: 1
%%EOF
