%!PS-Adobe-3.0 EPSF-3.0
%%DocumentNeededResources: font Helvetica
%%+ font Helvetica-Bold
%%+ font Helvetica-Oblique
%%+ font Helvetica-BoldOblique
%%+ font Symbol
%%Title: R Graphics Output
%%Creator: R Software
%%Pages: (atend)
%%BoundingBox: 0 0 360 288
%%EndComments
%%BeginProlog
/bp  { gs sRGB gs } def
% begin .ps.prolog
/gs  { gsave } bind def
/gr  { grestore } bind def
/ep  { showpage gr gr } bind def
/m   { moveto } bind def
/l  { rlineto } bind def
/np  { newpath } bind def
/cp  { closepath } bind def
/f   { fill } bind def
/o   { stroke } bind def
/c   { newpath 0 360 arc } bind def
/r   { 4 2 roll moveto 1 copy 3 -1 roll exch 0 exch rlineto 0 rlineto -1 mul 0 exch rlineto closepath } bind def
/p1  { stroke } bind def
/p2  { gsave bg fill grestore newpath } bind def
/p3  { gsave bg fill grestore stroke } bind def
/p6  { gsave bg eofill grestore newpath } bind def
/p7  { gsave bg eofill grestore stroke } bind def
/t   { 5 -2 roll moveto gsave rotate
       1 index stringwidth pop
       mul neg 0 rmoveto show grestore } bind def
/ta  { 4 -2 roll moveto gsave rotate show } bind def
/tb  { 2 -1 roll 0 rmoveto show } bind def
/cl  { grestore gsave newpath 3 index 3 index moveto 1 index
       4 -1 roll lineto  exch 1 index lineto lineto
       closepath clip newpath } bind def
/rgb { setrgbcolor } bind def
/s   { scalefont setfont } bind def
% end   .ps.prolog
/sRGB { [ /CIEBasedABC
          << /DecodeLMN
               [ { dup 0.03928 le
                        {12.92321 div}
                        {0.055 add 1.055 div 2.4 exp }
                     ifelse
                 } bind dup dup
               ]
             /MatrixLMN [0.412457 0.212673 0.019334
                         0.357576 0.715152 0.119192
                         0.180437 0.072175 0.950301]
             /WhitePoint [0.9505 1.0 1.0890]
           >>
         ] setcolorspace } bind def
/srgb { setcolor } bind def
%%IncludeResource: font Helvetica
/Helvetica findfont
dup length dict begin
  {1 index /FID ne {def} {pop pop} ifelse} forall
  /Encoding ISOLatin1Encoding def
  currentdict
  end
/Font1 exch definefont pop
%%IncludeResource: font Helvetica-Bold
/Helvetica-Bold findfont
dup length dict begin
  {1 index /FID ne {def} {pop pop} ifelse} forall
  /Encoding ISOLatin1Encoding def
  currentdict
  end
/Font2 exch definefont pop
%%IncludeResource: font Helvetica-Oblique
/Helvetica-Oblique findfont
dup length dict begin
  {1 index /FID ne {def} {pop pop} ifelse} forall
  /Encoding ISOLatin1Encoding def
  currentdict
  end
/Font3 exch definefont pop
%%IncludeResource: font Helvetica-BoldOblique
/Helvetica-BoldOblique findfont
dup length dict begin
  {1 index /FID ne {def} {pop pop} ifelse} forall
  /Encoding ISOLatin1Encoding def
  currentdict
  end
/Font4 exch definefont pop
%%IncludeResource: font Symbol
/Symbol findfont
dup length dict begin
  {1 index /FID ne {def} {pop pop} ifelse} forall
  currentdict
  end
/Font5 exch definefont pop
%%EndProlog
%%Page: 1 1
bp
57.60 57.60 302.40 280.80 cl
0 0 1 srgb
0.75 setlinewidth
[] 0 setdash
1 setlinecap
1 setlinejoin
10.00 setmiterlimit
66.67 65.87 2.70 c p1
74.76 70.40 2.70 c p1
82.86 74.92 2.70 c p1
90.95 80.06 2.70 c p1
99.05 86.52 2.70 c p1
107.14 100.46 2.70 c p1
115.24 98.56 2.70 c p1
123.33 107.48 2.70 c p1
131.43 111.32 2.70 c p1
139.52 117.30 2.70 c p1
147.62 122.34 2.70 c p1
155.71 124.24 2.70 c p1
163.81 134.66 2.70 c p1
171.90 142.00 2.70 c p1
180.00 139.90 2.70 c p1
188.10 149.16 2.70 c p1
196.19 164.22 2.70 c p1
204.29 164.11 2.70 c p1
212.38 182.60 2.70 c p1
220.48 218.31 2.70 c p1
228.57 192.94 2.70 c p1
236.67 196.86 2.70 c p1
244.76 196.93 2.70 c p1
252.86 219.65 2.70 c p1
260.95 236.45 2.70 c p1
269.05 259.08 2.70 c p1
277.14 263.54 2.70 c p1
285.24 271.03 2.70 c p1
293.33 256.21 2.70 c p1
0.00 0.00 360.00 288.00 cl
0 0 0 srgb
0.75 setlinewidth
[] 0 setdash
1 setlinecap
1 setlinejoin
10.00 setmiterlimit
np
82.86 57.60 m
194.28 0 l
o
np
82.86 57.60 m
0 -7.20 l
o
np
115.24 57.60 m
0 -7.20 l
o
np
147.62 57.60 m
0 -7.20 l
o
np
180.00 57.60 m
0 -7.20 l
o
np
212.38 57.60 m
0 -7.20 l
o
np
244.76 57.60 m
0 -7.20 l
o
np
277.14 57.60 m
0 -7.20 l
o
/Font1 findfont 12 s
82.86 31.68 (2000) .5 0 t
147.62 31.68 (6000) .5 0 t
212.38 31.68 (10000) .5 0 t
277.14 31.68 (14000) .5 0 t
np
57.60 61.97 m
0 202.56 l
o
np
57.60 61.97 m
-7.20 0 l
o
np
57.60 90.91 m
-7.20 0 l
o
np
57.60 119.85 m
-7.20 0 l
o
np
57.60 148.78 m
-7.20 0 l
o
np
57.60 177.72 m
-7.20 0 l
o
np
57.60 206.66 m
-7.20 0 l
o
np
57.60 235.59 m
-7.20 0 l
o
np
57.60 264.53 m
-7.20 0 l
o
40.32 61.97 (0.18) .5 90 t
40.32 119.85 (0.22) .5 90 t
40.32 177.72 (0.26) .5 90 t
40.32 235.59 (0.30) .5 90 t
np
57.60 57.60 m
244.80 0 l
0 223.20 l
-244.80 0 l
0 -223.20 l
o
0.00 0.00 360.00 288.00 cl
/Font1 findfont 12 s
0 0 0 srgb
140.31 2.88 (nodes in gr) 0 ta
-0.120 (aph) tb gr
11.52 169.20 (Time [s]) .5 90 t
57.60 57.60 302.40 280.80 cl
1 0 0 srgb
0.75 setlinewidth
[] 0 setdash
1 setlinecap
1 setlinejoin
10.00 setmiterlimit
np
66.67 64.45 m
0 2.83 l
o
np
64.51 64.45 m
2.16 0 l
2.16 0 l
o
np
68.83 67.28 m
-2.16 0 l
-2.16 0 l
o
np
74.76 68.35 m
0 4.11 l
o
np
72.60 68.35 m
2.16 0 l
2.16 0 l
o
np
76.92 72.46 m
-2.16 0 l
-2.16 0 l
o
np
82.86 74.59 m
0 0.66 l
o
np
80.70 74.59 m
2.16 0 l
2.16 0 l
o
np
85.02 75.25 m
-2.16 0 l
-2.16 0 l
o
np
90.95 79.31 m
0 1.51 l
o
np
88.79 79.31 m
2.16 0 l
2.16 0 l
o
np
93.11 80.82 m
-2.16 0 l
-2.16 0 l
o
np
99.05 85.58 m
0 1.88 l
o
np
96.89 85.58 m
2.16 0 l
2.16 0 l
o
np
101.21 87.46 m
-2.16 0 l
-2.16 0 l
o
np
107.14 98.81 m
0 3.30 l
o
np
104.98 98.81 m
2.16 0 l
2.16 0 l
o
np
109.30 102.11 m
-2.16 0 l
-2.16 0 l
o
np
115.24 98.12 m
0 0.89 l
o
np
113.08 98.12 m
2.16 0 l
2.16 0 l
o
np
117.40 99.01 m
-2.16 0 l
-2.16 0 l
o
np
123.33 106.10 m
0 2.75 l
o
np
121.17 106.10 m
2.16 0 l
2.16 0 l
o
np
125.49 108.85 m
-2.16 0 l
-2.16 0 l
o
np
131.43 110.51 m
0 1.63 l
o
np
129.27 110.51 m
2.16 0 l
2.16 0 l
o
np
133.59 112.14 m
-2.16 0 l
-2.16 0 l
o
np
139.52 116.47 m
0 1.67 l
o
np
137.36 116.47 m
2.16 0 l
2.16 0 l
o
np
141.68 118.14 m
-2.16 0 l
-2.16 0 l
o
np
147.62 121.60 m
0 1.47 l
o
np
145.46 121.60 m
2.16 0 l
2.16 0 l
o
np
149.78 123.07 m
-2.16 0 l
-2.16 0 l
o
np
155.71 123.00 m
0 2.49 l
o
np
153.55 123.00 m
2.16 0 l
2.16 0 l
o
np
157.87 125.49 m
-2.16 0 l
-2.16 0 l
o
np
163.81 132.51 m
0 4.29 l
o
np
161.65 132.51 m
2.16 0 l
2.16 0 l
o
np
165.97 136.80 m
-2.16 0 l
-2.16 0 l
o
np
171.90 139.83 m
0 4.35 l
o
np
169.74 139.83 m
2.16 0 l
2.16 0 l
o
np
174.06 144.18 m
-2.16 0 l
-2.16 0 l
o
np
180.00 138.91 m
0 1.98 l
o
np
177.84 138.91 m
2.16 0 l
2.16 0 l
o
np
182.16 140.89 m
-2.16 0 l
-2.16 0 l
o
np
188.10 146.67 m
0 4.99 l
o
np
185.94 146.67 m
2.16 0 l
2.16 0 l
o
np
190.26 151.66 m
-2.16 0 l
-2.16 0 l
o
np
196.19 160.60 m
0 7.25 l
o
np
194.03 160.60 m
2.16 0 l
2.16 0 l
o
np
198.35 167.85 m
-2.16 0 l
-2.16 0 l
o
np
204.29 163.53 m
0 1.15 l
o
np
202.13 163.53 m
2.16 0 l
2.16 0 l
o
np
206.45 164.68 m
-2.16 0 l
-2.16 0 l
o
np
212.38 180.21 m
0 4.78 l
o
np
210.22 180.21 m
2.16 0 l
2.16 0 l
o
np
214.54 184.99 m
-2.16 0 l
-2.16 0 l
o
np
220.48 213.12 m
0 10.37 l
o
np
218.32 213.12 m
2.16 0 l
2.16 0 l
o
np
222.64 223.49 m
-2.16 0 l
-2.16 0 l
o
np
228.57 187.74 m
0 10.40 l
o
np
226.41 187.74 m
2.16 0 l
2.16 0 l
o
np
230.73 198.14 m
-2.16 0 l
-2.16 0 l
o
np
236.67 193.37 m
0 6.97 l
o
np
234.51 193.37 m
2.16 0 l
2.16 0 l
o
np
238.83 200.34 m
-2.16 0 l
-2.16 0 l
o
np
244.76 195.29 m
0 3.29 l
o
np
242.60 195.29 m
2.16 0 l
2.16 0 l
o
np
246.92 198.58 m
-2.16 0 l
-2.16 0 l
o
np
252.86 214.83 m
0 9.64 l
o
np
250.70 214.83 m
2.16 0 l
2.16 0 l
o
np
255.02 224.47 m
-2.16 0 l
-2.16 0 l
o
np
260.95 232.82 m
0 7.26 l
o
np
258.79 232.82 m
2.16 0 l
2.16 0 l
o
np
263.11 240.08 m
-2.16 0 l
-2.16 0 l
o
np
269.05 252.45 m
0 13.27 l
o
np
266.89 252.45 m
2.16 0 l
2.16 0 l
o
np
271.21 265.72 m
-2.16 0 l
-2.16 0 l
o
np
277.14 261.55 m
0 3.98 l
o
np
274.98 261.55 m
2.16 0 l
2.16 0 l
o
np
279.30 265.53 m
-2.16 0 l
-2.16 0 l
o
np
285.24 269.53 m
0 3.00 l
o
np
283.08 269.53 m
2.16 0 l
2.16 0 l
o
np
287.40 272.53 m
-2.16 0 l
-2.16 0 l
o
np
293.33 254.91 m
0 2.60 l
o
np
291.17 254.91 m
2.16 0 l
2.16 0 l
o
np
295.49 257.51 m
-2.16 0 l
-2.16 0 l
o
ep
%%Trailer
%%Pages: 1
%%EOF
