%!PS-Adobe-3.0 EPSF-3.0
%%DocumentNeededResources: font Helvetica
%%+ font Helvetica-Bold
%%+ font Helvetica-Oblique
%%+ font Helvetica-BoldOblique
%%+ font Symbol
%%Title: R Graphics Output
%%Creator: R Software
%%Pages: (atend)
%%BoundingBox: 0 0 576 288
%%EndComments
%%BeginProlog
/bp  { gs sRGB gs } def
% begin .ps.prolog
/gs  { gsave } bind def
/gr  { grestore } bind def
/ep  { showpage gr gr } bind def
/m   { moveto } bind def
/l  { rlineto } bind def
/np  { newpath } bind def
/cp  { closepath } bind def
/f   { fill } bind def
/o   { stroke } bind def
/c   { newpath 0 360 arc } bind def
/r   { 4 2 roll moveto 1 copy 3 -1 roll exch 0 exch rlineto 0 rlineto -1 mul 0 exch rlineto closepath } bind def
/p1  { stroke } bind def
/p2  { gsave bg fill grestore newpath } bind def
/p3  { gsave bg fill grestore stroke } bind def
/p6  { gsave bg eofill grestore newpath } bind def
/p7  { gsave bg eofill grestore stroke } bind def
/t   { 5 -2 roll moveto gsave rotate
       1 index stringwidth pop
       mul neg 0 rmoveto show grestore } bind def
/ta  { 4 -2 roll moveto gsave rotate show } bind def
/tb  { 2 -1 roll 0 rmoveto show } bind def
/cl  { grestore gsave newpath 3 index 3 index moveto 1 index
       4 -1 roll lineto  exch 1 index lineto lineto
       closepath clip newpath } bind def
/rgb { setrgbcolor } bind def
/s   { scalefont setfont } bind def
% end   .ps.prolog
/sRGB { [ /CIEBasedABC
          << /DecodeLMN
               [ { dup 0.03928 le
                        {12.92321 div}
                        {0.055 add 1.055 div 2.4 exp }
                     ifelse
                 } bind dup dup
               ]
             /MatrixLMN [0.412457 0.212673 0.019334
                         0.357576 0.715152 0.119192
                         0.180437 0.072175 0.950301]
             /WhitePoint [0.9505 1.0 1.0890]
           >>
         ] setcolorspace } bind def
/srgb { setcolor } bind def
%%IncludeResource: font Helvetica
/Helvetica findfont
dup length dict begin
  {1 index /FID ne {def} {pop pop} ifelse} forall
  /Encoding ISOLatin1Encoding def
  currentdict
  end
/Font1 exch definefont pop
%%IncludeResource: font Helvetica-Bold
/Helvetica-Bold findfont
dup length dict begin
  {1 index /FID ne {def} {pop pop} ifelse} forall
  /Encoding ISOLatin1Encoding def
  currentdict
  end
/Font2 exch definefont pop
%%IncludeResource: font Helvetica-Oblique
/Helvetica-Oblique findfont
dup length dict begin
  {1 index /FID ne {def} {pop pop} ifelse} forall
  /Encoding ISOLatin1Encoding def
  currentdict
  end
/Font3 exch definefont pop
%%IncludeResource: font Helvetica-BoldOblique
/Helvetica-BoldOblique findfont
dup length dict begin
  {1 index /FID ne {def} {pop pop} ifelse} forall
  /Encoding ISOLatin1Encoding def
  currentdict
  end
/Font4 exch definefont pop
%%IncludeResource: font Symbol
/Symbol findfont
dup length dict begin
  {1 index /FID ne {def} {pop pop} ifelse} forall
  currentdict
  end
/Font5 exch definefont pop
%%EndProlog
%%Page: 1 1
bp
59.04 73.44 545.76 228.96 cl
1 0 0 srgb
0.75 setlinewidth
[] 0 setdash
1 setlinecap
1 setlinejoin
10.00 setmiterlimit
np
77.07 223.20 m
5.00 -97.63 l
5.01 70.57 l
5.01 -58.98 l
5.01 -18.72 l
5.00 -7.01 l
5.01 11.50 l
5.01 -9.53 l
5.01 5.92 l
5.00 -16.53 l
5.01 25.43 l
5.01 -8.92 l
5.01 -4.39 l
5.00 12.33 l
5.01 -28.45 l
5.01 8.72 l
5.01 9.90 l
5.00 4.54 l
5.01 -2.40 l
5.01 35.36 l
5.00 -51.59 l
5.01 41.83 l
5.01 -31.26 l
5.01 81.11 l
5.00 -60.03 l
5.01 -16.14 l
5.01 44.43 l
5.01 -46.35 l
5.00 -21.51 l
5.01 21.91 l
5.01 -7.23 l
5.01 4.91 l
5.00 -14.06 l
5.01 -4.80 l
5.01 24.13 l
5.01 -12.72 l
5.00 11.97 l
5.01 3.42 l
5.01 -16.04 l
5.01 -14.73 l
5.00 86.75 l
5.01 -99.71 l
5.01 28.02 l
5.01 -7.82 l
5.00 32.65 l
5.01 -3.82 l
5.01 -40.23 l
5.00 14.57 l
5.01 33.47 l
5.01 -25.49 l
5.01 -16.22 l
5.00 24.18 l
5.01 -17.84 l
5.01 0.56 l
5.01 -0.79 l
5.00 1.43 l
5.01 -9.60 l
5.01 13.29 l
5.01 28.59 l
5.00 -7.22 l
5.01 -37.44 l
5.01 4.34 l
5.01 72.62 l
5.00 -58.08 l
5.01 -14.56 l
5.01 6.93 l
5.01 -5.54 l
5.00 21.33 l
5.01 27.18 l
5.01 -24.40 l
5.01 -28.64 l
5.00 26.68 l
5.01 -19.81 l
5.01 21.85 l
5.00 -26.53 l
5.01 32.85 l
5.01 -38.49 l
5.01 6.54 l
5.00 -10.55 l
5.01 35.02 l
5.01 -25.49 l
5.01 11.89 l
5.00 -0.39 l
5.01 -3.25 l
5.01 13.48 l
5.01 -17.76 l
5.00 -5.66 l
5.01 4.00 l
5.01 15.31 l
5.01 -4.88 l
5.00 -21.53 l
o
0.00 0.00 576.00 288.00 cl
0 0 0 srgb
0.75 setlinewidth
[] 0 setdash
1 setlinecap
1 setlinejoin
10.00 setmiterlimit
np
127.14 73.44 m
400.59 0 l
o
np
127.14 73.44 m
0 -7.20 l
o
np
227.29 73.44 m
0 -7.20 l
o
np
327.44 73.44 m
0 -7.20 l
o
np
427.59 73.44 m
0 -7.20 l
o
np
527.73 73.44 m
0 -7.20 l
o
/Font1 findfont 12 s
127.14 47.52 (2000) .5 0 t
227.29 47.52 (4000) .5 0 t
327.44 47.52 (6000) .5 0 t
427.59 47.52 (8000) .5 0 t
527.73 47.52 (10000) .5 0 t
np
59.04 89.02 m
0 133.10 l
o
np
59.04 89.02 m
-7.20 0 l
o
np
59.04 111.20 m
-7.20 0 l
o
np
59.04 133.39 m
-7.20 0 l
o
np
59.04 155.57 m
-7.20 0 l
o
np
59.04 177.75 m
-7.20 0 l
o
np
59.04 199.94 m
-7.20 0 l
o
np
59.04 222.12 m
-7.20 0 l
o
41.76 89.02 (0.1) .5 90 t
41.76 133.39 (0.3) .5 90 t
41.76 177.75 (0.5) .5 90 t
41.76 222.12 (0.7) .5 90 t
np
59.04 73.44 m
486.72 0 l
0 155.52 l
-486.72 0 l
0 -155.52 l
o
0.00 0.00 576.00 288.00 cl
/Font1 findfont 12 s
0 0 0 srgb
260.38 18.72 (Nodes in Gr) 0 ta
-0.120 (aph) tb gr
12.96 151.20 (Time [s]) .5 90 t
59.04 73.44 545.76 228.96 cl
0 0 1 srgb
0.75 setlinewidth
[] 0 setdash
1 setlinecap
1 setlinejoin
10.00 setmiterlimit
np
77.07 204.56 m
5.00 -79.27 l
5.01 55.54 l
5.01 -46.42 l
5.01 -16.30 l
5.00 -7.09 l
5.01 14.53 l
5.01 -12.55 l
5.01 3.93 l
5.00 -14.56 l
5.01 25.44 l
5.01 -8.56 l
5.01 -4.79 l
5.00 12.41 l
5.01 -28.18 l
5.01 8.32 l
5.01 10.12 l
5.00 4.45 l
5.01 -2.61 l
5.01 40.65 l
5.00 -56.80 l
5.01 40.24 l
5.01 -29.80 l
5.01 84.03 l
5.00 -62.72 l
5.01 -12.22 l
5.01 47.29 l
5.01 -53.39 l
5.00 -19.14 l
5.01 19.64 l
5.01 -7.52 l
5.01 3.12 l
5.00 -11.94 l
5.01 -4.76 l
5.01 24.12 l
5.01 -13.62 l
5.00 12.82 l
5.01 1.11 l
5.01 -13.97 l
5.01 -14.30 l
5.00 92.63 l
5.01 -105.58 l
5.01 27.65 l
5.01 -7.26 l
5.00 32.86 l
5.01 -3.00 l
5.01 -41.71 l
5.00 12.03 l
5.01 35.86 l
5.01 -25.40 l
5.01 -5.60 l
5.00 15.90 l
5.01 -20.12 l
5.01 1.00 l
5.01 -1.03 l
5.00 1.23 l
5.01 -7.13 l
5.01 10.88 l
5.01 31.34 l
5.00 -9.81 l
5.01 -37.69 l
5.01 3.92 l
5.01 72.96 l
5.00 -57.89 l
5.01 -12.92 l
5.01 5.28 l
5.01 -5.64 l
5.00 19.84 l
5.01 28.73 l
5.01 -20.86 l
5.01 -32.47 l
5.00 26.94 l
5.01 -20.15 l
5.01 25.06 l
5.00 -28.84 l
5.01 10.25 l
5.01 -15.45 l
5.01 4.88 l
5.00 -10.00 l
5.01 20.89 l
5.01 -11.29 l
5.01 12.78 l
5.00 19.47 l
5.01 -24.05 l
5.01 13.38 l
5.01 -15.85 l
5.00 -7.67 l
5.01 4.29 l
5.01 -1.38 l
5.01 13.91 l
5.00 -24.48 l
o
0 0 0 srgb
432.48 228.96 113.28 -34.56 r p1
/bg { 1 0 0 srgb } def
441.12 217.44 2.16 c p2
/bg { 0 0 1 srgb } def
np
 438.96 203.76 m
4.32 0 l
0 4.32 l
-4.32 0 l
cp p2
/Font1 findfont 10 s
449.76 213.85 (No Collision Check) 0 0 t
449.76 202.33 (With Collision Check) 0 0 t
ep
%%Trailer
%%Pages: 1
%%EOF
