%!PS-Adobe-3.0 EPSF-3.0
%%DocumentNeededResources: font Helvetica
%%+ font Helvetica-Bold
%%+ font Helvetica-Oblique
%%+ font Helvetica-BoldOblique
%%+ font Symbol
%%Title: R Graphics Output
%%Creator: R Software
%%Pages: (atend)
%%BoundingBox: 0 0 360 288
%%EndComments
%%BeginProlog
/bp  { gs sRGB gs } def
% begin .ps.prolog
/gs  { gsave } bind def
/gr  { grestore } bind def
/ep  { showpage gr gr } bind def
/m   { moveto } bind def
/l  { rlineto } bind def
/np  { newpath } bind def
/cp  { closepath } bind def
/f   { fill } bind def
/o   { stroke } bind def
/c   { newpath 0 360 arc } bind def
/r   { 4 2 roll moveto 1 copy 3 -1 roll exch 0 exch rlineto 0 rlineto -1 mul 0 exch rlineto closepath } bind def
/p1  { stroke } bind def
/p2  { gsave bg fill grestore newpath } bind def
/p3  { gsave bg fill grestore stroke } bind def
/p6  { gsave bg eofill grestore newpath } bind def
/p7  { gsave bg eofill grestore stroke } bind def
/t   { 5 -2 roll moveto gsave rotate
       1 index stringwidth pop
       mul neg 0 rmoveto show grestore } bind def
/ta  { 4 -2 roll moveto gsave rotate show } bind def
/tb  { 2 -1 roll 0 rmoveto show } bind def
/cl  { grestore gsave newpath 3 index 3 index moveto 1 index
       4 -1 roll lineto  exch 1 index lineto lineto
       closepath clip newpath } bind def
/rgb { setrgbcolor } bind def
/s   { scalefont setfont } bind def
% end   .ps.prolog
/sRGB { [ /CIEBasedABC
          << /DecodeLMN
               [ { dup 0.03928 le
                        {12.92321 div}
                        {0.055 add 1.055 div 2.4 exp }
                     ifelse
                 } bind dup dup
               ]
             /MatrixLMN [0.412457 0.212673 0.019334
                         0.357576 0.715152 0.119192
                         0.180437 0.072175 0.950301]
             /WhitePoint [0.9505 1.0 1.0890]
           >>
         ] setcolorspace } bind def
/srgb { setcolor } bind def
%%IncludeResource: font Helvetica
/Helvetica findfont
dup length dict begin
  {1 index /FID ne {def} {pop pop} ifelse} forall
  /Encoding ISOLatin1Encoding def
  currentdict
  end
/Font1 exch definefont pop
%%IncludeResource: font Helvetica-Bold
/Helvetica-Bold findfont
dup length dict begin
  {1 index /FID ne {def} {pop pop} ifelse} forall
  /Encoding ISOLatin1Encoding def
  currentdict
  end
/Font2 exch definefont pop
%%IncludeResource: font Helvetica-Oblique
/Helvetica-Oblique findfont
dup length dict begin
  {1 index /FID ne {def} {pop pop} ifelse} forall
  /Encoding ISOLatin1Encoding def
  currentdict
  end
/Font3 exch definefont pop
%%IncludeResource: font Helvetica-BoldOblique
/Helvetica-BoldOblique findfont
dup length dict begin
  {1 index /FID ne {def} {pop pop} ifelse} forall
  /Encoding ISOLatin1Encoding def
  currentdict
  end
/Font4 exch definefont pop
%%IncludeResource: font Symbol
/Symbol findfont
dup length dict begin
  {1 index /FID ne {def} {pop pop} ifelse} forall
  currentdict
  end
/Font5 exch definefont pop
%%EndProlog
%%Page: 1 1
bp
57.60 57.60 302.40 280.80 cl
0 0 0.4980 srgb
0.75 setlinewidth
[] 0 setdash
1 setlinecap
1 setlinejoin
10.00 setmiterlimit
66.67 165.53 0.27 c p1
0 0 0.9412 srgb
66.67 175.08 0.27 c p1
0 0.3843 1 srgb
66.67 176.56 0.27 c p1
0 0.8314 1 srgb
66.67 162.90 0.27 c p1
0.2745 1 0.7176 srgb
66.67 134.34 0.27 c p1
0.7176 1 0.2745 srgb
66.67 139.72 0.27 c p1
1 0.8314 0 srgb
66.67 118.54 0.27 c p1
1 0.3843 0 srgb
66.67 149.10 0.27 c p1
0.9412 0 0 srgb
66.67 127.88 0.27 c p1
0.4980 0 0 srgb
66.67 133.53 0.27 c p1
0 0 0.4980 srgb
68.29 186.87 0.27 c p1
0 0 0.9412 srgb
68.29 200.16 0.27 c p1
0 0.3843 1 srgb
68.29 272.53 0.27 c p1
0 0.8314 1 srgb
68.29 200.51 0.27 c p1
0.2745 1 0.7176 srgb
68.29 139.87 0.27 c p1
0.7176 1 0.2745 srgb
68.29 210.75 0.27 c p1
1 0.8314 0 srgb
68.29 136.44 0.27 c p1
1 0.3843 0 srgb
68.29 235.83 0.27 c p1
0.9412 0 0 srgb
68.29 172.48 0.27 c p1
0.4980 0 0 srgb
68.29 237.57 0.27 c p1
0 0 0.4980 srgb
69.90 181.06 0.27 c p1
0 0 0.9412 srgb
69.90 199.36 0.27 c p1
0 0.3843 1 srgb
69.90 260.68 0.27 c p1
0 0.8314 1 srgb
69.90 201.60 0.27 c p1
0.2745 1 0.7176 srgb
69.90 124.41 0.27 c p1
0.7176 1 0.2745 srgb
69.90 195.12 0.27 c p1
1 0.8314 0 srgb
69.90 134.06 0.27 c p1
1 0.3843 0 srgb
69.90 214.25 0.27 c p1
0.9412 0 0 srgb
69.90 164.31 0.27 c p1
0.4980 0 0 srgb
69.90 229.68 0.27 c p1
0 0 0.4980 srgb
71.52 106.12 0.27 c p1
0 0 0.9412 srgb
71.52 159.26 0.27 c p1
0 0.3843 1 srgb
71.52 133.17 0.27 c p1
0 0.8314 1 srgb
71.52 139.49 0.27 c p1
0.2745 1 0.7176 srgb
71.52 132.51 0.27 c p1
0.7176 1 0.2745 srgb
71.52 100.66 0.27 c p1
1 0.8314 0 srgb
71.52 112.54 0.27 c p1
1 0.3843 0 srgb
71.52 165.25 0.27 c p1
0.9412 0 0 srgb
71.52 188.50 0.27 c p1
0.4980 0 0 srgb
71.52 150.97 0.27 c p1
0 0 0.4980 srgb
73.14 200.13 0.27 c p1
0 0 0.9412 srgb
73.14 198.75 0.27 c p1
0 0.3843 1 srgb
73.14 238.01 0.27 c p1
0 0.8314 1 srgb
73.14 176.57 0.27 c p1
0.2745 1 0.7176 srgb
73.14 160.44 0.27 c p1
0.7176 1 0.2745 srgb
73.14 197.91 0.27 c p1
1 0.8314 0 srgb
73.14 134.51 0.27 c p1
1 0.3843 0 srgb
73.14 207.93 0.27 c p1
0.9412 0 0 srgb
73.14 155.88 0.27 c p1
0.4980 0 0 srgb
73.14 187.75 0.27 c p1
0 0 0.4980 srgb
74.76 136.75 0.27 c p1
0 0 0.9412 srgb
74.76 125.39 0.27 c p1
0 0.3843 1 srgb
74.76 143.97 0.27 c p1
0 0.8314 1 srgb
74.76 132.77 0.27 c p1
0.2745 1 0.7176 srgb
74.76 108.13 0.27 c p1
0.7176 1 0.2745 srgb
74.76 124.66 0.27 c p1
1 0.8314 0 srgb
74.76 113.52 0.27 c p1
1 0.3843 0 srgb
74.76 124.75 0.27 c p1
0.9412 0 0 srgb
74.76 122.86 0.27 c p1
0.4980 0 0 srgb
74.76 133.66 0.27 c p1
0 0 0.4980 srgb
76.38 136.75 0.27 c p1
0 0 0.9412 srgb
76.38 146.59 0.27 c p1
0 0.3843 1 srgb
76.38 183.68 0.27 c p1
0 0.8314 1 srgb
76.38 143.07 0.27 c p1
0.2745 1 0.7176 srgb
76.38 113.63 0.27 c p1
0.7176 1 0.2745 srgb
76.38 148.57 0.27 c p1
1 0.8314 0 srgb
76.38 106.51 0.27 c p1
1 0.3843 0 srgb
76.38 170.31 0.27 c p1
0.9412 0 0 srgb
76.38 139.03 0.27 c p1
0.4980 0 0 srgb
76.38 168.70 0.27 c p1
0 0 0.4980 srgb
78.00 76.86 0.27 c p1
0 0 0.9412 srgb
78.00 134.30 0.27 c p1
0 0.3843 1 srgb
78.00 87.92 0.27 c p1
0 0.8314 1 srgb
78.00 104.01 0.27 c p1
0.2745 1 0.7176 srgb
78.00 125.25 0.27 c p1
0.7176 1 0.2745 srgb
78.00 73.16 0.27 c p1
1 0.8314 0 srgb
78.00 94.93 0.27 c p1
1 0.3843 0 srgb
78.00 142.38 0.27 c p1
0.9412 0 0 srgb
78.00 175.27 0.27 c p1
0.4980 0 0 srgb
78.00 117.72 0.27 c p1
0 0 0.4980 srgb
79.62 159.34 0.27 c p1
0 0 0.9412 srgb
79.62 146.83 0.27 c p1
0 0.3843 1 srgb
79.62 179.01 0.27 c p1
0 0.8314 1 srgb
79.62 138.36 0.27 c p1
0.2745 1 0.7176 srgb
79.62 131.60 0.27 c p1
0.7176 1 0.2745 srgb
79.62 162.00 0.27 c p1
1 0.8314 0 srgb
79.62 118.12 0.27 c p1
1 0.3843 0 srgb
79.62 160.77 0.27 c p1
0.9412 0 0 srgb
79.62 127.80 0.27 c p1
0.4980 0 0 srgb
79.62 152.73 0.27 c p1
0 0 0.4980 srgb
81.24 114.99 0.27 c p1
0 0 0.9412 srgb
81.24 122.30 0.27 c p1
0 0.3843 1 srgb
81.24 115.77 0.27 c p1
0 0.8314 1 srgb
81.24 117.38 0.27 c p1
0.2745 1 0.7176 srgb
81.24 123.72 0.27 c p1
0.7176 1 0.2745 srgb
81.24 111.38 0.27 c p1
1 0.8314 0 srgb
81.24 118.78 0.27 c p1
1 0.3843 0 srgb
81.24 129.97 0.27 c p1
0.9412 0 0 srgb
81.24 148.45 0.27 c p1
0.4980 0 0 srgb
81.24 130.99 0.27 c p1
0 0 0.4980 srgb
82.86 140.30 0.27 c p1
0 0 0.9412 srgb
82.86 133.04 0.27 c p1
0 0.3843 1 srgb
82.86 140.15 0.27 c p1
0 0.8314 1 srgb
82.86 141.80 0.27 c p1
0.2745 1 0.7176 srgb
82.86 95.04 0.27 c p1
0.7176 1 0.2745 srgb
82.86 103.09 0.27 c p1
1 0.8314 0 srgb
82.86 105.82 0.27 c p1
1 0.3843 0 srgb
82.86 92.64 0.27 c p1
0.9412 0 0 srgb
82.86 108.31 0.27 c p1
0.4980 0 0 srgb
82.86 116.40 0.27 c p1
0 0 0.4980 srgb
84.48 122.14 0.27 c p1
0 0 0.9412 srgb
84.48 117.96 0.27 c p1
0 0.3843 1 srgb
84.48 145.02 0.27 c p1
0 0.8314 1 srgb
84.48 116.29 0.27 c p1
0.2745 1 0.7176 srgb
84.48 109.51 0.27 c p1
0.7176 1 0.2745 srgb
84.48 134.54 0.27 c p1
1 0.8314 0 srgb
84.48 110.18 0.27 c p1
1 0.3843 0 srgb
84.48 143.42 0.27 c p1
0.9412 0 0 srgb
84.48 126.25 0.27 c p1
0.4980 0 0 srgb
84.48 141.89 0.27 c p1
0 0 0.4980 srgb
86.10 151.65 0.27 c p1
0 0 0.9412 srgb
86.10 159.82 0.27 c p1
0 0.3843 1 srgb
86.10 158.12 0.27 c p1
0 0.8314 1 srgb
86.10 150.71 0.27 c p1
0.2745 1 0.7176 srgb
86.10 149.12 0.27 c p1
0.7176 1 0.2745 srgb
86.10 151.03 0.27 c p1
1 0.8314 0 srgb
86.10 141.75 0.27 c p1
1 0.3843 0 srgb
86.10 159.89 0.27 c p1
0.9412 0 0 srgb
86.10 161.92 0.27 c p1
0.4980 0 0 srgb
86.10 164.83 0.27 c p1
0 0 0.4980 srgb
87.71 159.94 0.27 c p1
0 0 0.9412 srgb
87.71 161.83 0.27 c p1
0 0.3843 1 srgb
87.71 173.21 0.27 c p1
0 0.8314 1 srgb
87.71 153.93 0.27 c p1
0.2745 1 0.7176 srgb
87.71 103.22 0.27 c p1
0.7176 1 0.2745 srgb
87.71 108.61 0.27 c p1
1 0.8314 0 srgb
87.71 95.22 0.27 c p1
1 0.3843 0 srgb
87.71 122.36 0.27 c p1
0.9412 0 0 srgb
87.71 120.16 0.27 c p1
0.4980 0 0 srgb
87.71 120.05 0.27 c p1
0 0 0.4980 srgb
89.33 112.43 0.27 c p1
0 0 0.9412 srgb
89.33 121.47 0.27 c p1
0 0.3843 1 srgb
89.33 113.26 0.27 c p1
0 0.8314 1 srgb
89.33 121.27 0.27 c p1
0.2745 1 0.7176 srgb
89.33 112.44 0.27 c p1
0.7176 1 0.2745 srgb
89.33 99.28 0.27 c p1
1 0.8314 0 srgb
89.33 112.69 0.27 c p1
1 0.3843 0 srgb
89.33 118.76 0.27 c p1
0.9412 0 0 srgb
89.33 140.98 0.27 c p1
0.4980 0 0 srgb
89.33 122.31 0.27 c p1
0 0 0.4980 srgb
90.95 80.95 0.27 c p1
0 0 0.9412 srgb
90.95 88.12 0.27 c p1
0 0.3843 1 srgb
90.95 88.13 0.27 c p1
0 0.8314 1 srgb
90.95 81.80 0.27 c p1
0.2745 1 0.7176 srgb
90.95 83.68 0.27 c p1
0.7176 1 0.2745 srgb
90.95 83.58 0.27 c p1
1 0.8314 0 srgb
90.95 79.00 0.27 c p1
1 0.3843 0 srgb
90.95 93.07 0.27 c p1
0.9412 0 0 srgb
90.95 87.67 0.27 c p1
0.4980 0 0 srgb
90.95 87.71 0.27 c p1
0 0 0.4980 srgb
92.57 106.70 0.27 c p1
0 0 0.9412 srgb
92.57 102.69 0.27 c p1
0 0.3843 1 srgb
92.57 125.86 0.27 c p1
0 0.8314 1 srgb
92.57 100.05 0.27 c p1
0.2745 1 0.7176 srgb
92.57 77.55 0.27 c p1
0.7176 1 0.2745 srgb
92.57 102.38 0.27 c p1
1 0.8314 0 srgb
92.57 77.02 0.27 c p1
1 0.3843 0 srgb
92.57 98.59 0.27 c p1
0.9412 0 0 srgb
92.57 72.84 0.27 c p1
0.4980 0 0 srgb
92.57 98.19 0.27 c p1
0 0 0.4980 srgb
94.19 93.95 0.27 c p1
0 0 0.9412 srgb
94.19 93.02 0.27 c p1
0 0.3843 1 srgb
94.19 98.82 0.27 c p1
0 0.8314 1 srgb
94.19 99.00 0.27 c p1
0.2745 1 0.7176 srgb
94.19 91.60 0.27 c p1
0.7176 1 0.2745 srgb
94.19 91.88 0.27 c p1
1 0.8314 0 srgb
94.19 97.72 0.27 c p1
1 0.3843 0 srgb
94.19 102.52 0.27 c p1
0.9412 0 0 srgb
94.19 119.63 0.27 c p1
0.4980 0 0 srgb
94.19 114.45 0.27 c p1
0 0 0.4980 srgb
95.81 145.82 0.27 c p1
0 0 0.9412 srgb
95.81 118.65 0.27 c p1
0 0.3843 1 srgb
95.81 130.10 0.27 c p1
0 0.8314 1 srgb
95.81 112.39 0.27 c p1
0.2745 1 0.7176 srgb
95.81 146.96 0.27 c p1
0.7176 1 0.2745 srgb
95.81 155.98 0.27 c p1
1 0.8314 0 srgb
95.81 145.60 0.27 c p1
1 0.3843 0 srgb
95.81 137.10 0.27 c p1
0.9412 0 0 srgb
95.81 138.83 0.27 c p1
0.4980 0 0 srgb
95.81 139.41 0.27 c p1
0 0 0.4980 srgb
97.43 79.52 0.27 c p1
0 0 0.9412 srgb
97.43 106.88 0.27 c p1
0 0.3843 1 srgb
97.43 114.79 0.27 c p1
0 0.8314 1 srgb
97.43 95.93 0.27 c p1
0.2745 1 0.7176 srgb
97.43 94.08 0.27 c p1
0.7176 1 0.2745 srgb
97.43 96.22 0.27 c p1
1 0.8314 0 srgb
97.43 83.14 0.27 c p1
1 0.3843 0 srgb
97.43 135.56 0.27 c p1
0.9412 0 0 srgb
97.43 133.49 0.27 c p1
0.4980 0 0 srgb
97.43 130.22 0.27 c p1
0 0 0.4980 srgb
99.05 104.62 0.27 c p1
0 0 0.9412 srgb
99.05 142.72 0.27 c p1
0 0.3843 1 srgb
99.05 142.51 0.27 c p1
0 0.8314 1 srgb
99.05 129.85 0.27 c p1
0.2745 1 0.7176 srgb
99.05 120.24 0.27 c p1
0.7176 1 0.2745 srgb
99.05 114.32 0.27 c p1
1 0.8314 0 srgb
99.05 108.87 0.27 c p1
1 0.3843 0 srgb
99.05 170.97 0.27 c p1
0.9412 0 0 srgb
99.05 174.23 0.27 c p1
0.4980 0 0 srgb
99.05 159.30 0.27 c p1
0 0 0.4980 srgb
100.67 85.28 0.27 c p1
0 0 0.9412 srgb
100.67 82.37 0.27 c p1
0 0.3843 1 srgb
100.67 101.95 0.27 c p1
0 0.8314 1 srgb
100.67 87.30 0.27 c p1
0.2745 1 0.7176 srgb
100.67 87.09 0.27 c p1
0.7176 1 0.2745 srgb
100.67 106.02 0.27 c p1
1 0.8314 0 srgb
100.67 91.62 0.27 c p1
1 0.3843 0 srgb
100.67 103.44 0.27 c p1
0.9412 0 0 srgb
100.67 88.72 0.27 c p1
0.4980 0 0 srgb
100.67 108.00 0.27 c p1
0 0 0.4980 srgb
102.29 104.80 0.27 c p1
0 0 0.9412 srgb
102.29 123.65 0.27 c p1
0 0.3843 1 srgb
102.29 116.40 0.27 c p1
0 0.8314 1 srgb
102.29 97.77 0.27 c p1
0.2745 1 0.7176 srgb
102.29 132.86 0.27 c p1
0.7176 1 0.2745 srgb
102.29 121.30 0.27 c p1
1 0.8314 0 srgb
102.29 107.43 0.27 c p1
1 0.3843 0 srgb
102.29 150.68 0.27 c p1
0.9412 0 0 srgb
102.29 152.76 0.27 c p1
0.4980 0 0 srgb
102.29 132.96 0.27 c p1
0 0 0.4980 srgb
103.90 94.28 0.27 c p1
0 0 0.9412 srgb
103.90 104.64 0.27 c p1
0 0.3843 1 srgb
103.90 102.15 0.27 c p1
0 0.8314 1 srgb
103.90 103.70 0.27 c p1
0.2745 1 0.7176 srgb
103.90 106.77 0.27 c p1
0.7176 1 0.2745 srgb
103.90 103.47 0.27 c p1
1 0.8314 0 srgb
103.90 108.87 0.27 c p1
1 0.3843 0 srgb
103.90 113.76 0.27 c p1
0.9412 0 0 srgb
103.90 135.28 0.27 c p1
0.4980 0 0 srgb
103.90 127.76 0.27 c p1
0 0 0.4980 srgb
105.52 157.37 0.27 c p1
0 0 0.9412 srgb
105.52 172.62 0.27 c p1
0 0.3843 1 srgb
105.52 205.23 0.27 c p1
0 0.8314 1 srgb
105.52 154.12 0.27 c p1
0.2745 1 0.7176 srgb
105.52 120.32 0.27 c p1
0.7176 1 0.2745 srgb
105.52 150.90 0.27 c p1
1 0.8314 0 srgb
105.52 95.83 0.27 c p1
1 0.3843 0 srgb
105.52 166.73 0.27 c p1
0.9412 0 0 srgb
105.52 112.95 0.27 c p1
0.4980 0 0 srgb
105.52 144.14 0.27 c p1
0 0 0.4980 srgb
107.14 120.44 0.27 c p1
0 0 0.9412 srgb
107.14 137.52 0.27 c p1
0 0.3843 1 srgb
107.14 155.46 0.27 c p1
0 0.8314 1 srgb
107.14 121.54 0.27 c p1
0.2745 1 0.7176 srgb
107.14 120.29 0.27 c p1
0.7176 1 0.2745 srgb
107.14 129.27 0.27 c p1
1 0.8314 0 srgb
107.14 104.03 0.27 c p1
1 0.3843 0 srgb
107.14 158.09 0.27 c p1
0.9412 0 0 srgb
107.14 144.83 0.27 c p1
0.4980 0 0 srgb
107.14 147.01 0.27 c p1
0 0 0.4980 srgb
108.76 174.15 0.27 c p1
0 0 0.9412 srgb
108.76 214.07 0.27 c p1
0 0.3843 1 srgb
108.76 199.85 0.27 c p1
0 0.8314 1 srgb
108.76 208.84 0.27 c p1
0.2745 1 0.7176 srgb
108.76 127.63 0.27 c p1
0.7176 1 0.2745 srgb
108.76 109.72 0.27 c p1
1 0.8314 0 srgb
108.76 128.72 0.27 c p1
1 0.3843 0 srgb
108.76 161.05 0.27 c p1
0.9412 0 0 srgb
108.76 189.79 0.27 c p1
0.4980 0 0 srgb
108.76 171.19 0.27 c p1
0 0 0.4980 srgb
110.38 98.08 0.27 c p1
0 0 0.9412 srgb
110.38 116.54 0.27 c p1
0 0.3843 1 srgb
110.38 120.26 0.27 c p1
0 0.8314 1 srgb
110.38 117.15 0.27 c p1
0.2745 1 0.7176 srgb
110.38 96.91 0.27 c p1
0.7176 1 0.2745 srgb
110.38 94.53 0.27 c p1
1 0.8314 0 srgb
110.38 94.23 0.27 c p1
1 0.3843 0 srgb
110.38 127.56 0.27 c p1
0.9412 0 0 srgb
110.38 136.22 0.27 c p1
0.4980 0 0 srgb
110.38 128.12 0.27 c p1
0 0 0.4980 srgb
112.00 144.18 0.27 c p1
0 0 0.9412 srgb
112.00 162.98 0.27 c p1
0 0.3843 1 srgb
112.00 158.94 0.27 c p1
0 0.8314 1 srgb
112.00 127.45 0.27 c p1
0.2745 1 0.7176 srgb
112.00 149.92 0.27 c p1
0.7176 1 0.2745 srgb
112.00 139.87 0.27 c p1
1 0.8314 0 srgb
112.00 111.69 0.27 c p1
1 0.3843 0 srgb
112.00 168.65 0.27 c p1
0.9412 0 0 srgb
112.00 154.89 0.27 c p1
0.4980 0 0 srgb
112.00 140.34 0.27 c p1
0 0 0.4980 srgb
113.62 70.19 0.27 c p1
0 0 0.9412 srgb
113.62 73.22 0.27 c p1
0 0.3843 1 srgb
113.62 88.64 0.27 c p1
0 0.8314 1 srgb
113.62 84.72 0.27 c p1
0.2745 1 0.7176 srgb
113.62 77.01 0.27 c p1
0.7176 1 0.2745 srgb
113.62 85.98 0.27 c p1
1 0.8314 0 srgb
113.62 89.07 0.27 c p1
1 0.3843 0 srgb
113.62 99.39 0.27 c p1
0.9412 0 0 srgb
113.62 113.36 0.27 c p1
0.4980 0 0 srgb
113.62 117.94 0.27 c p1
0 0 0.4980 srgb
115.24 84.64 0.27 c p1
0 0 0.9412 srgb
115.24 103.98 0.27 c p1
0 0.3843 1 srgb
115.24 102.47 0.27 c p1
0 0.8314 1 srgb
115.24 105.90 0.27 c p1
0.2745 1 0.7176 srgb
115.24 85.47 0.27 c p1
0.7176 1 0.2745 srgb
115.24 79.44 0.27 c p1
1 0.8314 0 srgb
115.24 89.39 0.27 c p1
1 0.3843 0 srgb
115.24 109.69 0.27 c p1
0.9412 0 0 srgb
115.24 130.38 0.27 c p1
0.4980 0 0 srgb
115.24 119.79 0.27 c p1
0 0 0.4980 srgb
116.86 84.02 0.27 c p1
0 0 0.9412 srgb
116.86 96.44 0.27 c p1
0 0.3843 1 srgb
116.86 122.66 0.27 c p1
0 0.8314 1 srgb
116.86 114.96 0.27 c p1
0.2745 1 0.7176 srgb
116.86 85.88 0.27 c p1
0.7176 1 0.2745 srgb
116.86 105.19 0.27 c p1
1 0.8314 0 srgb
116.86 100.74 0.27 c p1
1 0.3843 0 srgb
116.86 132.29 0.27 c p1
0.9412 0 0 srgb
116.86 136.30 0.27 c p1
0.4980 0 0 srgb
116.86 148.69 0.27 c p1
0 0 0.4980 srgb
118.48 121.16 0.27 c p1
0 0 0.9412 srgb
118.48 143.44 0.27 c p1
0 0.3843 1 srgb
118.48 141.38 0.27 c p1
0 0.8314 1 srgb
118.48 141.36 0.27 c p1
0.2745 1 0.7176 srgb
118.48 111.57 0.27 c p1
0.7176 1 0.2745 srgb
118.48 106.10 0.27 c p1
1 0.8314 0 srgb
118.48 110.84 0.27 c p1
1 0.3843 0 srgb
118.48 138.59 0.27 c p1
0.9412 0 0 srgb
118.48 155.86 0.27 c p1
0.4980 0 0 srgb
118.48 143.63 0.27 c p1
0 0 0.4980 srgb
120.10 85.71 0.27 c p1
0 0 0.9412 srgb
120.10 95.66 0.27 c p1
0 0.3843 1 srgb
120.10 96.49 0.27 c p1
0 0.8314 1 srgb
120.10 85.55 0.27 c p1
0.2745 1 0.7176 srgb
120.10 102.89 0.27 c p1
0.7176 1 0.2745 srgb
120.10 97.08 0.27 c p1
1 0.8314 0 srgb
120.10 92.66 0.27 c p1
1 0.3843 0 srgb
120.10 119.25 0.27 c p1
0.9412 0 0 srgb
120.10 127.76 0.27 c p1
0.4980 0 0 srgb
120.10 115.88 0.27 c p1
0 0 0.4980 srgb
121.71 148.10 0.27 c p1
0 0 0.9412 srgb
121.71 142.21 0.27 c p1
0 0.3843 1 srgb
121.71 162.09 0.27 c p1
0 0.8314 1 srgb
121.71 142.62 0.27 c p1
0.2745 1 0.7176 srgb
121.71 117.74 0.27 c p1
0.7176 1 0.2745 srgb
121.71 134.80 0.27 c p1
1 0.8314 0 srgb
121.71 120.50 0.27 c p1
1 0.3843 0 srgb
121.71 139.46 0.27 c p1
0.9412 0 0 srgb
121.71 139.69 0.27 c p1
0.4980 0 0 srgb
121.71 148.05 0.27 c p1
0 0 0.4980 srgb
123.33 153.31 0.27 c p1
0 0 0.9412 srgb
123.33 160.49 0.27 c p1
0 0.3843 1 srgb
123.33 160.58 0.27 c p1
0 0.8314 1 srgb
123.33 134.24 0.27 c p1
0.2745 1 0.7176 srgb
123.33 133.67 0.27 c p1
0.7176 1 0.2745 srgb
123.33 133.15 0.27 c p1
1 0.8314 0 srgb
123.33 105.09 0.27 c p1
1 0.3843 0 srgb
123.33 141.91 0.27 c p1
0.9412 0 0 srgb
123.33 113.64 0.27 c p1
0.4980 0 0 srgb
123.33 115.80 0.27 c p1
0 0 0.4980 srgb
124.95 94.31 0.27 c p1
0 0 0.9412 srgb
124.95 81.36 0.27 c p1
0 0.3843 1 srgb
124.95 85.29 0.27 c p1
0 0.8314 1 srgb
124.95 89.04 0.27 c p1
0.2745 1 0.7176 srgb
124.95 100.87 0.27 c p1
0.7176 1 0.2745 srgb
124.95 99.82 0.27 c p1
1 0.8314 0 srgb
124.95 108.23 0.27 c p1
1 0.3843 0 srgb
124.95 97.09 0.27 c p1
0.9412 0 0 srgb
124.95 117.69 0.27 c p1
0.4980 0 0 srgb
124.95 110.28 0.27 c p1
0 0 0.4980 srgb
126.57 88.71 0.27 c p1
0 0 0.9412 srgb
126.57 83.73 0.27 c p1
0 0.3843 1 srgb
126.57 107.11 0.27 c p1
0 0.8314 1 srgb
126.57 90.06 0.27 c p1
0.2745 1 0.7176 srgb
126.57 93.27 0.27 c p1
0.7176 1 0.2745 srgb
126.57 110.90 0.27 c p1
1 0.8314 0 srgb
126.57 99.55 0.27 c p1
1 0.3843 0 srgb
126.57 117.97 0.27 c p1
0.9412 0 0 srgb
126.57 117.65 0.27 c p1
0.4980 0 0 srgb
126.57 130.05 0.27 c p1
0 0 0.4980 srgb
128.19 100.23 0.27 c p1
0 0 0.9412 srgb
128.19 121.29 0.27 c p1
0 0.3843 1 srgb
128.19 107.80 0.27 c p1
0 0.8314 1 srgb
128.19 101.80 0.27 c p1
0.2745 1 0.7176 srgb
128.19 116.67 0.27 c p1
0.7176 1 0.2745 srgb
128.19 99.28 0.27 c p1
1 0.8314 0 srgb
128.19 99.06 0.27 c p1
1 0.3843 0 srgb
128.19 130.45 0.27 c p1
0.9412 0 0 srgb
128.19 141.48 0.27 c p1
0.4980 0 0 srgb
128.19 118.36 0.27 c p1
0 0 0.4980 srgb
129.81 65.87 0.27 c p1
0 0 0.9412 srgb
129.81 71.21 0.27 c p1
0 0.3843 1 srgb
129.81 76.27 0.27 c p1
0 0.8314 1 srgb
129.81 77.34 0.27 c p1
0.2745 1 0.7176 srgb
129.81 74.09 0.27 c p1
0.7176 1 0.2745 srgb
129.81 73.17 0.27 c p1
1 0.8314 0 srgb
129.81 80.28 0.27 c p1
1 0.3843 0 srgb
129.81 90.03 0.27 c p1
0.9412 0 0 srgb
129.81 108.28 0.27 c p1
0.4980 0 0 srgb
129.81 101.96 0.27 c p1
0 0 0.4980 srgb
131.43 175.77 0.27 c p1
0 0 0.9412 srgb
131.43 174.92 0.27 c p1
0 0.3843 1 srgb
131.43 244.07 0.27 c p1
0 0.8314 1 srgb
131.43 160.97 0.27 c p1
0.2745 1 0.7176 srgb
131.43 134.68 0.27 c p1
0.7176 1 0.2745 srgb
131.43 196.10 0.27 c p1
1 0.8314 0 srgb
131.43 123.72 0.27 c p1
1 0.3843 0 srgb
131.43 208.95 0.27 c p1
0.9412 0 0 srgb
131.43 145.99 0.27 c p1
0.4980 0 0 srgb
131.43 199.72 0.27 c p1
0 0 0.4980 srgb
133.05 90.20 0.27 c p1
0 0 0.9412 srgb
133.05 126.13 0.27 c p1
0 0.3843 1 srgb
133.05 102.24 0.27 c p1
0 0.8314 1 srgb
133.05 94.58 0.27 c p1
0.2745 1 0.7176 srgb
133.05 120.13 0.27 c p1
0.7176 1 0.2745 srgb
133.05 90.58 0.27 c p1
1 0.8314 0 srgb
133.05 87.38 0.27 c p1
1 0.3843 0 srgb
133.05 135.47 0.27 c p1
0.9412 0 0 srgb
133.05 144.70 0.27 c p1
0.4980 0 0 srgb
133.05 113.83 0.27 c p1
0 0 0.4980 srgb
134.67 76.35 0.27 c p1
0 0 0.9412 srgb
134.67 100.92 0.27 c p1
0 0.3843 1 srgb
134.67 81.33 0.27 c p1
0 0.8314 1 srgb
134.67 87.93 0.27 c p1
0.2745 1 0.7176 srgb
134.67 98.93 0.27 c p1
0.7176 1 0.2745 srgb
134.67 75.21 0.27 c p1
1 0.8314 0 srgb
134.67 88.55 0.27 c p1
1 0.3843 0 srgb
134.67 109.04 0.27 c p1
0.9412 0 0 srgb
134.67 133.51 0.27 c p1
0.4980 0 0 srgb
134.67 104.30 0.27 c p1
0 0 0.4980 srgb
136.29 112.64 0.27 c p1
0 0 0.9412 srgb
136.29 109.17 0.27 c p1
0 0.3843 1 srgb
136.29 107.85 0.27 c p1
0 0.8314 1 srgb
136.29 101.87 0.27 c p1
0.2745 1 0.7176 srgb
136.29 111.00 0.27 c p1
0.7176 1 0.2745 srgb
136.29 103.84 0.27 c p1
1 0.8314 0 srgb
136.29 103.76 0.27 c p1
1 0.3843 0 srgb
136.29 111.84 0.27 c p1
0.9412 0 0 srgb
136.29 122.71 0.27 c p1
0.4980 0 0 srgb
136.29 110.31 0.27 c p1
0 0 0.4980 srgb
137.90 93.13 0.27 c p1
0 0 0.9412 srgb
137.90 106.58 0.27 c p1
0 0.3843 1 srgb
137.90 106.41 0.27 c p1
0 0.8314 1 srgb
137.90 110.89 0.27 c p1
0.2745 1 0.7176 srgb
137.90 90.60 0.27 c p1
0.7176 1 0.2745 srgb
137.90 84.58 0.27 c p1
1 0.8314 0 srgb
137.90 94.73 0.27 c p1
1 0.3843 0 srgb
137.90 110.16 0.27 c p1
0.9412 0 0 srgb
137.90 131.23 0.27 c p1
0.4980 0 0 srgb
137.90 120.13 0.27 c p1
0 0 0.4980 srgb
139.52 93.53 0.27 c p1
0 0 0.9412 srgb
139.52 107.70 0.27 c p1
0 0.3843 1 srgb
139.52 106.85 0.27 c p1
0 0.8314 1 srgb
139.52 111.00 0.27 c p1
0.2745 1 0.7176 srgb
139.52 90.58 0.27 c p1
0.7176 1 0.2745 srgb
139.52 85.20 0.27 c p1
1 0.8314 0 srgb
139.52 96.73 0.27 c p1
1 0.3843 0 srgb
139.52 112.90 0.27 c p1
0.9412 0 0 srgb
139.52 131.96 0.27 c p1
0.4980 0 0 srgb
139.52 122.58 0.27 c p1
0 0 0.4980 srgb
141.14 94.91 0.27 c p1
0 0 0.9412 srgb
141.14 101.15 0.27 c p1
0 0.3843 1 srgb
141.14 96.38 0.27 c p1
0 0.8314 1 srgb
141.14 108.58 0.27 c p1
0.2745 1 0.7176 srgb
141.14 109.12 0.27 c p1
0.7176 1 0.2745 srgb
141.14 99.07 0.27 c p1
1 0.8314 0 srgb
141.14 117.15 0.27 c p1
1 0.3843 0 srgb
141.14 114.04 0.27 c p1
0.9412 0 0 srgb
141.14 142.37 0.27 c p1
0.4980 0 0 srgb
141.14 126.67 0.27 c p1
0 0 0.4980 srgb
142.76 90.68 0.27 c p1
0 0 0.9412 srgb
142.76 116.20 0.27 c p1
0 0.3843 1 srgb
142.76 116.75 0.27 c p1
0 0.8314 1 srgb
142.76 110.15 0.27 c p1
0.2745 1 0.7176 srgb
142.76 108.17 0.27 c p1
0.7176 1 0.2745 srgb
142.76 106.56 0.27 c p1
1 0.8314 0 srgb
142.76 103.76 0.27 c p1
1 0.3843 0 srgb
142.76 134.95 0.27 c p1
0.9412 0 0 srgb
142.76 127.55 0.27 c p1
0.4980 0 0 srgb
142.76 127.15 0.27 c p1
0 0 0.4980 srgb
144.38 111.25 0.27 c p1
0 0 0.9412 srgb
144.38 118.42 0.27 c p1
0 0.3843 1 srgb
144.38 144.76 0.27 c p1
0 0.8314 1 srgb
144.38 115.57 0.27 c p1
0.2745 1 0.7176 srgb
144.38 93.22 0.27 c p1
0.7176 1 0.2745 srgb
144.38 113.22 0.27 c p1
1 0.8314 0 srgb
144.38 87.82 0.27 c p1
1 0.3843 0 srgb
144.38 129.33 0.27 c p1
0.9412 0 0 srgb
144.38 117.38 0.27 c p1
0.4980 0 0 srgb
144.38 131.16 0.27 c p1
0 0 0.4980 srgb
146.00 78.92 0.27 c p1
0 0 0.9412 srgb
146.00 94.95 0.27 c p1
0 0.3843 1 srgb
146.00 99.87 0.27 c p1
0 0.8314 1 srgb
146.00 87.06 0.27 c p1
0.2745 1 0.7176 srgb
146.00 99.46 0.27 c p1
0.7176 1 0.2745 srgb
146.00 99.24 0.27 c p1
1 0.8314 0 srgb
146.00 92.15 0.27 c p1
1 0.3843 0 srgb
146.00 128.50 0.27 c p1
0.9412 0 0 srgb
146.00 134.43 0.27 c p1
0.4980 0 0 srgb
146.00 127.14 0.27 c p1
0 0 0.4980 srgb
147.62 84.54 0.27 c p1
0 0 0.9412 srgb
147.62 91.18 0.27 c p1
0 0.3843 1 srgb
147.62 98.06 0.27 c p1
0 0.8314 1 srgb
147.62 96.35 0.27 c p1
0.2745 1 0.7176 srgb
147.62 80.38 0.27 c p1
0.7176 1 0.2745 srgb
147.62 84.92 0.27 c p1
1 0.8314 0 srgb
147.62 83.39 0.27 c p1
1 0.3843 0 srgb
147.62 92.53 0.27 c p1
0.9412 0 0 srgb
147.62 89.80 0.27 c p1
0.4980 0 0 srgb
147.62 97.29 0.27 c p1
0 0 0.4980 srgb
149.24 84.71 0.27 c p1
0 0 0.9412 srgb
149.24 82.85 0.27 c p1
0 0.3843 1 srgb
149.24 77.82 0.27 c p1
0 0.8314 1 srgb
149.24 79.32 0.27 c p1
0.2745 1 0.7176 srgb
149.24 81.16 0.27 c p1
0.7176 1 0.2745 srgb
149.24 76.08 0.27 c p1
1 0.8314 0 srgb
149.24 78.65 0.27 c p1
1 0.3843 0 srgb
149.24 75.65 0.27 c p1
0.9412 0 0 srgb
149.24 76.15 0.27 c p1
0.4980 0 0 srgb
149.24 71.75 0.27 c p1
0 0 0.4980 srgb
150.86 126.78 0.27 c p1
0 0 0.9412 srgb
150.86 119.08 0.27 c p1
0 0.3843 1 srgb
150.86 110.61 0.27 c p1
0 0.8314 1 srgb
150.86 112.68 0.27 c p1
0.2745 1 0.7176 srgb
150.86 124.25 0.27 c p1
0.7176 1 0.2745 srgb
150.86 112.30 0.27 c p1
1 0.8314 0 srgb
150.86 117.14 0.27 c p1
1 0.3843 0 srgb
150.86 113.58 0.27 c p1
0.9412 0 0 srgb
150.86 134.56 0.27 c p1
0.4980 0 0 srgb
150.86 114.88 0.27 c p1
0 0 0.4980 srgb
152.48 85.09 0.27 c p1
0 0 0.9412 srgb
152.48 79.31 0.27 c p1
0 0.3843 1 srgb
152.48 95.71 0.27 c p1
0 0.8314 1 srgb
152.48 78.16 0.27 c p1
0.2745 1 0.7176 srgb
152.48 73.40 0.27 c p1
0.7176 1 0.2745 srgb
152.48 88.14 0.27 c p1
1 0.8314 0 srgb
152.48 71.20 0.27 c p1
1 0.3843 0 srgb
152.48 82.57 0.27 c p1
0.9412 0 0 srgb
152.48 66.36 0.27 c p1
0.4980 0 0 srgb
152.48 80.67 0.27 c p1
0 0 0.4980 srgb
154.10 105.95 0.27 c p1
0 0 0.9412 srgb
154.10 96.35 0.27 c p1
0 0.3843 1 srgb
154.10 107.31 0.27 c p1
0 0.8314 1 srgb
154.10 100.91 0.27 c p1
0.2745 1 0.7176 srgb
154.10 91.51 0.27 c p1
0.7176 1 0.2745 srgb
154.10 96.57 0.27 c p1
1 0.8314 0 srgb
154.10 97.64 0.27 c p1
1 0.3843 0 srgb
154.10 96.50 0.27 c p1
0.9412 0 0 srgb
154.10 108.58 0.27 c p1
0.4980 0 0 srgb
154.10 108.43 0.27 c p1
0 0 0.4980 srgb
155.71 94.11 0.27 c p1
0 0 0.9412 srgb
155.71 95.12 0.27 c p1
0 0.3843 1 srgb
155.71 98.38 0.27 c p1
0 0.8314 1 srgb
155.71 91.60 0.27 c p1
0.2745 1 0.7176 srgb
155.71 74.59 0.27 c p1
0.7176 1 0.2745 srgb
155.71 77.54 0.27 c p1
1 0.8314 0 srgb
155.71 71.19 0.27 c p1
1 0.3843 0 srgb
155.71 80.28 0.27 c p1
0.9412 0 0 srgb
155.71 73.31 0.27 c p1
0.4980 0 0 srgb
155.71 76.71 0.27 c p1
0 0 0.4980 srgb
157.33 162.50 0.27 c p1
0 0 0.9412 srgb
157.33 154.01 0.27 c p1
0 0.3843 1 srgb
157.33 162.18 0.27 c p1
0 0.8314 1 srgb
157.33 168.13 0.27 c p1
0.2745 1 0.7176 srgb
157.33 112.97 0.27 c p1
0.7176 1 0.2745 srgb
157.33 115.34 0.27 c p1
1 0.8314 0 srgb
157.33 121.22 0.27 c p1
1 0.3843 0 srgb
157.33 116.30 0.27 c p1
0.9412 0 0 srgb
157.33 136.44 0.27 c p1
0.4980 0 0 srgb
157.33 134.24 0.27 c p1
0 0 0.4980 srgb
158.95 116.89 0.27 c p1
0 0 0.9412 srgb
158.95 133.53 0.27 c p1
0 0.3843 1 srgb
158.95 130.11 0.27 c p1
0 0.8314 1 srgb
158.95 127.41 0.27 c p1
0.2745 1 0.7176 srgb
158.95 99.77 0.27 c p1
0.7176 1 0.2745 srgb
158.95 90.53 0.27 c p1
1 0.8314 0 srgb
158.95 93.89 0.27 c p1
1 0.3843 0 srgb
158.95 120.83 0.27 c p1
0.9412 0 0 srgb
158.95 135.18 0.27 c p1
0.4980 0 0 srgb
158.95 120.66 0.27 c p1
0 0 0.4980 srgb
160.57 84.54 0.27 c p1
0 0 0.9412 srgb
160.57 102.02 0.27 c p1
0 0.3843 1 srgb
160.57 98.06 0.27 c p1
0 0.8314 1 srgb
160.57 96.16 0.27 c p1
0.2745 1 0.7176 srgb
160.57 95.82 0.27 c p1
0.7176 1 0.2745 srgb
160.57 85.23 0.27 c p1
1 0.8314 0 srgb
160.57 89.96 0.27 c p1
1 0.3843 0 srgb
160.57 115.08 0.27 c p1
0.9412 0 0 srgb
160.57 129.97 0.27 c p1
0.4980 0 0 srgb
160.57 114.84 0.27 c p1
0 0 0.4980 srgb
162.19 81.71 0.27 c p1
0 0 0.9412 srgb
162.19 82.37 0.27 c p1
0 0.3843 1 srgb
162.19 81.22 0.27 c p1
0 0.8314 1 srgb
162.19 93.51 0.27 c p1
0.2745 1 0.7176 srgb
162.19 79.11 0.27 c p1
0.7176 1 0.2745 srgb
162.19 71.70 0.27 c p1
1 0.8314 0 srgb
162.19 90.25 0.27 c p1
1 0.3843 0 srgb
162.19 84.93 0.27 c p1
0.9412 0 0 srgb
162.19 113.75 0.27 c p1
0.4980 0 0 srgb
162.19 101.20 0.27 c p1
0 0 0.4980 srgb
163.81 114.11 0.27 c p1
0 0 0.9412 srgb
163.81 137.73 0.27 c p1
0 0.3843 1 srgb
163.81 163.51 0.27 c p1
0 0.8314 1 srgb
163.81 133.47 0.27 c p1
0.2745 1 0.7176 srgb
163.81 103.11 0.27 c p1
0.7176 1 0.2745 srgb
163.81 122.05 0.27 c p1
1 0.8314 0 srgb
163.81 98.13 0.27 c p1
1 0.3843 0 srgb
163.81 158.30 0.27 c p1
0.9412 0 0 srgb
163.81 145.15 0.27 c p1
0.4980 0 0 srgb
163.81 159.51 0.27 c p1
0 0 0.4980 srgb
165.43 144.10 0.27 c p1
0 0 0.9412 srgb
165.43 124.60 0.27 c p1
0 0.3843 1 srgb
165.43 154.67 0.27 c p1
0 0.8314 1 srgb
165.43 121.74 0.27 c p1
0.2745 1 0.7176 srgb
165.43 124.84 0.27 c p1
0.7176 1 0.2745 srgb
165.43 152.83 0.27 c p1
1 0.8314 0 srgb
165.43 122.60 0.27 c p1
1 0.3843 0 srgb
165.43 133.39 0.27 c p1
0.9412 0 0 srgb
165.43 102.41 0.27 c p1
0.4980 0 0 srgb
165.43 130.95 0.27 c p1
0 0 0.4980 srgb
167.05 107.37 0.27 c p1
0 0 0.9412 srgb
167.05 122.61 0.27 c p1
0 0.3843 1 srgb
167.05 119.20 0.27 c p1
0 0.8314 1 srgb
167.05 112.65 0.27 c p1
0.2745 1 0.7176 srgb
167.05 113.40 0.27 c p1
0.7176 1 0.2745 srgb
167.05 103.93 0.27 c p1
1 0.8314 0 srgb
167.05 103.68 0.27 c p1
1 0.3843 0 srgb
167.05 131.41 0.27 c p1
0.9412 0 0 srgb
167.05 142.05 0.27 c p1
0.4980 0 0 srgb
167.05 127.09 0.27 c p1
0 0 0.4980 srgb
168.67 100.48 0.27 c p1
0 0 0.9412 srgb
168.67 104.10 0.27 c p1
0 0.3843 1 srgb
168.67 126.18 0.27 c p1
0 0.8314 1 srgb
168.67 114.43 0.27 c p1
0.2745 1 0.7176 srgb
168.67 86.61 0.27 c p1
0.7176 1 0.2745 srgb
168.67 102.89 0.27 c p1
1 0.8314 0 srgb
168.67 96.78 0.27 c p1
1 0.3843 0 srgb
168.67 118.84 0.27 c p1
0.9412 0 0 srgb
168.67 123.65 0.27 c p1
0.4980 0 0 srgb
168.67 134.99 0.27 c p1
0 0 0.4980 srgb
170.29 111.31 0.27 c p1
0 0 0.9412 srgb
170.29 102.27 0.27 c p1
0 0.3843 1 srgb
170.29 105.59 0.27 c p1
0 0.8314 1 srgb
170.29 106.74 0.27 c p1
0.2745 1 0.7176 srgb
170.29 110.82 0.27 c p1
0.7176 1 0.2745 srgb
170.29 108.83 0.27 c p1
1 0.8314 0 srgb
170.29 115.30 0.27 c p1
1 0.3843 0 srgb
170.29 111.11 0.27 c p1
0.9412 0 0 srgb
170.29 129.13 0.27 c p1
0.4980 0 0 srgb
170.29 121.34 0.27 c p1
0 0 0.4980 srgb
171.90 92.77 0.27 c p1
0 0 0.9412 srgb
171.90 93.66 0.27 c p1
0 0.3843 1 srgb
171.90 106.07 0.27 c p1
0 0.8314 1 srgb
171.90 104.49 0.27 c p1
0.2745 1 0.7176 srgb
171.90 79.05 0.27 c p1
0.7176 1 0.2745 srgb
171.90 85.95 0.27 c p1
1 0.8314 0 srgb
171.90 89.85 0.27 c p1
1 0.3843 0 srgb
171.90 98.56 0.27 c p1
0.9412 0 0 srgb
171.90 113.78 0.27 c p1
0.4980 0 0 srgb
171.90 115.16 0.27 c p1
0 0 0.4980 srgb
173.52 114.99 0.27 c p1
0 0 0.9412 srgb
173.52 131.48 0.27 c p1
0 0.3843 1 srgb
173.52 116.71 0.27 c p1
0 0.8314 1 srgb
173.52 135.25 0.27 c p1
0.2745 1 0.7176 srgb
173.52 107.26 0.27 c p1
0.7176 1 0.2745 srgb
173.52 86.75 0.27 c p1
1 0.8314 0 srgb
173.52 111.08 0.27 c p1
1 0.3843 0 srgb
173.52 115.13 0.27 c p1
0.9412 0 0 srgb
173.52 150.34 0.27 c p1
0.4980 0 0 srgb
173.52 126.30 0.27 c p1
0 0 0.4980 srgb
175.14 96.90 0.27 c p1
0 0 0.9412 srgb
175.14 111.70 0.27 c p1
0 0.3843 1 srgb
175.14 107.32 0.27 c p1
0 0.8314 1 srgb
175.14 105.42 0.27 c p1
0.2745 1 0.7176 srgb
175.14 99.46 0.27 c p1
0.7176 1 0.2745 srgb
175.14 89.14 0.27 c p1
1 0.8314 0 srgb
175.14 93.67 0.27 c p1
1 0.3843 0 srgb
175.14 115.58 0.27 c p1
0.9412 0 0 srgb
175.14 130.30 0.27 c p1
0.4980 0 0 srgb
175.14 115.34 0.27 c p1
0 0 0.4980 srgb
176.76 104.70 0.27 c p1
0 0 0.9412 srgb
176.76 128.43 0.27 c p1
0 0.3843 1 srgb
176.76 114.47 0.27 c p1
0 0.8314 1 srgb
176.76 116.63 0.27 c p1
0.2745 1 0.7176 srgb
176.76 103.12 0.27 c p1
0.7176 1 0.2745 srgb
176.76 83.43 0.27 c p1
1 0.8314 0 srgb
176.76 91.43 0.27 c p1
1 0.3843 0 srgb
176.76 118.85 0.27 c p1
0.9412 0 0 srgb
176.76 137.71 0.27 c p1
0.4980 0 0 srgb
176.76 112.67 0.27 c p1
0 0 0.4980 srgb
178.38 97.01 0.27 c p1
0 0 0.9412 srgb
178.38 111.62 0.27 c p1
0 0.3843 1 srgb
178.38 107.79 0.27 c p1
0 0.8314 1 srgb
178.38 110.95 0.27 c p1
0.2745 1 0.7176 srgb
178.38 99.72 0.27 c p1
0.7176 1 0.2745 srgb
178.38 89.38 0.27 c p1
1 0.8314 0 srgb
178.38 99.27 0.27 c p1
1 0.3843 0 srgb
178.38 115.84 0.27 c p1
0.9412 0 0 srgb
178.38 135.79 0.27 c p1
0.4980 0 0 srgb
178.38 120.92 0.27 c p1
0 0 0.4980 srgb
180.00 96.49 0.27 c p1
0 0 0.9412 srgb
180.00 92.84 0.27 c p1
0 0.3843 1 srgb
180.00 106.92 0.27 c p1
0 0.8314 1 srgb
180.00 95.90 0.27 c p1
0.2745 1 0.7176 srgb
180.00 94.64 0.27 c p1
0.7176 1 0.2745 srgb
180.00 103.24 0.27 c p1
1 0.8314 0 srgb
180.00 97.76 0.27 c p1
1 0.3843 0 srgb
180.00 111.04 0.27 c p1
0.9412 0 0 srgb
180.00 116.61 0.27 c p1
0.4980 0 0 srgb
180.00 119.87 0.27 c p1
0 0 0.4980 srgb
181.62 98.85 0.27 c p1
0 0 0.9412 srgb
181.62 120.95 0.27 c p1
0 0.3843 1 srgb
181.62 113.21 0.27 c p1
0 0.8314 1 srgb
181.62 110.84 0.27 c p1
0.2745 1 0.7176 srgb
181.62 101.11 0.27 c p1
0.7176 1 0.2745 srgb
181.62 87.68 0.27 c p1
1 0.8314 0 srgb
181.62 91.18 0.27 c p1
1 0.3843 0 srgb
181.62 122.25 0.27 c p1
0.9412 0 0 srgb
181.62 136.87 0.27 c p1
0.4980 0 0 srgb
181.62 118.16 0.27 c p1
0 0 0.4980 srgb
183.24 101.87 0.27 c p1
0 0 0.9412 srgb
183.24 107.30 0.27 c p1
0 0.3843 1 srgb
183.24 95.89 0.27 c p1
0 0.8314 1 srgb
183.24 97.66 0.27 c p1
0.2745 1 0.7176 srgb
183.24 99.19 0.27 c p1
0.7176 1 0.2745 srgb
183.24 86.92 0.27 c p1
1 0.8314 0 srgb
183.24 89.41 0.27 c p1
1 0.3843 0 srgb
183.24 92.91 0.27 c p1
0.9412 0 0 srgb
183.24 94.27 0.27 c p1
0.4980 0 0 srgb
183.24 83.43 0.27 c p1
0 0 0.4980 srgb
184.86 93.04 0.27 c p1
0 0 0.9412 srgb
184.86 95.58 0.27 c p1
0 0.3843 1 srgb
184.86 107.09 0.27 c p1
0 0.8314 1 srgb
184.86 89.07 0.27 c p1
0.2745 1 0.7176 srgb
184.86 83.12 0.27 c p1
0.7176 1 0.2745 srgb
184.86 94.14 0.27 c p1
1 0.8314 0 srgb
184.86 76.76 0.27 c p1
1 0.3843 0 srgb
184.86 97.69 0.27 c p1
0.9412 0 0 srgb
184.86 79.15 0.27 c p1
0.4980 0 0 srgb
184.86 91.69 0.27 c p1
0 0 0.4980 srgb
186.48 119.40 0.27 c p1
0 0 0.9412 srgb
186.48 119.87 0.27 c p1
0 0.3843 1 srgb
186.48 146.51 0.27 c p1
0 0.8314 1 srgb
186.48 125.08 0.27 c p1
0.2745 1 0.7176 srgb
186.48 71.34 0.27 c p1
0.7176 1 0.2745 srgb
186.48 97.90 0.27 c p1
1 0.8314 0 srgb
186.48 76.70 0.27 c p1
1 0.3843 0 srgb
186.48 98.83 0.27 c p1
0.9412 0 0 srgb
186.48 77.28 0.27 c p1
0.4980 0 0 srgb
186.48 105.55 0.27 c p1
0 0 0.4980 srgb
188.10 92.88 0.27 c p1
0 0 0.9412 srgb
188.10 76.76 0.27 c p1
0 0.3843 1 srgb
188.10 91.05 0.27 c p1
0 0.8314 1 srgb
188.10 76.01 0.27 c p1
0.2745 1 0.7176 srgb
188.10 89.91 0.27 c p1
0.7176 1 0.2745 srgb
188.10 103.60 0.27 c p1
1 0.8314 0 srgb
188.10 88.91 0.27 c p1
1 0.3843 0 srgb
188.10 87.56 0.27 c p1
0.9412 0 0 srgb
188.10 71.99 0.27 c p1
0.4980 0 0 srgb
188.10 87.46 0.27 c p1
0 0 0.4980 srgb
189.71 101.76 0.27 c p1
0 0 0.9412 srgb
189.71 96.39 0.27 c p1
0 0.3843 1 srgb
189.71 87.92 0.27 c p1
0 0.8314 1 srgb
189.71 81.93 0.27 c p1
0.2745 1 0.7176 srgb
189.71 104.18 0.27 c p1
0.7176 1 0.2745 srgb
189.71 95.86 0.27 c p1
1 0.8314 0 srgb
189.71 88.58 0.27 c p1
1 0.3843 0 srgb
189.71 87.53 0.27 c p1
0.9412 0 0 srgb
189.71 79.97 0.27 c p1
0.4980 0 0 srgb
189.71 72.10 0.27 c p1
0 0 0.4980 srgb
191.33 91.57 0.27 c p1
0 0 0.9412 srgb
191.33 95.74 0.27 c p1
0 0.3843 1 srgb
191.33 88.60 0.27 c p1
0 0.8314 1 srgb
191.33 83.14 0.27 c p1
0.2745 1 0.7176 srgb
191.33 91.60 0.27 c p1
0.7176 1 0.2745 srgb
191.33 86.05 0.27 c p1
1 0.8314 0 srgb
191.33 80.26 0.27 c p1
1 0.3843 0 srgb
191.33 89.56 0.27 c p1
0.9412 0 0 srgb
191.33 82.96 0.27 c p1
0.4980 0 0 srgb
191.33 79.20 0.27 c p1
0 0 0.4980 srgb
192.95 87.83 0.27 c p1
0 0 0.9412 srgb
192.95 92.95 0.27 c p1
0 0.3843 1 srgb
192.95 77.33 0.27 c p1
0 0.8314 1 srgb
192.95 90.58 0.27 c p1
0.2745 1 0.7176 srgb
192.95 114.73 0.27 c p1
0.7176 1 0.2745 srgb
192.95 92.85 0.27 c p1
1 0.8314 0 srgb
192.95 113.82 0.27 c p1
1 0.3843 0 srgb
192.95 112.42 0.27 c p1
0.9412 0 0 srgb
192.95 140.96 0.27 c p1
0.4980 0 0 srgb
192.95 114.37 0.27 c p1
0 0 0.4980 srgb
194.57 90.08 0.27 c p1
0 0 0.9412 srgb
194.57 86.05 0.27 c p1
0 0.3843 1 srgb
194.57 89.63 0.27 c p1
0 0.8314 1 srgb
194.57 82.27 0.27 c p1
0.2745 1 0.7176 srgb
194.57 78.34 0.27 c p1
0.7176 1 0.2745 srgb
194.57 81.45 0.27 c p1
1 0.8314 0 srgb
194.57 74.42 0.27 c p1
1 0.3843 0 srgb
194.57 77.31 0.27 c p1
0.9412 0 0 srgb
194.57 68.82 0.27 c p1
0.4980 0 0 srgb
194.57 73.59 0.27 c p1
0 0 0.4980 srgb
196.19 78.41 0.27 c p1
0 0 0.9412 srgb
196.19 88.81 0.27 c p1
0 0.3843 1 srgb
196.19 81.01 0.27 c p1
0 0.8314 1 srgb
196.19 77.40 0.27 c p1
0.2745 1 0.7176 srgb
196.19 84.76 0.27 c p1
0.7176 1 0.2745 srgb
196.19 76.46 0.27 c p1
1 0.8314 0 srgb
196.19 73.27 0.27 c p1
1 0.3843 0 srgb
196.19 88.21 0.27 c p1
0.9412 0 0 srgb
196.19 84.02 0.27 c p1
0.4980 0 0 srgb
196.19 76.14 0.27 c p1
0 0 0.4980 srgb
197.81 89.96 0.27 c p1
0 0 0.9412 srgb
197.81 92.02 0.27 c p1
0 0.3843 1 srgb
197.81 104.55 0.27 c p1
0 0.8314 1 srgb
197.81 87.69 0.27 c p1
0.2745 1 0.7176 srgb
197.81 83.84 0.27 c p1
0.7176 1 0.2745 srgb
197.81 97.28 0.27 c p1
1 0.8314 0 srgb
197.81 78.54 0.27 c p1
1 0.3843 0 srgb
197.81 100.33 0.27 c p1
0.9412 0 0 srgb
197.81 80.08 0.27 c p1
0.4980 0 0 srgb
197.81 93.18 0.27 c p1
0 0 0.4980 srgb
199.43 115.57 0.27 c p1
0 0 0.9412 srgb
199.43 116.59 0.27 c p1
0 0.3843 1 srgb
199.43 134.75 0.27 c p1
0 0.8314 1 srgb
199.43 110.73 0.27 c p1
0.2745 1 0.7176 srgb
199.43 73.10 0.27 c p1
0.7176 1 0.2745 srgb
199.43 93.13 0.27 c p1
1 0.8314 0 srgb
199.43 69.31 0.27 c p1
1 0.3843 0 srgb
199.43 92.66 0.27 c p1
0.9412 0 0 srgb
199.43 67.93 0.27 c p1
0.4980 0 0 srgb
199.43 89.36 0.27 c p1
0 0 0.4980 srgb
201.05 126.65 0.27 c p1
0 0 0.9412 srgb
201.05 114.15 0.27 c p1
0 0.3843 1 srgb
201.05 106.86 0.27 c p1
0 0.8314 1 srgb
201.05 112.10 0.27 c p1
0.2745 1 0.7176 srgb
201.05 110.12 0.27 c p1
0.7176 1 0.2745 srgb
201.05 101.39 0.27 c p1
1 0.8314 0 srgb
201.05 104.37 0.27 c p1
1 0.3843 0 srgb
201.05 90.74 0.27 c p1
0.9412 0 0 srgb
201.05 92.67 0.27 c p1
0.4980 0 0 srgb
201.05 85.66 0.27 c p1
0 0 0.4980 srgb
202.67 118.29 0.27 c p1
0 0 0.9412 srgb
202.67 102.49 0.27 c p1
0 0.3843 1 srgb
202.67 112.91 0.27 c p1
0 0.8314 1 srgb
202.67 106.61 0.27 c p1
0.2745 1 0.7176 srgb
202.67 103.30 0.27 c p1
0.7176 1 0.2745 srgb
202.67 106.75 0.27 c p1
1 0.8314 0 srgb
202.67 107.12 0.27 c p1
1 0.3843 0 srgb
202.67 103.83 0.27 c p1
0.9412 0 0 srgb
202.67 115.41 0.27 c p1
0.4980 0 0 srgb
202.67 114.54 0.27 c p1
0 0 0.4980 srgb
204.29 109.85 0.27 c p1
0 0 0.9412 srgb
204.29 105.69 0.27 c p1
0 0.3843 1 srgb
204.29 129.42 0.27 c p1
0 0.8314 1 srgb
204.29 104.95 0.27 c p1
0.2745 1 0.7176 srgb
204.29 115.09 0.27 c p1
0.7176 1 0.2745 srgb
204.29 131.01 0.27 c p1
1 0.8314 0 srgb
204.29 114.09 0.27 c p1
1 0.3843 0 srgb
204.29 138.13 0.27 c p1
0.9412 0 0 srgb
204.29 131.37 0.27 c p1
0.4980 0 0 srgb
204.29 142.14 0.27 c p1
0 0 0.4980 srgb
205.90 89.22 0.27 c p1
0 0 0.9412 srgb
205.90 107.05 0.27 c p1
0 0.3843 1 srgb
205.90 99.60 0.27 c p1
0 0.8314 1 srgb
205.90 97.20 0.27 c p1
0.2745 1 0.7176 srgb
205.90 112.25 0.27 c p1
0.7176 1 0.2745 srgb
205.90 98.79 0.27 c p1
1 0.8314 0 srgb
205.90 102.18 0.27 c p1
1 0.3843 0 srgb
205.90 128.74 0.27 c p1
0.9412 0 0 srgb
205.90 144.51 0.27 c p1
0.4980 0 0 srgb
205.90 124.40 0.27 c p1
0 0 0.4980 srgb
207.52 105.53 0.27 c p1
0 0 0.9412 srgb
207.52 104.15 0.27 c p1
0 0.3843 1 srgb
207.52 119.11 0.27 c p1
0 0.8314 1 srgb
207.52 93.79 0.27 c p1
0.2745 1 0.7176 srgb
207.52 88.60 0.27 c p1
0.7176 1 0.2745 srgb
207.52 101.37 0.27 c p1
1 0.8314 0 srgb
207.52 76.19 0.27 c p1
1 0.3843 0 srgb
207.52 100.14 0.27 c p1
0.9412 0 0 srgb
207.52 74.68 0.27 c p1
0.4980 0 0 srgb
207.52 89.76 0.27 c p1
0 0 0.4980 srgb
209.14 80.14 0.27 c p1
0 0 0.9412 srgb
209.14 86.41 0.27 c p1
0 0.3843 1 srgb
209.14 83.51 0.27 c p1
0 0.8314 1 srgb
209.14 88.64 0.27 c p1
0.2745 1 0.7176 srgb
209.14 79.52 0.27 c p1
0.7176 1 0.2745 srgb
209.14 76.65 0.27 c p1
1 0.8314 0 srgb
209.14 81.63 0.27 c p1
1 0.3843 0 srgb
209.14 83.40 0.27 c p1
0.9412 0 0 srgb
209.14 88.14 0.27 c p1
0.4980 0 0 srgb
209.14 85.87 0.27 c p1
0 0 0.4980 srgb
210.76 102.99 0.27 c p1
0 0 0.9412 srgb
210.76 105.40 0.27 c p1
0 0.3843 1 srgb
210.76 105.90 0.27 c p1
0 0.8314 1 srgb
210.76 101.94 0.27 c p1
0.2745 1 0.7176 srgb
210.76 85.20 0.27 c p1
0.7176 1 0.2745 srgb
210.76 87.67 0.27 c p1
1 0.8314 0 srgb
210.76 83.05 0.27 c p1
1 0.3843 0 srgb
210.76 89.31 0.27 c p1
0.9412 0 0 srgb
210.76 83.73 0.27 c p1
0.4980 0 0 srgb
210.76 86.14 0.27 c p1
0 0 0.4980 srgb
212.38 90.76 0.27 c p1
0 0 0.9412 srgb
212.38 101.02 0.27 c p1
0 0.3843 1 srgb
212.38 98.30 0.27 c p1
0 0.8314 1 srgb
212.38 90.18 0.27 c p1
0.2745 1 0.7176 srgb
212.38 86.72 0.27 c p1
0.7176 1 0.2745 srgb
212.38 81.53 0.27 c p1
1 0.8314 0 srgb
212.38 75.28 0.27 c p1
1 0.3843 0 srgb
212.38 93.98 0.27 c p1
0.9412 0 0 srgb
212.38 84.61 0.27 c p1
0.4980 0 0 srgb
212.38 83.18 0.27 c p1
0 0 0.4980 srgb
214.00 100.61 0.27 c p1
0 0 0.9412 srgb
214.00 87.01 0.27 c p1
0 0.3843 1 srgb
214.00 110.18 0.27 c p1
0 0.8314 1 srgb
214.00 88.30 0.27 c p1
0.2745 1 0.7176 srgb
214.00 82.57 0.27 c p1
0.7176 1 0.2745 srgb
214.00 105.62 0.27 c p1
1 0.8314 0 srgb
214.00 84.08 0.27 c p1
1 0.3843 0 srgb
214.00 92.30 0.27 c p1
0.9412 0 0 srgb
214.00 69.24 0.27 c p1
0.4980 0 0 srgb
214.00 93.16 0.27 c p1
0 0 0.4980 srgb
215.62 111.45 0.27 c p1
0 0 0.9412 srgb
215.62 123.99 0.27 c p1
0 0.3843 1 srgb
215.62 116.41 0.27 c p1
0 0.8314 1 srgb
215.62 107.04 0.27 c p1
0.2745 1 0.7176 srgb
215.62 130.18 0.27 c p1
0.7176 1 0.2745 srgb
215.62 116.66 0.27 c p1
1 0.8314 0 srgb
215.62 112.24 0.27 c p1
1 0.3843 0 srgb
215.62 142.45 0.27 c p1
0.9412 0 0 srgb
215.62 147.76 0.27 c p1
0.4980 0 0 srgb
215.62 129.17 0.27 c p1
0 0 0.4980 srgb
217.24 108.62 0.27 c p1
0 0 0.9412 srgb
217.24 106.85 0.27 c p1
0 0.3843 1 srgb
217.24 126.83 0.27 c p1
0 0.8314 1 srgb
217.24 125.07 0.27 c p1
0.2745 1 0.7176 srgb
217.24 99.32 0.27 c p1
0.7176 1 0.2745 srgb
217.24 113.44 0.27 c p1
1 0.8314 0 srgb
217.24 118.02 0.27 c p1
1 0.3843 0 srgb
217.24 124.81 0.27 c p1
0.9412 0 0 srgb
217.24 138.44 0.27 c p1
0.4980 0 0 srgb
217.24 147.31 0.27 c p1
0 0 0.4980 srgb
218.86 128.61 0.27 c p1
0 0 0.9412 srgb
218.86 124.18 0.27 c p1
0 0.3843 1 srgb
218.86 128.14 0.27 c p1
0 0.8314 1 srgb
218.86 109.53 0.27 c p1
0.2745 1 0.7176 srgb
218.86 105.63 0.27 c p1
0.7176 1 0.2745 srgb
218.86 112.48 0.27 c p1
1 0.8314 0 srgb
218.86 94.23 0.27 c p1
1 0.3843 0 srgb
218.86 105.48 0.27 c p1
0.9412 0 0 srgb
218.86 86.29 0.27 c p1
0.4980 0 0 srgb
218.86 93.91 0.27 c p1
0 0 0.4980 srgb
220.48 85.56 0.27 c p1
0 0 0.9412 srgb
220.48 104.81 0.27 c p1
0 0.3843 1 srgb
220.48 91.61 0.27 c p1
0 0.8314 1 srgb
220.48 78.21 0.27 c p1
0.2745 1 0.7176 srgb
220.48 114.53 0.27 c p1
0.7176 1 0.2745 srgb
220.48 102.93 0.27 c p1
1 0.8314 0 srgb
220.48 87.87 0.27 c p1
1 0.3843 0 srgb
220.48 122.82 0.27 c p1
0.9412 0 0 srgb
220.48 108.59 0.27 c p1
0.4980 0 0 srgb
220.48 95.77 0.27 c p1
0 0 0.4980 srgb
222.10 91.25 0.27 c p1
0 0 0.9412 srgb
222.10 91.77 0.27 c p1
0 0.3843 1 srgb
222.10 90.08 0.27 c p1
0 0.8314 1 srgb
222.10 88.69 0.27 c p1
0.2745 1 0.7176 srgb
222.10 84.01 0.27 c p1
0.7176 1 0.2745 srgb
222.10 82.52 0.27 c p1
1 0.8314 0 srgb
222.10 81.02 0.27 c p1
1 0.3843 0 srgb
222.10 83.15 0.27 c p1
0.9412 0 0 srgb
222.10 80.22 0.27 c p1
0.4980 0 0 srgb
222.10 80.23 0.27 c p1
0 0 0.4980 srgb
223.71 85.71 0.27 c p1
0 0 0.9412 srgb
223.71 92.23 0.27 c p1
0 0.3843 1 srgb
223.71 94.72 0.27 c p1
0 0.8314 1 srgb
223.71 86.97 0.27 c p1
0.2745 1 0.7176 srgb
223.71 79.21 0.27 c p1
0.7176 1 0.2745 srgb
223.71 82.04 0.27 c p1
1 0.8314 0 srgb
223.71 73.78 0.27 c p1
1 0.3843 0 srgb
223.71 89.70 0.27 c p1
0.9412 0 0 srgb
223.71 81.55 0.27 c p1
0.4980 0 0 srgb
223.71 84.12 0.27 c p1
0 0 0.4980 srgb
225.33 107.08 0.27 c p1
0 0 0.9412 srgb
225.33 115.66 0.27 c p1
0 0.3843 1 srgb
225.33 134.85 0.27 c p1
0 0.8314 1 srgb
225.33 111.02 0.27 c p1
0.2745 1 0.7176 srgb
225.33 98.73 0.27 c p1
0.7176 1 0.2745 srgb
225.33 112.11 0.27 c p1
1 0.8314 0 srgb
225.33 93.61 0.27 c p1
1 0.3843 0 srgb
225.33 132.48 0.27 c p1
0.9412 0 0 srgb
225.33 125.06 0.27 c p1
0.4980 0 0 srgb
225.33 133.26 0.27 c p1
0 0 0.4980 srgb
226.95 84.20 0.27 c p1
0 0 0.9412 srgb
226.95 100.85 0.27 c p1
0 0.3843 1 srgb
226.95 99.45 0.27 c p1
0 0.8314 1 srgb
226.95 82.49 0.27 c p1
0.2745 1 0.7176 srgb
226.95 96.25 0.27 c p1
0.7176 1 0.2745 srgb
226.95 93.42 0.27 c p1
1 0.8314 0 srgb
226.95 76.71 0.27 c p1
1 0.3843 0 srgb
226.95 110.03 0.27 c p1
0.9412 0 0 srgb
226.95 93.90 0.27 c p1
0.4980 0 0 srgb
226.95 93.10 0.27 c p1
0 0 0.4980 srgb
228.57 92.92 0.27 c p1
0 0 0.9412 srgb
228.57 96.14 0.27 c p1
0 0.3843 1 srgb
228.57 92.25 0.27 c p1
0 0.8314 1 srgb
228.57 98.75 0.27 c p1
0.2745 1 0.7176 srgb
228.57 78.68 0.27 c p1
0.7176 1 0.2745 srgb
228.57 74.78 0.27 c p1
1 0.8314 0 srgb
228.57 82.06 0.27 c p1
1 0.3843 0 srgb
228.57 80.71 0.27 c p1
0.9412 0 0 srgb
228.57 85.85 0.27 c p1
0.4980 0 0 srgb
228.57 82.02 0.27 c p1
0 0 0.4980 srgb
230.19 91.23 0.27 c p1
0 0 0.9412 srgb
230.19 94.55 0.27 c p1
0 0.3843 1 srgb
230.19 110.49 0.27 c p1
0 0.8314 1 srgb
230.19 87.42 0.27 c p1
0.2745 1 0.7176 srgb
230.19 92.51 0.27 c p1
0.7176 1 0.2745 srgb
230.19 108.28 0.27 c p1
1 0.8314 0 srgb
230.19 86.40 0.27 c p1
1 0.3843 0 srgb
230.19 114.11 0.27 c p1
0.9412 0 0 srgb
230.19 90.13 0.27 c p1
0.4980 0 0 srgb
230.19 106.36 0.27 c p1
0 0 0.4980 srgb
231.81 124.61 0.27 c p1
0 0 0.9412 srgb
231.81 129.14 0.27 c p1
0 0.3843 1 srgb
231.81 159.75 0.27 c p1
0 0.8314 1 srgb
231.81 116.30 0.27 c p1
0.2745 1 0.7176 srgb
231.81 92.44 0.27 c p1
0.7176 1 0.2745 srgb
231.81 121.65 0.27 c p1
1 0.8314 0 srgb
231.81 81.82 0.27 c p1
1 0.3843 0 srgb
231.81 127.27 0.27 c p1
0.9412 0 0 srgb
231.81 86.70 0.27 c p1
0.4980 0 0 srgb
231.81 116.95 0.27 c p1
0 0 0.4980 srgb
233.43 157.83 0.27 c p1
0 0 0.9412 srgb
233.43 166.76 0.27 c p1
0 0.3843 1 srgb
233.43 204.74 0.27 c p1
0 0.8314 1 srgb
233.43 157.90 0.27 c p1
0.2745 1 0.7176 srgb
233.43 122.98 0.27 c p1
0.7176 1 0.2745 srgb
233.43 154.96 0.27 c p1
1 0.8314 0 srgb
233.43 114.36 0.27 c p1
1 0.3843 0 srgb
233.43 175.83 0.27 c p1
0.9412 0 0 srgb
233.43 145.99 0.27 c p1
0.4980 0 0 srgb
233.43 172.66 0.27 c p1
0 0 0.4980 srgb
235.05 91.56 0.27 c p1
0 0 0.9412 srgb
235.05 97.96 0.27 c p1
0 0.3843 1 srgb
235.05 112.12 0.27 c p1
0 0.8314 1 srgb
235.05 92.19 0.27 c p1
0.2745 1 0.7176 srgb
235.05 86.36 0.27 c p1
0.7176 1 0.2745 srgb
235.05 100.25 0.27 c p1
1 0.8314 0 srgb
235.05 79.17 0.27 c p1
1 0.3843 0 srgb
235.05 107.68 0.27 c p1
0.9412 0 0 srgb
235.05 87.46 0.27 c p1
0.4980 0 0 srgb
235.05 101.76 0.27 c p1
0 0 0.4980 srgb
236.67 87.40 0.27 c p1
0 0 0.9412 srgb
236.67 104.18 0.27 c p1
0 0.3843 1 srgb
236.67 88.80 0.27 c p1
0 0.8314 1 srgb
236.67 96.21 0.27 c p1
0.2745 1 0.7176 srgb
236.67 93.75 0.27 c p1
0.7176 1 0.2745 srgb
236.67 78.48 0.27 c p1
1 0.8314 0 srgb
236.67 85.70 0.27 c p1
1 0.3843 0 srgb
236.67 95.39 0.27 c p1
0.9412 0 0 srgb
236.67 101.94 0.27 c p1
0.4980 0 0 srgb
236.67 87.13 0.27 c p1
0 0 0.4980 srgb
238.29 94.73 0.27 c p1
0 0 0.9412 srgb
238.29 101.67 0.27 c p1
0 0.3843 1 srgb
238.29 106.22 0.27 c p1
0 0.8314 1 srgb
238.29 94.63 0.27 c p1
0.2745 1 0.7176 srgb
238.29 84.36 0.27 c p1
0.7176 1 0.2745 srgb
238.29 88.80 0.27 c p1
1 0.8314 0 srgb
238.29 77.26 0.27 c p1
1 0.3843 0 srgb
238.29 96.78 0.27 c p1
0.9412 0 0 srgb
238.29 84.87 0.27 c p1
0.4980 0 0 srgb
238.29 89.84 0.27 c p1
0 0 0.4980 srgb
239.90 119.76 0.27 c p1
0 0 0.9412 srgb
239.90 113.75 0.27 c p1
0 0.3843 1 srgb
239.90 115.67 0.27 c p1
0 0.8314 1 srgb
239.90 100.02 0.27 c p1
0.2745 1 0.7176 srgb
239.90 119.14 0.27 c p1
0.7176 1 0.2745 srgb
239.90 120.95 0.27 c p1
1 0.8314 0 srgb
239.90 105.48 0.27 c p1
1 0.3843 0 srgb
239.90 114.94 0.27 c p1
0.9412 0 0 srgb
239.90 98.80 0.27 c p1
0.4980 0 0 srgb
239.90 101.23 0.27 c p1
0 0 0.4980 srgb
241.52 99.26 0.27 c p1
0 0 0.9412 srgb
241.52 90.94 0.27 c p1
0 0.3843 1 srgb
241.52 95.95 0.27 c p1
0 0.8314 1 srgb
241.52 93.42 0.27 c p1
0.2745 1 0.7176 srgb
241.52 80.66 0.27 c p1
0.7176 1 0.2745 srgb
241.52 84.50 0.27 c p1
1 0.8314 0 srgb
241.52 83.08 0.27 c p1
1 0.3843 0 srgb
241.52 76.88 0.27 c p1
0.9412 0 0 srgb
241.52 73.69 0.27 c p1
0.4980 0 0 srgb
241.52 79.48 0.27 c p1
0 0 0.4980 srgb
243.14 81.48 0.27 c p1
0 0 0.9412 srgb
243.14 76.44 0.27 c p1
0 0.3843 1 srgb
243.14 97.33 0.27 c p1
0 0.8314 1 srgb
243.14 86.45 0.27 c p1
0.2745 1 0.7176 srgb
243.14 73.25 0.27 c p1
0.7176 1 0.2745 srgb
243.14 93.89 0.27 c p1
1 0.8314 0 srgb
243.14 83.43 0.27 c p1
1 0.3843 0 srgb
243.14 89.56 0.27 c p1
0.9412 0 0 srgb
243.14 78.19 0.27 c p1
0.4980 0 0 srgb
243.14 99.98 0.27 c p1
0 0 0.4980 srgb
244.76 84.30 0.27 c p1
0 0 0.9412 srgb
244.76 86.20 0.27 c p1
0 0.3843 1 srgb
244.76 92.10 0.27 c p1
0 0.8314 1 srgb
244.76 76.39 0.27 c p1
0.2745 1 0.7176 srgb
244.76 87.07 0.27 c p1
0.7176 1 0.2745 srgb
244.76 92.37 0.27 c p1
1 0.8314 0 srgb
244.76 76.64 0.27 c p1
1 0.3843 0 srgb
244.76 94.22 0.27 c p1
0.9412 0 0 srgb
244.76 76.67 0.27 c p1
0.4980 0 0 srgb
244.76 84.22 0.27 c p1
0 0 0.4980 srgb
246.38 180.88 0.27 c p1
0 0 0.9412 srgb
246.38 182.11 0.27 c p1
0 0.3843 1 srgb
246.38 241.95 0.27 c p1
0 0.8314 1 srgb
246.38 191.94 0.27 c p1
0.2745 1 0.7176 srgb
246.38 78.32 0.27 c p1
0.7176 1 0.2745 srgb
246.38 139.87 0.27 c p1
1 0.8314 0 srgb
246.38 88.54 0.27 c p1
1 0.3843 0 srgb
246.38 141.33 0.27 c p1
0.9412 0 0 srgb
246.38 89.40 0.27 c p1
0.4980 0 0 srgb
246.38 152.84 0.27 c p1
0 0 0.4980 srgb
248.00 88.69 0.27 c p1
0 0 0.9412 srgb
248.00 99.02 0.27 c p1
0 0.3843 1 srgb
248.00 87.88 0.27 c p1
0 0.8314 1 srgb
248.00 86.63 0.27 c p1
0.2745 1 0.7176 srgb
248.00 104.57 0.27 c p1
0.7176 1 0.2745 srgb
248.00 93.51 0.27 c p1
1 0.8314 0 srgb
248.00 89.02 0.27 c p1
1 0.3843 0 srgb
248.00 104.22 0.27 c p1
0.9412 0 0 srgb
248.00 98.22 0.27 c p1
0.4980 0 0 srgb
248.00 89.33 0.27 c p1
0 0 0.4980 srgb
249.62 108.65 0.27 c p1
0 0 0.9412 srgb
249.62 123.91 0.27 c p1
0 0.3843 1 srgb
249.62 125.10 0.27 c p1
0 0.8314 1 srgb
249.62 100.01 0.27 c p1
0.2745 1 0.7176 srgb
249.62 99.78 0.27 c p1
0.7176 1 0.2745 srgb
249.62 102.15 0.27 c p1
1 0.8314 0 srgb
249.62 76.86 0.27 c p1
1 0.3843 0 srgb
249.62 117.16 0.27 c p1
0.9412 0 0 srgb
249.62 91.83 0.27 c p1
0.4980 0 0 srgb
249.62 95.44 0.27 c p1
0 0 0.4980 srgb
251.24 104.46 0.27 c p1
0 0 0.9412 srgb
251.24 99.71 0.27 c p1
0 0.3843 1 srgb
251.24 112.77 0.27 c p1
0 0.8314 1 srgb
251.24 98.03 0.27 c p1
0.2745 1 0.7176 srgb
251.24 90.83 0.27 c p1
0.7176 1 0.2745 srgb
251.24 105.38 0.27 c p1
1 0.8314 0 srgb
251.24 90.64 0.27 c p1
1 0.3843 0 srgb
251.24 100.81 0.27 c p1
0.9412 0 0 srgb
251.24 85.72 0.27 c p1
0.4980 0 0 srgb
251.24 100.24 0.27 c p1
0 0 0.4980 srgb
252.86 101.66 0.27 c p1
0 0 0.9412 srgb
252.86 108.89 0.27 c p1
0 0.3843 1 srgb
252.86 106.29 0.27 c p1
0 0.8314 1 srgb
252.86 92.00 0.27 c p1
0.2745 1 0.7176 srgb
252.86 102.43 0.27 c p1
0.7176 1 0.2745 srgb
252.86 103.79 0.27 c p1
1 0.8314 0 srgb
252.86 85.72 0.27 c p1
1 0.3843 0 srgb
252.86 111.81 0.27 c p1
0.9412 0 0 srgb
252.86 92.99 0.27 c p1
0.4980 0 0 srgb
252.86 94.96 0.27 c p1
0 0 0.4980 srgb
254.48 79.40 0.27 c p1
0 0 0.9412 srgb
254.48 83.31 0.27 c p1
0 0.3843 1 srgb
254.48 89.32 0.27 c p1
0 0.8314 1 srgb
254.48 90.15 0.27 c p1
0.2745 1 0.7176 srgb
254.48 82.39 0.27 c p1
0.7176 1 0.2745 srgb
254.48 87.35 0.27 c p1
1 0.8314 0 srgb
254.48 88.67 0.27 c p1
1 0.3843 0 srgb
254.48 92.01 0.27 c p1
0.9412 0 0 srgb
254.48 92.15 0.27 c p1
0.4980 0 0 srgb
254.48 98.22 0.27 c p1
0 0 0.4980 srgb
256.10 83.65 0.27 c p1
0 0 0.9412 srgb
256.10 94.36 0.27 c p1
0 0.3843 1 srgb
256.10 101.48 0.27 c p1
0 0.8314 1 srgb
256.10 90.72 0.27 c p1
0.2745 1 0.7176 srgb
256.10 94.70 0.27 c p1
0.7176 1 0.2745 srgb
256.10 100.58 0.27 c p1
1 0.8314 0 srgb
256.10 90.08 0.27 c p1
1 0.3843 0 srgb
256.10 112.30 0.27 c p1
0.9412 0 0 srgb
256.10 100.34 0.27 c p1
0.4980 0 0 srgb
256.10 107.97 0.27 c p1
0 0 0.4980 srgb
257.71 74.12 0.27 c p1
0 0 0.9412 srgb
257.71 101.26 0.27 c p1
0 0.3843 1 srgb
257.71 80.88 0.27 c p1
0 0.8314 1 srgb
257.71 75.04 0.27 c p1
0.2745 1 0.7176 srgb
257.71 102.00 0.27 c p1
0.7176 1 0.2745 srgb
257.71 81.09 0.27 c p1
1 0.8314 0 srgb
257.71 75.66 0.27 c p1
1 0.3843 0 srgb
257.71 109.18 0.27 c p1
0.9412 0 0 srgb
257.71 102.81 0.27 c p1
0.4980 0 0 srgb
257.71 82.77 0.27 c p1
0 0 0.4980 srgb
259.33 87.96 0.27 c p1
0 0 0.9412 srgb
259.33 77.85 0.27 c p1
0 0.3843 1 srgb
259.33 81.70 0.27 c p1
0 0.8314 1 srgb
259.33 78.61 0.27 c p1
0.2745 1 0.7176 srgb
259.33 88.40 0.27 c p1
0.7176 1 0.2745 srgb
259.33 92.55 0.27 c p1
1 0.8314 0 srgb
259.33 90.03 0.27 c p1
1 0.3843 0 srgb
259.33 81.54 0.27 c p1
0.9412 0 0 srgb
259.33 77.93 0.27 c p1
0.4980 0 0 srgb
259.33 82.54 0.27 c p1
0 0 0.4980 srgb
260.95 93.62 0.27 c p1
0 0 0.9412 srgb
260.95 92.70 0.27 c p1
0 0.3843 1 srgb
260.95 109.51 0.27 c p1
0 0.8314 1 srgb
260.95 99.23 0.27 c p1
0.2745 1 0.7176 srgb
260.95 84.69 0.27 c p1
0.7176 1 0.2745 srgb
260.95 101.00 0.27 c p1
1 0.8314 0 srgb
260.95 91.09 0.27 c p1
1 0.3843 0 srgb
260.95 102.00 0.27 c p1
0.9412 0 0 srgb
260.95 89.16 0.27 c p1
0.4980 0 0 srgb
260.95 106.95 0.27 c p1
0 0 0.4980 srgb
262.57 90.27 0.27 c p1
0 0 0.9412 srgb
262.57 101.03 0.27 c p1
0 0.3843 1 srgb
262.57 94.26 0.27 c p1
0 0.8314 1 srgb
262.57 91.63 0.27 c p1
0.2745 1 0.7176 srgb
262.57 85.11 0.27 c p1
0.7176 1 0.2745 srgb
262.57 76.93 0.27 c p1
1 0.8314 0 srgb
262.57 74.00 0.27 c p1
1 0.3843 0 srgb
262.57 89.51 0.27 c p1
0.9412 0 0 srgb
262.57 84.77 0.27 c p1
0.4980 0 0 srgb
262.57 78.58 0.27 c p1
0 0 0.4980 srgb
264.19 89.35 0.27 c p1
0 0 0.9412 srgb
264.19 101.42 0.27 c p1
0 0.3843 1 srgb
264.19 111.61 0.27 c p1
0 0.8314 1 srgb
264.19 82.41 0.27 c p1
0.2745 1 0.7176 srgb
264.19 104.45 0.27 c p1
0.7176 1 0.2745 srgb
264.19 117.77 0.27 c p1
1 0.8314 0 srgb
264.19 88.99 0.27 c p1
1 0.3843 0 srgb
264.19 127.80 0.27 c p1
0.9412 0 0 srgb
264.19 96.57 0.27 c p1
0.4980 0 0 srgb
264.19 110.07 0.27 c p1
0 0 0.4980 srgb
265.81 90.53 0.27 c p1
0 0 0.9412 srgb
265.81 86.67 0.27 c p1
0 0.3843 1 srgb
265.81 91.19 0.27 c p1
0 0.8314 1 srgb
265.81 90.69 0.27 c p1
0.2745 1 0.7176 srgb
265.81 82.83 0.27 c p1
0.7176 1 0.2745 srgb
265.81 87.15 0.27 c p1
1 0.8314 0 srgb
265.81 85.52 0.27 c p1
1 0.3843 0 srgb
265.81 85.09 0.27 c p1
0.9412 0 0 srgb
265.81 82.39 0.27 c p1
0.4980 0 0 srgb
265.81 89.57 0.27 c p1
0 0 0.4980 srgb
267.43 77.64 0.27 c p1
0 0 0.9412 srgb
267.43 80.68 0.27 c p1
0 0.3843 1 srgb
267.43 85.40 0.27 c p1
0 0.8314 1 srgb
267.43 77.09 0.27 c p1
0.2745 1 0.7176 srgb
267.43 78.86 0.27 c p1
0.7176 1 0.2745 srgb
267.43 83.22 0.27 c p1
1 0.8314 0 srgb
267.43 74.84 0.27 c p1
1 0.3843 0 srgb
267.43 86.97 0.27 c p1
0.9412 0 0 srgb
267.43 78.73 0.27 c p1
0.4980 0 0 srgb
267.43 82.79 0.27 c p1
0 0 0.4980 srgb
269.05 134.66 0.27 c p1
0 0 0.9412 srgb
269.05 119.91 0.27 c p1
0 0.3843 1 srgb
269.05 130.81 0.27 c p1
0 0.8314 1 srgb
269.05 110.63 0.27 c p1
0.2745 1 0.7176 srgb
269.05 114.08 0.27 c p1
0.7176 1 0.2745 srgb
269.05 129.10 0.27 c p1
1 0.8314 0 srgb
269.05 105.71 0.27 c p1
1 0.3843 0 srgb
269.05 112.09 0.27 c p1
0.9412 0 0 srgb
269.05 88.95 0.27 c p1
0.4980 0 0 srgb
269.05 102.03 0.27 c p1
0 0 0.4980 srgb
270.67 117.70 0.27 c p1
0 0 0.9412 srgb
270.67 116.29 0.27 c p1
0 0.3843 1 srgb
270.67 121.49 0.27 c p1
0 0.8314 1 srgb
270.67 115.58 0.27 c p1
0.2745 1 0.7176 srgb
270.67 82.39 0.27 c p1
0.7176 1 0.2745 srgb
270.67 90.43 0.27 c p1
1 0.8314 0 srgb
270.67 82.03 0.27 c p1
1 0.3843 0 srgb
270.67 86.92 0.27 c p1
0.9412 0 0 srgb
270.67 78.75 0.27 c p1
0.4980 0 0 srgb
270.67 89.13 0.27 c p1
0 0 0.4980 srgb
272.29 90.21 0.27 c p1
0 0 0.9412 srgb
272.29 115.07 0.27 c p1
0 0.3843 1 srgb
272.29 89.98 0.27 c p1
0 0.8314 1 srgb
272.29 94.48 0.27 c p1
0.2745 1 0.7176 srgb
272.29 108.57 0.27 c p1
0.7176 1 0.2745 srgb
272.29 86.83 0.27 c p1
1 0.8314 0 srgb
272.29 90.24 0.27 c p1
1 0.3843 0 srgb
272.29 109.06 0.27 c p1
0.9412 0 0 srgb
272.29 113.33 0.27 c p1
0.4980 0 0 srgb
272.29 90.20 0.27 c p1
0 0 0.4980 srgb
273.90 93.24 0.27 c p1
0 0 0.9412 srgb
273.90 73.22 0.27 c p1
0 0.3843 1 srgb
273.90 82.24 0.27 c p1
0 0.8314 1 srgb
273.90 67.52 0.27 c p1
0.2745 1 0.7176 srgb
273.90 99.45 0.27 c p1
0.7176 1 0.2745 srgb
273.90 107.65 0.27 c p1
1 0.8314 0 srgb
273.90 93.29 0.27 c p1
1 0.3843 0 srgb
273.90 88.28 0.27 c p1
0.9412 0 0 srgb
273.90 73.12 0.27 c p1
0.4980 0 0 srgb
273.90 82.92 0.27 c p1
0 0 0.4980 srgb
275.52 99.24 0.27 c p1
0 0 0.9412 srgb
275.52 86.63 0.27 c p1
0 0.3843 1 srgb
275.52 93.10 0.27 c p1
0 0.8314 1 srgb
275.52 82.69 0.27 c p1
0.2745 1 0.7176 srgb
275.52 97.35 0.27 c p1
0.7176 1 0.2745 srgb
275.52 103.60 0.27 c p1
1 0.8314 0 srgb
275.52 93.09 0.27 c p1
1 0.3843 0 srgb
275.52 91.70 0.27 c p1
0.9412 0 0 srgb
275.52 80.74 0.27 c p1
0.4980 0 0 srgb
275.52 87.56 0.27 c p1
0 0 0.4980 srgb
277.14 88.54 0.27 c p1
0 0 0.9412 srgb
277.14 103.32 0.27 c p1
0 0.3843 1 srgb
277.14 94.59 0.27 c p1
0 0.8314 1 srgb
277.14 88.46 0.27 c p1
0.2745 1 0.7176 srgb
277.14 104.12 0.27 c p1
0.7176 1 0.2745 srgb
277.14 94.95 0.27 c p1
1 0.8314 0 srgb
277.14 89.10 0.27 c p1
1 0.3843 0 srgb
277.14 109.55 0.27 c p1
0.9412 0 0 srgb
277.14 103.86 0.27 c p1
0.4980 0 0 srgb
277.14 95.48 0.27 c p1
0 0 0.4980 srgb
278.76 84.02 0.27 c p1
0 0 0.9412 srgb
278.76 86.01 0.27 c p1
0 0.3843 1 srgb
278.76 105.76 0.27 c p1
0 0.8314 1 srgb
278.76 76.64 0.27 c p1
0.2745 1 0.7176 srgb
278.76 87.69 0.27 c p1
0.7176 1 0.2745 srgb
278.76 107.80 0.27 c p1
1 0.8314 0 srgb
278.76 78.33 0.27 c p1
1 0.3843 0 srgb
278.76 110.50 0.27 c p1
0.9412 0 0 srgb
278.76 78.57 0.27 c p1
0.4980 0 0 srgb
278.76 98.91 0.27 c p1
0 0 0.4980 srgb
280.38 88.80 0.27 c p1
0 0 0.9412 srgb
280.38 85.88 0.27 c p1
0 0.3843 1 srgb
280.38 97.28 0.27 c p1
0 0.8314 1 srgb
280.38 85.33 0.27 c p1
0.2745 1 0.7176 srgb
280.38 82.24 0.27 c p1
0.7176 1 0.2745 srgb
280.38 94.65 0.27 c p1
1 0.8314 0 srgb
280.38 82.85 0.27 c p1
1 0.3843 0 srgb
280.38 91.27 0.27 c p1
0.9412 0 0 srgb
280.38 77.71 0.27 c p1
0.4980 0 0 srgb
280.38 90.94 0.27 c p1
0 0 0.4980 srgb
282.00 133.86 0.27 c p1
0 0 0.9412 srgb
282.00 144.51 0.27 c p1
0 0.3843 1 srgb
282.00 151.18 0.27 c p1
0 0.8314 1 srgb
282.00 120.59 0.27 c p1
0.2745 1 0.7176 srgb
282.00 139.46 0.27 c p1
0.7176 1 0.2745 srgb
282.00 144.77 0.27 c p1
1 0.8314 0 srgb
282.00 116.16 0.27 c p1
1 0.3843 0 srgb
282.00 160.17 0.27 c p1
0.9412 0 0 srgb
282.00 126.92 0.27 c p1
0.4980 0 0 srgb
282.00 132.05 0.27 c p1
0 0 0.4980 srgb
283.62 112.71 0.27 c p1
0 0 0.9412 srgb
283.62 95.32 0.27 c p1
0 0.3843 1 srgb
283.62 114.08 0.27 c p1
0 0.8314 1 srgb
283.62 90.91 0.27 c p1
0.2745 1 0.7176 srgb
283.62 94.25 0.27 c p1
0.7176 1 0.2745 srgb
283.62 113.06 0.27 c p1
1 0.8314 0 srgb
283.62 92.94 0.27 c p1
1 0.3843 0 srgb
283.62 96.89 0.27 c p1
0.9412 0 0 srgb
283.62 73.46 0.27 c p1
0.4980 0 0 srgb
283.62 91.52 0.27 c p1
0 0 0.4980 srgb
285.24 97.74 0.27 c p1
0 0 0.9412 srgb
285.24 108.01 0.27 c p1
0 0.3843 1 srgb
285.24 98.94 0.27 c p1
0 0.8314 1 srgb
285.24 103.87 0.27 c p1
0.2745 1 0.7176 srgb
285.24 98.09 0.27 c p1
0.7176 1 0.2745 srgb
285.24 88.98 0.27 c p1
1 0.8314 0 srgb
285.24 93.46 0.27 c p1
1 0.3843 0 srgb
285.24 97.74 0.27 c p1
0.9412 0 0 srgb
285.24 101.77 0.27 c p1
0.4980 0 0 srgb
285.24 94.60 0.27 c p1
0 0 0.4980 srgb
286.86 123.06 0.27 c p1
0 0 0.9412 srgb
286.86 107.79 0.27 c p1
0 0.3843 1 srgb
286.86 114.72 0.27 c p1
0 0.8314 1 srgb
286.86 111.83 0.27 c p1
0.2745 1 0.7176 srgb
286.86 100.48 0.27 c p1
0.7176 1 0.2745 srgb
286.86 107.47 0.27 c p1
1 0.8314 0 srgb
286.86 108.91 0.27 c p1
1 0.3843 0 srgb
286.86 94.75 0.27 c p1
0.9412 0 0 srgb
286.86 92.48 0.27 c p1
0.4980 0 0 srgb
286.86 99.61 0.27 c p1
0 0 0.4980 srgb
288.48 99.48 0.27 c p1
0 0 0.9412 srgb
288.48 87.79 0.27 c p1
0 0.3843 1 srgb
288.48 108.90 0.27 c p1
0 0.8314 1 srgb
288.48 87.53 0.27 c p1
0.2745 1 0.7176 srgb
288.48 88.26 0.27 c p1
0.7176 1 0.2745 srgb
288.48 110.30 0.27 c p1
1 0.8314 0 srgb
288.48 87.85 0.27 c p1
1 0.3843 0 srgb
288.48 99.07 0.27 c p1
0.9412 0 0 srgb
288.48 76.58 0.27 c p1
0.4980 0 0 srgb
288.48 98.90 0.27 c p1
0 0 0.4980 srgb
290.10 97.29 0.27 c p1
0 0 0.9412 srgb
290.10 104.73 0.27 c p1
0 0.3843 1 srgb
290.10 112.58 0.27 c p1
0 0.8314 1 srgb
290.10 99.57 0.27 c p1
0.2745 1 0.7176 srgb
290.10 91.31 0.27 c p1
0.7176 1 0.2745 srgb
290.10 100.24 0.27 c p1
1 0.8314 0 srgb
290.10 87.23 0.27 c p1
1 0.3843 0 srgb
290.10 110.15 0.27 c p1
0.9412 0 0 srgb
290.10 94.28 0.27 c p1
0.4980 0 0 srgb
290.10 103.44 0.27 c p1
0 0 0.4980 srgb
291.71 94.38 0.27 c p1
0 0 0.9412 srgb
291.71 86.47 0.27 c p1
0 0.3843 1 srgb
291.71 101.15 0.27 c p1
0 0.8314 1 srgb
291.71 86.00 0.27 c p1
0.2745 1 0.7176 srgb
291.71 101.38 0.27 c p1
0.7176 1 0.2745 srgb
291.71 117.03 0.27 c p1
1 0.8314 0 srgb
291.71 100.56 0.27 c p1
1 0.3843 0 srgb
291.71 110.06 0.27 c p1
0.9412 0 0 srgb
291.71 92.54 0.27 c p1
0.4980 0 0 srgb
291.71 108.98 0.27 c p1
0 0 0.4980 srgb
293.33 97.08 0.27 c p1
0 0 0.9412 srgb
293.33 92.36 0.27 c p1
0 0.3843 1 srgb
293.33 102.47 0.27 c p1
0 0.8314 1 srgb
293.33 99.98 0.27 c p1
0.2745 1 0.7176 srgb
293.33 74.70 0.27 c p1
0.7176 1 0.2745 srgb
293.33 84.63 0.27 c p1
1 0.8314 0 srgb
293.33 81.57 0.27 c p1
1 0.3843 0 srgb
293.33 80.22 0.27 c p1
0.9412 0 0 srgb
293.33 75.76 0.27 c p1
0.4980 0 0 srgb
293.33 87.60 0.27 c p1
0.00 0.00 360.00 288.00 cl
0 0 0 srgb
0.75 setlinewidth
[] 0 setdash
1 setlinecap
1 setlinejoin
10.00 setmiterlimit
np
82.86 57.60 m
194.28 0 l
o
np
82.86 57.60 m
0 -7.20 l
o
np
115.24 57.60 m
0 -7.20 l
o
np
147.62 57.60 m
0 -7.20 l
o
np
180.00 57.60 m
0 -7.20 l
o
np
212.38 57.60 m
0 -7.20 l
o
np
244.76 57.60 m
0 -7.20 l
o
np
277.14 57.60 m
0 -7.20 l
o
/Font1 findfont 12 s
82.86 31.68 (2000) .5 0 t
147.62 31.68 (6000) .5 0 t
212.38 31.68 (10000) .5 0 t
277.14 31.68 (14000) .5 0 t
np
57.60 57.89 m
0 199.02 l
o
np
57.60 57.89 m
-7.20 0 l
o
np
57.60 97.69 m
-7.20 0 l
o
np
57.60 137.50 m
-7.20 0 l
o
np
57.60 177.30 m
-7.20 0 l
o
np
57.60 217.11 m
-7.20 0 l
o
np
57.60 256.91 m
-7.20 0 l
o
40.32 57.89 (0.0) .5 90 t
40.32 97.69 (0.1) .5 90 t
40.32 137.50 (0.2) .5 90 t
40.32 177.30 (0.3) .5 90 t
40.32 217.11 (0.4) .5 90 t
40.32 256.91 (0.5) .5 90 t
np
57.60 57.60 m
244.80 0 l
0 223.20 l
-244.80 0 l
0 -223.20 l
o
0.00 0.00 360.00 288.00 cl
/Font1 findfont 12 s
0 0 0 srgb
140.31 2.88 (nodes in gr) 0 ta
-0.120 (aph) tb gr
11.52 169.20 (Time [s]) .5 90 t
57.60 57.60 302.40 280.80 cl
0 0 0 srgb
0.38 setlinewidth
[] 0 setdash
1 setlinecap
1 setlinejoin
10.00 setmiterlimit
np
66.67 148.32 m
1.62 50.98 l
1.61 -8.85 l
1.62 -51.60 l
1.62 46.94 l
1.62 -59.14 l
1.62 19.03 l
1.62 -32.50 l
1.62 34.47 l
1.62 -24.28 l
1.62 -5.71 l
1.62 9.06 l
1.62 28.16 l
1.61 -23.03 l
1.62 -14.36 l
1.62 -32.12 l
1.62 10.82 l
1.62 4.07 l
1.62 36.82 l
1.62 -30.10 l
1.62 29.78 l
1.62 -42.58 l
1.62 29.88 l
1.61 -13.99 l
1.62 37.95 l
1.62 -14.17 l
1.62 34.65 l
1.62 -55.54 l
1.62 32.93 l
1.62 -55.94 l
1.62 11.17 l
1.62 11.60 l
1.62 18.67 l
1.62 -29.50 l
1.61 37.64 l
1.62 -4.34 l
1.62 -36.79 l
1.62 5.50 l
1.62 9.74 l
1.62 -31.79 l
1.62 94.64 l
1.62 -65.97 l
1.62 -14.91 l
1.62 13.89 l
1.61 -4.66 l
1.62 1.06 l
1.62 5.04 l
1.62 3.25 l
1.62 2.02 l
1.62 -12.04 l
1.62 -14.33 l
1.62 -11.43 l
1.62 40.18 l
1.62 -38.53 l
1.62 20.91 l
1.61 -17.69 l
1.62 55.05 l
1.62 -21.45 l
1.62 -15.71 l
1.62 -13.20 l
1.62 45.54 l
1.62 -2.30 l
1.62 -12.87 l
1.62 -7.45 l
1.62 1.35 l
1.61 -14.31 l
1.62 21.60 l
1.62 -13.05 l
1.62 4.66 l
1.62 -2.31 l
1.62 -5.30 l
1.62 6.58 l
1.62 -15.23 l
1.62 -4.15 l
1.62 13.11 l
1.62 -17.23 l
1.61 3.01 l
1.62 -2.75 l
1.62 16.91 l
1.62 -23.58 l
1.62 0.65 l
1.62 9.90 l
1.62 5.56 l
1.62 8.16 l
1.62 4.65 l
1.62 13.05 l
1.61 -11.77 l
1.62 -15.07 l
1.62 -11.94 l
1.62 9.74 l
1.62 -4.57 l
1.62 2.75 l
1.62 32.43 l
1.62 -2.87 l
1.62 -12.02 l
1.62 -9.58 l
1.62 -13.97 l
1.61 -0.30 l
1.62 31.38 l
1.62 -23.34 l
228.57 86.42 lineto
1.62 11.73 l
1.62 17.51 l
1.62 41.74 l
1.62 -61.75 l
1.62 -3.75 l
1.62 0.02 l
1.61 19.05 l
1.62 -25.18 l
1.62 0.21 l
1.62 -0.98 l
1.62 63.70 l
1.62 -54.61 l
1.62 9.98 l
1.62 -5.23 l
1.62 1.19 l
1.62 -11.75 l
1.62 9.32 l
1.61 -9.14 l
1.62 -4.57 l
1.62 13.08 l
1.62 -10.38 l
1.62 16.43 l
1.62 -15.88 l
1.62 -6.54 l
1.62 34.18 l
1.62 -16.73 l
1.62 0.73 l
1.61 -12.71 l
1.62 5.48 l
1.62 5.63 l
1.62 -5.78 l
1.62 -3.72 l
1.62 49.27 l
1.62 -39.46 l
1.62 0.81 l
1.62 7.79 l
1.62 -11.64 l
1.62 5.61 l
1.61 -0.22 l
1.62 -12.22 l
o
ep
%%Trailer
%%Pages: 1
%%EOF
