%!PS-Adobe-3.0 EPSF-3.0
%%DocumentNeededResources: font Helvetica
%%+ font Helvetica-Bold
%%+ font Helvetica-Oblique
%%+ font Helvetica-BoldOblique
%%+ font Symbol
%%Title: R Graphics Output
%%Creator: R Software
%%Pages: (atend)
%%BoundingBox: 0 0 360 288
%%EndComments
%%BeginProlog
/bp  { gs sRGB gs } def
% begin .ps.prolog
/gs  { gsave } bind def
/gr  { grestore } bind def
/ep  { showpage gr gr } bind def
/m   { moveto } bind def
/l  { rlineto } bind def
/np  { newpath } bind def
/cp  { closepath } bind def
/f   { fill } bind def
/o   { stroke } bind def
/c   { newpath 0 360 arc } bind def
/r   { 4 2 roll moveto 1 copy 3 -1 roll exch 0 exch rlineto 0 rlineto -1 mul 0 exch rlineto closepath } bind def
/p1  { stroke } bind def
/p2  { gsave bg fill grestore newpath } bind def
/p3  { gsave bg fill grestore stroke } bind def
/p6  { gsave bg eofill grestore newpath } bind def
/p7  { gsave bg eofill grestore stroke } bind def
/t   { 5 -2 roll moveto gsave rotate
       1 index stringwidth pop
       mul neg 0 rmoveto show grestore } bind def
/ta  { 4 -2 roll moveto gsave rotate show } bind def
/tb  { 2 -1 roll 0 rmoveto show } bind def
/cl  { grestore gsave newpath 3 index 3 index moveto 1 index
       4 -1 roll lineto  exch 1 index lineto lineto
       closepath clip newpath } bind def
/rgb { setrgbcolor } bind def
/s   { scalefont setfont } bind def
% end   .ps.prolog
/sRGB { [ /CIEBasedABC
          << /DecodeLMN
               [ { dup 0.03928 le
                        {12.92321 div}
                        {0.055 add 1.055 div 2.4 exp }
                     ifelse
                 } bind dup dup
               ]
             /MatrixLMN [0.412457 0.212673 0.019334
                         0.357576 0.715152 0.119192
                         0.180437 0.072175 0.950301]
             /WhitePoint [0.9505 1.0 1.0890]
           >>
         ] setcolorspace } bind def
/srgb { setcolor } bind def
%%IncludeResource: font Helvetica
/Helvetica findfont
dup length dict begin
  {1 index /FID ne {def} {pop pop} ifelse} forall
  /Encoding ISOLatin1Encoding def
  currentdict
  end
/Font1 exch definefont pop
%%IncludeResource: font Helvetica-Bold
/Helvetica-Bold findfont
dup length dict begin
  {1 index /FID ne {def} {pop pop} ifelse} forall
  /Encoding ISOLatin1Encoding def
  currentdict
  end
/Font2 exch definefont pop
%%IncludeResource: font Helvetica-Oblique
/Helvetica-Oblique findfont
dup length dict begin
  {1 index /FID ne {def} {pop pop} ifelse} forall
  /Encoding ISOLatin1Encoding def
  currentdict
  end
/Font3 exch definefont pop
%%IncludeResource: font Helvetica-BoldOblique
/Helvetica-BoldOblique findfont
dup length dict begin
  {1 index /FID ne {def} {pop pop} ifelse} forall
  /Encoding ISOLatin1Encoding def
  currentdict
  end
/Font4 exch definefont pop
%%IncludeResource: font Symbol
/Symbol findfont
dup length dict begin
  {1 index /FID ne {def} {pop pop} ifelse} forall
  currentdict
  end
/Font5 exch definefont pop
%%EndProlog
%%Page: 1 1
bp
57.60 57.60 302.40 280.80 cl
0 0 1 srgb
0.75 setlinewidth
[] 0 setdash
1 setlinecap
1 setlinejoin
10.00 setmiterlimit
66.67 91.36 2.70 c p1
74.76 90.13 2.70 c p1
82.86 105.01 2.70 c p1
90.95 117.66 2.70 c p1
99.05 135.42 2.70 c p1
107.14 140.46 2.70 c p1
115.24 141.81 2.70 c p1
123.33 148.44 2.70 c p1
131.43 142.07 2.70 c p1
139.52 169.68 2.70 c p1
147.62 174.42 2.70 c p1
155.71 158.78 2.70 c p1
163.81 184.77 2.70 c p1
171.90 177.93 2.70 c p1
180.00 188.10 2.70 c p1
188.10 198.52 2.70 c p1
196.19 191.50 2.70 c p1
204.29 183.72 2.70 c p1
212.38 197.80 2.70 c p1
220.48 228.29 2.70 c p1
228.57 207.67 2.70 c p1
236.67 208.78 2.70 c p1
244.76 217.41 2.70 c p1
252.86 220.81 2.70 c p1
260.95 220.03 2.70 c p1
269.05 250.40 2.70 c p1
277.14 223.72 2.70 c p1
285.24 210.76 2.70 c p1
293.33 224.93 2.70 c p1
0.00 0.00 360.00 288.00 cl
0 0 0 srgb
0.75 setlinewidth
[] 0 setdash
1 setlinecap
1 setlinejoin
10.00 setmiterlimit
np
82.86 57.60 m
194.28 0 l
o
np
82.86 57.60 m
0 -7.20 l
o
np
115.24 57.60 m
0 -7.20 l
o
np
147.62 57.60 m
0 -7.20 l
o
np
180.00 57.60 m
0 -7.20 l
o
np
212.38 57.60 m
0 -7.20 l
o
np
244.76 57.60 m
0 -7.20 l
o
np
277.14 57.60 m
0 -7.20 l
o
/Font1 findfont 12 s
82.86 31.68 (2000) .5 0 t
147.62 31.68 (6000) .5 0 t
212.38 31.68 (10000) .5 0 t
277.14 31.68 (14000) .5 0 t
np
57.60 65.87 m
0 196.49 l
o
np
57.60 65.87 m
-7.20 0 l
o
np
57.60 114.99 m
-7.20 0 l
o
np
57.60 164.11 m
-7.20 0 l
o
np
57.60 213.24 m
-7.20 0 l
o
np
57.60 262.36 m
-7.20 0 l
o
40.32 65.87 (0) .5 90 t
40.32 114.99 (50) .5 90 t
40.32 164.11 (100) .5 90 t
40.32 213.24 (150) .5 90 t
40.32 262.36 (200) .5 90 t
np
57.60 57.60 m
244.80 0 l
0 223.20 l
-244.80 0 l
0 -223.20 l
o
0.00 0.00 360.00 288.00 cl
/Font1 findfont 12 s
0 0 0 srgb
140.31 2.88 (nodes in gr) 0 ta
-0.120 (aph) tb gr
11.52 169.20 (Time [s]) .5 90 t
57.60 57.60 302.40 280.80 cl
1 0 0 srgb
0.75 setlinewidth
[] 0 setdash
1 setlinecap
1 setlinejoin
10.00 setmiterlimit
np
66.67 81.13 m
0 20.45 l
o
np
64.51 81.13 m
2.16 0 l
2.16 0 l
o
np
68.83 101.58 m
-2.16 0 l
-2.16 0 l
o
np
74.76 87.34 m
0 5.58 l
o
np
72.60 87.34 m
2.16 0 l
2.16 0 l
o
np
76.92 92.92 m
-2.16 0 l
-2.16 0 l
o
np
82.86 97.29 m
0 15.43 l
o
np
80.70 97.29 m
2.16 0 l
2.16 0 l
o
np
85.02 112.72 m
-2.16 0 l
-2.16 0 l
o
np
90.95 103.20 m
0 28.91 l
o
np
88.79 103.20 m
2.16 0 l
2.16 0 l
o
np
93.11 132.11 m
-2.16 0 l
-2.16 0 l
o
np
99.05 117.22 m
0 36.39 l
o
np
96.89 117.22 m
2.16 0 l
2.16 0 l
o
np
101.21 153.61 m
-2.16 0 l
-2.16 0 l
o
np
107.14 127.32 m
0 26.28 l
o
np
104.98 127.32 m
2.16 0 l
2.16 0 l
o
np
109.30 153.60 m
-2.16 0 l
-2.16 0 l
o
np
115.24 110.01 m
0 63.59 l
o
np
113.08 110.01 m
2.16 0 l
2.16 0 l
o
np
117.40 173.60 m
-2.16 0 l
-2.16 0 l
o
np
123.33 132.63 m
0 31.61 l
o
np
121.17 132.63 m
2.16 0 l
2.16 0 l
o
np
125.49 164.24 m
-2.16 0 l
-2.16 0 l
o
np
131.43 136.10 m
0 11.94 l
o
np
129.27 136.10 m
2.16 0 l
2.16 0 l
o
np
133.59 148.04 m
-2.16 0 l
-2.16 0 l
o
np
139.52 132.15 m
0 75.06 l
o
np
137.36 132.15 m
2.16 0 l
2.16 0 l
o
np
141.68 207.21 m
-2.16 0 l
-2.16 0 l
o
np
147.62 138.18 m
0 72.48 l
o
np
145.46 138.18 m
2.16 0 l
2.16 0 l
o
np
149.78 210.66 m
-2.16 0 l
-2.16 0 l
o
np
155.71 142.20 m
0 33.16 l
o
np
153.55 142.20 m
2.16 0 l
2.16 0 l
o
np
157.87 175.36 m
-2.16 0 l
-2.16 0 l
o
np
163.81 174.20 m
0 21.14 l
o
np
161.65 174.20 m
2.16 0 l
2.16 0 l
o
np
165.97 195.34 m
-2.16 0 l
-2.16 0 l
o
np
171.90 165.74 m
0 24.38 l
o
np
169.74 165.74 m
2.16 0 l
2.16 0 l
o
np
174.06 190.12 m
-2.16 0 l
-2.16 0 l
o
np
180.00 152.88 m
0 70.45 l
o
np
177.84 152.88 m
2.16 0 l
2.16 0 l
o
np
182.16 223.33 m
-2.16 0 l
-2.16 0 l
o
np
188.10 190.35 m
0 16.34 l
o
np
185.94 190.35 m
2.16 0 l
2.16 0 l
o
np
190.26 206.69 m
-2.16 0 l
-2.16 0 l
o
np
196.19 170.77 m
0 41.46 l
o
np
194.03 170.77 m
2.16 0 l
2.16 0 l
o
np
198.35 212.23 m
-2.16 0 l
-2.16 0 l
o
np
204.29 152.49 m
0 62.45 l
o
np
202.13 152.49 m
2.16 0 l
2.16 0 l
o
np
206.45 214.94 m
-2.16 0 l
-2.16 0 l
o
np
212.38 151.40 m
0 92.79 l
o
np
210.22 151.40 m
2.16 0 l
2.16 0 l
o
np
214.54 244.19 m
-2.16 0 l
-2.16 0 l
o
np
220.48 185.49 m
0 85.60 l
o
np
218.32 185.49 m
2.16 0 l
2.16 0 l
o
np
222.64 271.09 m
-2.16 0 l
-2.16 0 l
o
np
228.57 183.51 m
0 48.32 l
o
np
226.41 183.51 m
2.16 0 l
2.16 0 l
o
np
230.73 231.83 m
-2.16 0 l
-2.16 0 l
o
np
236.67 182.40 m
0 52.75 l
o
np
234.51 182.40 m
2.16 0 l
2.16 0 l
o
np
238.83 235.15 m
-2.16 0 l
-2.16 0 l
o
np
244.76 162.29 m
0 110.24 l
o
np
242.60 162.29 m
2.16 0 l
2.16 0 l
o
np
246.92 272.53 m
-2.16 0 l
-2.16 0 l
o
np
252.86 191.58 m
0 58.45 l
o
np
250.70 191.58 m
2.16 0 l
2.16 0 l
o
np
255.02 250.03 m
-2.16 0 l
-2.16 0 l
o
np
260.95 184.59 m
0 70.89 l
o
np
258.79 184.59 m
2.16 0 l
2.16 0 l
o
np
263.11 255.48 m
-2.16 0 l
-2.16 0 l
o
np
269.05 232.03 m
0 36.73 l
o
np
266.89 232.03 m
2.16 0 l
2.16 0 l
o
np
271.21 268.76 m
-2.16 0 l
-2.16 0 l
o
np
277.14 205.75 m
0 35.93 l
o
np
274.98 205.75 m
2.16 0 l
2.16 0 l
o
np
279.30 241.68 m
-2.16 0 l
-2.16 0 l
o
np
285.24 186.00 m
0 49.52 l
o
np
283.08 186.00 m
2.16 0 l
2.16 0 l
o
np
287.40 235.52 m
-2.16 0 l
-2.16 0 l
o
np
293.33 181.68 m
0 86.49 l
o
np
291.17 181.68 m
2.16 0 l
2.16 0 l
o
np
295.49 268.17 m
-2.16 0 l
-2.16 0 l
o
ep
%%Trailer
%%Pages: 1
%%EOF
