Nodes in Graph, Time [s]
1000, 31.4039
1100, 34.9592
1200, 39.72
1300, 34.5725
1400, 22.4532
1500, 49.2077
1600, 47.5098
1700, 69.4973
1800, 23.1107
1900, 30.5397
2000, 42.8011
2100, 47.6262
2200, 48.0294
2300, 61.1833
2400, 42.3353
2500, 67.8241
2600, 40.6046
2700, 70.1185
2800, 44.6488
2900, 54.1319
3000, 48.1602
3100, 52.8573
3200, 51.9078
3300, 68.2195
3400, 52.1964
3500, 63.6112
3600, 88.0459
3700, 115.572
3800, 53.6257
3900, 111.618
4000, 87.5915
4100, 103.995
4200, 65.1984
4300, 84.9043
4400, 78.5631
4500, 115.709
4600, 122.45
4700, 161.107
4800, 125.457
4900, 97.4233
5000, 104.007
5100, 79.2968
5200, 92.6234
5300, 111.581
5400, 119.615
5500, 119.849
5600, 130.18
5700, 88.2679
5800, 108.432
5900, 113.664
6000, 153.994
6100, 128.65
6200, 93.4643
6300, 102.161
6400, 112.274
6500, 83.9497
6600, 93.139
6700, 134.431
6800, 133.03
6900, 156.538
7000, 111.741
7100, 110.83
7200, 150.607
7300, 121.498
7400, 146.025
7500, 143.755
7600, 129.109
7700, 177.931
7800, 152.078
7900, 100.408
8000, 94.6862
8100, 131.493
8200, 194.915
8300, 166.781
8400, 151.806
8500, 112.168
8600, 166.147
8700, 138.027
8800, 180.26
8900, 136.414
9000, 231.881
9100, 180.626
9200, 160.274
9300, 184.121
9400, 111.974
9500, 190.89
9600, 140.48
9700, 191.5
9800, 130.626
9900, 176.12
10000, 160.919