0 0 0
0 0.0518 0
0 0.1036 0
0 0.1554 0
0.0518 0 0
0.0518 0.0518 0
0.0518 0.1036 0
0.0518 0.1554 0
0.1036 0 0
0.1036 0.0518 0
0.1036 0.1036 0
0.1036 0.1554 0
0.1554 0 0
0.1554 0.0518 0
0.1554 0.1036 0
0.1554 0.1554 0
0.2072 0 0
0.2072 0.0518 0
0.2072 0.1036 0
0.2072 0.1554 0
0.259 0 0
0.259 0.0518 0
0.259 0.1036 0
0.259 0.1554 0
