0.7175731543736343 -0.6439258212424528 -0.2654209955137423 -0.4728593132528164
-0.4819735476581363 -0.7341988323189522 0.4781773457403835 -0.6177358442461574
-0.502782525034536 -0.2152013275022261 -0.8371965845374535 1.728838115441268
0 0 0 1
