%!PS-Adobe-3.0 EPSF-3.0
%%Creator: cairo 1.13.1 (http://cairographics.org)
%%CreationDate: Tue Jun 14 15:24:55 2016
%%Pages: 1
%%DocumentData: Clean7Bit
%%LanguageLevel: 2
%%BoundingBox: 0 -1 204 200
%%EndComments
%%BeginProlog
save
50 dict begin
/q { gsave } bind def
/Q { grestore } bind def
/cm { 6 array astore concat } bind def
/w { setlinewidth } bind def
/J { setlinecap } bind def
/j { setlinejoin } bind def
/M { setmiterlimit } bind def
/d { setdash } bind def
/m { moveto } bind def
/l { lineto } bind def
/c { curveto } bind def
/h { closepath } bind def
/re { exch dup neg 3 1 roll 5 3 roll moveto 0 rlineto
      0 exch rlineto 0 rlineto closepath } bind def
/S { stroke } bind def
/f { fill } bind def
/f* { eofill } bind def
/n { newpath } bind def
/W { clip } bind def
/W* { eoclip } bind def
/BT { } bind def
/ET { } bind def
/pdfmark where { pop globaldict /?pdfmark /exec load put }
    { globaldict begin /?pdfmark /pop load def /pdfmark
    /cleartomark load def end } ifelse
/BDC { mark 3 1 roll /BDC pdfmark } bind def
/EMC { mark /EMC pdfmark } bind def
/cairo_store_point { /cairo_point_y exch def /cairo_point_x exch def } def
/Tj { show currentpoint cairo_store_point } bind def
/TJ {
  {
    dup
    type /stringtype eq
    { show } { -0.001 mul 0 cairo_font_matrix dtransform rmoveto } ifelse
  } forall
  currentpoint cairo_store_point
} bind def
/cairo_selectfont { cairo_font_matrix aload pop pop pop 0 0 6 array astore
    cairo_font exch selectfont cairo_point_x cairo_point_y moveto } bind def
/Tf { pop /cairo_font exch def /cairo_font_matrix where
      { pop cairo_selectfont } if } bind def
/Td { matrix translate cairo_font_matrix matrix concatmatrix dup
      /cairo_font_matrix exch def dup 4 get exch 5 get cairo_store_point
      /cairo_font where { pop cairo_selectfont } if } bind def
/Tm { 2 copy 8 2 roll 6 array astore /cairo_font_matrix exch def
      cairo_store_point /cairo_font where { pop cairo_selectfont } if } bind def
/g { setgray } bind def
/rg { setrgbcolor } bind def
/d1 { setcachedevice } bind def
%%EndProlog
%%BeginSetup
%%EndSetup
%%Page: 1 1
%%BeginPageSetup
%%PageBoundingBox: 0 -1 204 200
%%EndPageSetup
q 0 -1 204 201 rectclip q
0 g
200.48 99.145 m 200.48 87.985 191.977 78.942 181.488 78.942 c 171 78.942
 162.496 87.985 162.496 99.145 c 162.496 110.301 171 119.348 181.488 119.348
 c 191.977 119.348 200.48 110.301 200.48 99.145 c h
200.48 99.145 m f
0.8 w
0 J
0 j
[] 0.0 d
4 M q 1 0 0 -1 0 199.676285 cm
181.402 120.102 m 181.688 162.672 l 165.977 199.531 l S Q
q 1 0 0 -1 0 199.676285 cm
181.117 162.957 m 194.262 198.672 l S Q
q 1 0 0 -1 0 199.676285 cm
203.688 151.816 m 181.117 135.531 l 157.688 154.102 l S Q
1 0 0 rg
164.547 44.43 m 118.262 57.575 l f
0 g
q 1 0 0 -1 0 199.676285 cm
164.547 155.246 m 118.262 142.102 l S Q
1 0 0 rg
119.402 60.004 m 119.402 57.559 117.484 55.575 115.117 55.575 c 112.75 
55.575 110.832 57.559 110.832 60.004 c 110.832 62.45 112.75 64.43 115.117
 64.43 c 117.484 64.43 119.402 62.45 119.402 60.004 c h
119.402 60.004 m f
0 g
q 1 0 0 -1 0 199.676285 cm
107.855 132.902 m 117.57 128.043 123.855 134.328 123.855 134.328 c S Q
0.62484 w
q 1 0 0 -1 0 199.676285 cm
107.949 127.906 m 116.988 120.469 124.859 129.395 124.859 129.395 c S Q
0.620913 w
q 1 0 0 -1 0 199.676285 cm
107.234 145.035 m 110.863 149.812 117.453 149.215 117.453 149.215 c S Q
0.589407 w
q 1 0 0 -1 0 199.676285 cm
104.215 148.785 m 109.883 157.703 118.973 152.945 118.973 152.945 c S Q
13.117 28.602 26.859 -26 re f
3.688 34.317 44.859 -5.715 re f
0.8 w
q 1 0 0 -1 0 199.676285 cm
22.547 164.789 m 0.547 135.359 l 36.262 104.5 l 48.262 138.789 l 73.688
 137.074 l 75.977 126.5 l 86.547 127.074 l 84.547 129.074 l 77.402 129.359
 l 76.262 137.359 l 79.688 142.789 l 86.832 139.93 l 88.832 141.074 l 79.688
 146.215 l 73.117 136.5 l S Q
0.913725 0.913725 1 rg
107.195 158.719 m 113.375 164.04 l 113.496 158.204 l 107.312 153.028 l 
h
107.195 158.719 m f*
0.207843 0.207843 0.392157 rg
50.168 192.465 m 50.305 185.856 l 107.312 153.028 l 107.195 158.719 l h
50.168 192.465 m f*
0.301961 0.301961 0.623529 rg
50.168 192.465 m 55.684 199.676 l 113.375 164.04 l 107.195 158.719 l h
50.168 192.465 m f*
0.686275 0.686275 0.870588 rg
50.305 185.856 m 55.824 192.868 l 113.496 158.204 l 107.312 153.028 l h
50.305 185.856 m f*
0.843137 0.843137 1 rg
55.684 199.676 m 55.824 192.868 l 113.496 158.204 l 113.375 164.04 l h
55.684 199.676 m f*
0.52549 0.52549 0.74902 rg
50.168 192.465 m 55.684 199.676 l 55.824 192.868 l 50.305 185.856 l h
50.168 192.465 m f*
0 g
66.734 181.758 m 66.734 180.754 65.922 179.938 64.918 179.938 c 63.91 179.938
 63.098 180.754 63.098 181.758 c 63.098 182.762 63.91 183.575 64.918 183.575
 c 65.922 183.575 66.734 182.762 66.734 181.758 c h
66.734 181.758 m f
100.273 162.567 m 100.273 161.672 99.457 160.95 98.453 160.95 c 97.449 
160.95 96.637 161.672 96.637 162.567 c 96.637 163.458 97.449 164.18 98.453
 164.18 c 99.457 164.18 100.273 163.458 100.273 162.567 c h
100.273 162.567 m f
Q Q
showpage
%%Trailer
end restore
%%EOF
