7.1385976783481708e-01 -6.3947037470963830e-01 -2.8545029643623987e-01 4.4869645050589663e-01
-4.7919353587183178e-01 -7.4329967722029255e-01 4.6677526179400453e-01 6.0916575655627658e-01
-5.1066406476809489e-01 -1.9642614315035928e-01 -8.3704180495456870e-01 -1.7330014715919955e+00
0.0000000000000000e+00 0.0000000000000000e+00 0.0000000000000000e+00 1.0000000000000000e+00