474.82080078125 454.2593078613281
490.2627563476562 492.1693725585938
506.8945617675781 531.1278076171875
523.7238159179688 571.1079711914062
515.1708984375 436.8001708984375
531.9306030273438 473.996826171875
548.8899536132812 512.8817138671875
566.0419311523438 552.7128295898438
555.9953002929688 418.740234375
572.9832153320312 455.9237365722656
590.7291259765625 494.1623840332031
608.7769165039062 533.8328857421875
596.7696533203125 400.7303161621094
614.1736450195312 437.7511291503906
632.21533203125 475.8693542480469
651.0409545898438 515.0037841796875
637.1898803710938 382.6366577148438
655.7611694335938 419.1370239257812
674.1322631835938 457.0713195800781
693.7094116210938 496.0822143554688
641.998291015625 290.001708984375
613.0773315429688 355.9819946289062
584.2817993164062 421.2752380371094
555.9408569335938 486.9288024902344
706.3194580078125 318.977783203125
677.8218383789062 384.2170715332031
648.9871826171875 449.7540588378906
620.179931640625 514.2507934570312
770.0657348632812 347.292236328125
741.188720703125 412.74755859375
712.9179077148438 477.0707702636719
684.0537719726562 541.9256591796875
833.0625610351562 375.9010925292969
804.2072143554688 440.1378173828125
775.9159545898438 504.8743896484375
747.0576171875 568.9497680664062
895.1478881835938 403.85107421875
866.7747802734375 467.9675903320312
838.0462036132812 531.9476318359375
809.8082885742188 595.7830200195312
618.0596923828125 139.9841156005859
555.06494140625 161.2563934326172
490.8735961914062 183.7989196777344
424.8714599609375 206.1305541992188
642.9107666015625 205.7521820068359
580.07080078125 227.9532928466797
516.100341796875 250.8837890625
450.8197631835938 274.0542602539062
667.1106567382812 270.9255981445312
605.0374145507812 293.9855651855469
541.7395629882812 317.2377319335938
476.1496276855469 341.8218994140625
691.9080200195312 335.9183959960938
629.9658813476562 359.8190002441406
566.8969116210938 383.9419250488281
501.9889526367188 408.9152526855469
716.02880859375 400.7371826171875
654.8683471679688 425.0023498535156
591.9457397460938 450.0219421386719
527.2489624023438 475.8927612304688
649.2088623046875 338.7130126953125
593.8063354492188 358.2798156738281
539.8612670898438 377.9168090820312
487.2356872558594 396.1774597167969
673.7452392578125 380.7892150878906
618.9886474609375 399.1857299804688
565.9964599609375 417.2339477539062
514.7871704101562 435.0043334960938
696.2539672851562 420.1587524414062
642.9052734375 438.0310668945312
590.9810791015625 455.0502014160156
540.2872924804688 471.8117980957031
718.062744140625 458.0690002441406
665.7620239257812 474.962158203125
614.7152099609375 490.9744873046875
565.0040893554688 506.7908325195312
738.8995971679688 494.0838623046875
687.1400756835938 509.9545593261719
637.1260986328125 525.0138549804688
588.2235717773438 539.9390258789062
679.7894897460938 130.0581970214844
624.0665893554688 153.0104064941406
570.8131713867188 175.1607971191406
518.7742919921875 196.8956756591797
702.8541870117188 177.0245056152344
648.1707153320312 198.8656158447266
595.9141845703125 219.8112335205078
544.8038940429688 239.9596405029297
724.291015625 221.7991485595703
671.0656127929688 241.9939270019531
619.7828979492188 261.8987731933594
569.2272338867188 280.9867248535156
745.0439453125 263.9591674804688
692.9822387695312 283.0725402832031
642.1104125976562 301.9595336914062
592.9707641601562 319.9796752929688
764.9732055664062 304.0535278320312
713.7725219726562 322.1888427734375
663.9390869140625 340.0100402832031
615.21826171875 357.0739440917969
466.0309448242188 370.0363159179688
450.0440063476562 411.9681701660156
434.9959106445312 451.9200744628906
420.2036743164062 489.8438720703125
514.9568481445312 396.2607727050781
497.7281494140625 437.9028625488281
481.1534423828125 477.0968627929688
465.7846374511719 514.8397216796875
564.0289916992188 422.9622192382812
545.2820434570312 463.8621826171875
527.9049682617188 502.9065246582031
511.0038146972656 539.9161987304688
613.8724975585938 449.7747192382812
593.9470825195312 490.0762939453125
575.0198364257812 528.7692260742188
556.9501342773438 565.2279663085938
664.0135498046875 476.871337890625
642.9234619140625 516.861572265625
622.7698364257812 554.9119873046875
603.7008056640625 591.0303955078125
538.226318359375 452.158935546875
522.171875 488.7273254394531
506.9237976074219 523.056640625
492.0391235351562 556.17724609375
582.9928588867188 476.6777954101562
565.8052368164062 512.2390747070312
549.1331787109375 546.7548828125
533.7608642578125 579.236083984375
627.8909912109375 500.9993591308594
609.806396484375 536.5914306640625
592.091064453125 570.1541748046875
575.247314453125 602.8045654296875
673.114013671875 525.8128662109375
653.8983154296875 560.8804931640625
635.6251220703125 594.1821899414062
617.7587280273438 626.1300659179688
719.0333251953125 550.77294921875
698.7036743164062 585.2011108398438
678.926025390625 618.1874389648438
660.0784912109375 649.9212646484375
610.8665771484375 201.9039001464844
594.0511474609375 241.0843658447266
578.1174926757812 278.9005737304688
562.9771728515625 315.0110168457031
652.9794921875 223.265380859375
635.2091064453125 262.2025756835938
618.7244873046875 299.896240234375
602.207763671875 335.8524780273438
695.2758178710938 245.0409240722656
676.9697265625 283.9251098632812
659.081787109375 320.9949035644531
642.0130004882812 356.7379150390625
738.1631469726562 267.0633239746094
718.8380737304688 305.7705078125
700.0615234375 342.2779235839844
682.0982666015625 377.8570556640625
781.6625366210938 289.1241760253906
761.0317993164062 327.29296875
741.2672729492188 363.9503784179688
722.7024536132812 398.9992980957031
346.8445434570312 200.0982208251953
332.9934692382812 234.2265777587891
319.8334655761719 267.7737426757812
306.88720703125 299.7133178710938
384.0233764648438 220.9974975585938
369.7746276855469 254.9591827392578
355.7286682128906 287.7684631347656
341.9874572753906 319.0957641601562
421.0234375 241.8502349853516
405.9466857910156 275.0769653320312
391.1537170410156 307.8250732421875
377.0707702636719 338.9732971191406
458.0786743164062 262.2591247558594
442.0874938964844 295.8829040527344
427.0667419433594 327.8602905273438
412.1634521484375 358.8192138671875
495.0531005859375 283.1202087402344
478.9611206054688 316.0191955566406
462.9975280761719 347.8408508300781
447.7583618164062 378.0675048828125
275.9869689941406 363.0452880859375
259.1471557617188 397.8125610351562
242.9720916748047 431.7098693847656
226.8922271728516 464.8120422363281
306.6837463378906 386.2510375976562
289.2201538085938 421.0538024902344
272.2995300292969 454.9226989746094
255.9328918457031 488.1427612304688
337.7320556640625 409.9917602539062
319.9233703613281 444.8428039550781
302.4539184570312 478.84912109375
285.7649841308594 512.0404663085938
369.1307067871094 434.11083984375
351.0271301269531 468.9888000488281
333.0939331054688 503.0194702148438
315.9018859863281 536.1892700195312
401.3927307128906 458.8315124511719
382.862060546875 493.702392578125
364.3622741699219 527.827880859375
346.7485961914062 561.032958984375
552.9763793945312 149.7302398681641
511.9269104003906 179.2715148925781
470.1451416015625 209.7067718505859
427.9835815429688 240.142578125
585.0847778320312 190.9760894775391
544.1195068359375 221.0646362304688
502.8098449707031 251.7171020507812
460.7550964355469 282.6737365722656
617.2086181640625 232.2408905029297
576.685791015625 262.8597106933594
535.19482421875 293.7577209472656
493.2055053710938 324.9557189941406
649.6952514648438 273.8764343261719
608.9939575195312 304.739990234375
567.9107055664062 335.786376953125
526.0855102539062 367.1630554199219
681.8792724609375 315.2194519042969
641.2698974609375 346.2579345703125
600.6694946289062 377.8988647460938
558.9595336914062 409.8143005371094
616.9694213867188 108.9444198608398
603.7727661132812 152.0159759521484
589.9459228515625 195.2161254882812
576.0524291992188 239.2277069091797
662.21435546875 121.0872573852539
649.0655517578125 164.1824645996094
635.8445434570312 208.080322265625
622.0515747070312 252.1467132568359
708.08544921875 133.1425476074219
695.0281372070312 176.9031372070312
681.9149169921875 220.8653106689453
668.2023315429688 265.1262817382812
754.1959838867188 145.7953643798828
741.1780395507812 189.1737213134766
728.1883544921875 233.7906188964844
715.037353515625 278.1231689453125
800.8438110351562 157.9937744140625
788.0435791015625 202.0057830810547
775.0549926757812 246.2006988525391
762.0740966796875 291.2050476074219
