0 0 0
0 0.0283 0
0 0.0566 0
0 0.0849 0
0.0283 0 0
0.0283 0.0283 0
0.0283 0.0566 0
0.0283 0.0849 0
0.0566 0 0
0.0566 0.0283 0
0.0566 0.0566 0
0.0566 0.0849 0
0.0849 0 0
0.0849 0.0283 0
0.0849 0.0566 0
0.0849 0.0849 0
0.1132 0 0
0.1132 0.0283 0
0.1132 0.0566 0
0.1132 0.0849 0
