284.1165161132812 453.0005493164062
296.9493713378906 491.07177734375
309.9522094726562 530.0458374023438
323.1683044433594 570.2182006835938
325.0876159667969 435.8917846679688
338.1784362792969 473.0988464355469
352.0322875976562 512.103759765625
366.0331420898438 552.0733642578125
366.0132751464844 418.0467834472656
379.9482727050781 455.8536376953125
394.0484924316406 494.1399536132812
408.9097595214844 533.9777221679688
406.9781188964844 400.8489685058594
421.1829833984375 437.9883728027344
436.0657653808594 476.1214294433594
451.7844543457031 515.94873046875
447.9214477539062 383.0839233398438
462.9638061523438 420.1278686523438
478.1507568359375 458.1760864257812
494.1447448730469 497.8177185058594
338.0187072753906 290.0388793945312
308.9656372070312 355.7774353027344
279.9685363769531 420.9597778320312
250.9051513671875 485.9611511230469
403.986572265625 319.9620666503906
374.9398193359375 384.9869384765625
345.9259643554688 449.9248046875
316.9820251464844 514.1818237304688
468.9989318847656 349.2261352539062
439.9483032226562 413.9832153320312
410.98681640625 478.1747741699219
382.0155639648438 542.7727661132812
533.0743408203125 378.2423095703125
504.0685424804688 442.8192138671875
475.1698913574219 506.7542419433594
446.2429504394531 570.1895751953125
596.9061889648438 407.1203002929688
567.890869140625 471.0011901855469
538.970947265625 534.7156372070312
510.0571899414062 597.978515625
324.9209594726562 139.9075775146484
258.0215454101562 160.2279815673828
189.9052429199219 181.885986328125
119.9154968261719 203.2251434326172
349.0696105957031 205.8623809814453
282.9060363769531 227.0646514892578
214.9435729980469 249.0585479736328
145.1402282714844 271.8335876464844
373.1410522460938 271.1252746582031
307.1539611816406 293.2472839355469
239.9455413818359 316.0503540039062
170.8880615234375 339.7610168457031
397.193603515625 336.8000183105469
331.9338073730469 359.8331298828125
264.9311828613281 382.9785766601562
196.0322265625 407.0121154785156
421.1761474609375 401.8895263671875
356.09130859375 425.1536560058594
289.8473205566406 449.8227844238281
221.1128082275391 474.1907958984375
388.0392456054688 338.9925842285156
336.1952514648438 358.05126953125
286.0315551757812 376.9138488769531
237.1612854003906 394.9030456542969
418.8942565917969 381.192626953125
367.9209289550781 399.7768859863281
318.24072265625 416.9325561523438
270.7251892089844 433.9352111816406
447.8807373046875 421.8012084960938
397.8136901855469 438.7881469726562
349.0398559570312 454.9637451171875
301.9993896484375 470.9402160644531
475.1123352050781 459.8612060546875
426.0084838867188 475.8679809570312
378.1421203613281 491.0132141113281
331.9512939453125 506.0969543457031
501.2203369140625 495.9914245605469
452.9993591308594 511.0154418945312
405.9955139160156 525.8048095703125
360.1337585449219 539.8614501953125
425.0264282226562 131.0311126708984
373.2494201660156 153.1432189941406
323.27392578125 174.8470458984375
274.9456176757812 195.7299346923828
454.1302490234375 178.2473449707031
403.3332214355469 199.1940460205078
354.2361145019531 219.6667175292969
306.7492370605469 239.0437774658203
481.93603515625 223.1309967041016
432.0263366699219 242.9574432373047
383.8218688964844 261.9788513183594
336.8457336425781 280.2384948730469
508.1165771484375 265.9304809570312
459.1108093261719 284.2581787109375
411.7778015136719 302.1941528320312
365.2614135742188 319.9109802246094
533.0936889648438 306.1836242675781
485.0079345703125 323.9689636230469
438.1312561035156 340.9076843261719
392.8263854980469 357.1934204101562
228.6246185302734 368.1155700683594
217.9245147705078 409.9765319824219
207.8307495117188 449.8070373535156
197.9316558837891 487.1829833984375
275.8701171875 395.0735168457031
263.7987365722656 436.22607421875
252.2721252441406 475.8274841308594
241.8484497070312 512.9922485351562
323.1591186523438 422.1395263671875
310.0400085449219 463.0704650878906
297.6632385253906 501.9573974609375
285.8177185058594 538.908447265625
371.1134948730469 449.9048461914062
356.9377746582031 490.0513000488281
343.1012573242188 528.1981811523438
330.0374755859375 564.94482421875
419.9727478027344 477.792724609375
404.1224060058594 517.2488403320312
389.2138671875 555.0548706054688
375.076904296875 591.076171875
321.8160705566406 451.808349609375
309.9798889160156 487.8482360839844
298.7713623046875 522.0167236328125
287.9234924316406 554.994140625
364.9761047363281 476.3110961914062
351.9804382324219 512.021728515625
339.9310913085938 546.009033203125
328.089111328125 578.8298950195312
408.3971557617188 501.2675476074219
394.8344421386719 536.8154296875
381.2378845214844 570.1483154296875
368.8786926269531 602.690185546875
452.26513671875 526.8042602539062
437.7108764648438 561.7584228515625
423.2235107421875 594.8704223632812
409.8527221679688 626.7750854492188
496.9305725097656 552.1256713867188
480.9577026367188 586.677490234375
465.6800537109375 619.2708129882812
451.0139770507812 650.822021484375
410.238037109375 202.0267333984375
397.2434997558594 241.1161041259766
385.0715942382812 278.8675537109375
373.0763244628906 314.7924194335938
451.1919860839844 224.1403045654297
437.7694091796875 263.0066833496094
424.1412048339844 300.1289367675781
411.7315979003906 335.9777221679688
492.8241577148438 246.7265319824219
477.9771118164062 285.0234985351562
463.898681640625 321.9747314453125
450.1123657226562 357.2394409179688
534.1596069335938 269.0400390625
518.789794921875 307.122802734375
503.8469848632812 343.8928833007812
489.1156005859375 378.9799499511719
576.2799682617188 291.8767700195312
559.8969116210938 329.7687072753906
543.9061279296875 365.9808654785156
528.736572265625 400.8445434570312
167.9867706298828 196.9986724853516
156.9975280761719 231.0782775878906
146.1234893798828 264.0451354980469
135.9807586669922 295.967041015625
205.0086212158203 218.1810760498047
193.11181640625 252.0499420166016
181.9549560546875 284.7695007324219
170.9734802246094 316.0525512695312
241.9522094726562 239.7631988525391
229.2125091552734 272.9660949707031
217.802734375 305.0713806152344
205.9505004882812 336.1329650878906
278.7999267578125 260.8927307128906
265.2151184082031 293.8949279785156
253.0126647949219 325.8126220703125
240.9497833251953 356.2022399902344
315.2719421386719 282.028564453125
301.9263000488281 314.8430480957031
288.8133544921875 346.0735168457031
275.8974609375 376.6772155761719
97.33404541015625 359.0424499511719
82.06786346435547 393.3126220703125
67.28183746337891 427.0503845214844
52.85321807861328 460.0137023925781
126.0044479370117 382.7635498046875
110.2190093994141 417.1747436523438
94.96839904785156 450.9700927734375
80.0032958984375 484.0277709960938
155.0833740234375 406.9089660644531
138.8915710449219 441.2134094238281
123.1002883911133 475.1028137207031
107.8546447753906 508.0722351074219
184.7697906494141 431.2258605957031
168.1080474853516 465.9781188964844
151.9191131591797 499.8359985351562
136.1058959960938 532.8978881835938
214.9387054443359 456.2025146484375
197.8470611572266 490.9976196289062
181.0841217041016 524.8914794921875
164.8804016113281 557.9031372070312
332.8088684082031 149.0096893310547
289.7532043457031 178.1548614501953
246.0286254882812 207.8950958251953
201.9157867431641 237.94580078125
364.0501098632812 190.8812255859375
321.1653137207031 220.2367401123047
277.93359375 250.2084655761719
233.8709259033203 280.7700500488281
395.675537109375 232.7320251464844
352.9058227539062 262.3235168457031
309.763916015625 292.8391723632812
265.850830078125 323.3395080566406
427.0455932617188 274.3338317871094
384.6702880859375 304.7867736816406
341.337890625 335.1643676757812
297.8992614746094 366.1541442871094
458.694580078125 316.3067016601562
416.1564636230469 346.92138671875
373.2947082519531 377.8854064941406
329.9428100585938 409.1016540527344
420.1282043457031 109.1455307006836
405.0386962890625 152.0631561279297
389.9075317382812 195.2176666259766
374.1939392089844 239.1071929931641
464.8522033691406 122.0522537231445
449.9044494628906 165.1046600341797
434.8258666992188 208.8670654296875
419.7643737792969 252.8264770507812
509.7778015136719 134.9419250488281
494.8862609863281 178.0853881835938
479.9339294433594 222.0165863037109
464.8940734863281 266.0996704101562
554.8153076171875 147.9039916992188
540.0944213867188 191.1964263916016
525.2222900390625 235.150146484375
510.7862243652344 279.9279174804688
600.0875244140625 160.8574066162109
585.8723754882812 204.8354034423828
571.1537475585938 248.8769683837891
556.796630859375 293.8380432128906
