0.7180635299630106 -0.6389605367707618 -0.275888019650512 -0.456658705108173
-0.4732336266557708 -0.7389161477234576 0.4796382608130347 -0.6194007178396888
-0.5103280332681011 -0.2138512545746365 -0.8329663494869202 1.729364659664526
0 0 0 1
