%!PS-Adobe-3.0 EPSF-3.0
%%Creator: (MATLAB, The Mathworks, Inc. Version 9.0.0.341360 \(R2016a\). Operating System: Linux)
%%Title: april19th/plots/robot-camera-calibration-error-vs-train-size.eps
%%CreationDate: 2016-05-03T19:53:48
%%Pages: (atend)
%%BoundingBox:    38    17   379   452
%%LanguageLevel: 3
%%EndComments
%%BeginProlog
%%BeginResource: procset (Apache XML Graphics Std ProcSet) 1.2 0
%%Version: 1.2 0
%%Copyright: (Copyright 2001-2003,2010 The Apache Software Foundation. License terms: http://www.apache.org/licenses/LICENSE-2.0)
/bd{bind def}bind def
/ld{load def}bd
/GR/grestore ld
/M/moveto ld
/LJ/setlinejoin ld
/C/curveto ld
/f/fill ld
/LW/setlinewidth ld
/GC/setgray ld
/t/show ld
/N/newpath ld
/CT/concat ld
/cp/closepath ld
/S/stroke ld
/L/lineto ld
/CC/setcmykcolor ld
/A/ashow ld
/GS/gsave ld
/RC/setrgbcolor ld
/RM/rmoveto ld
/ML/setmiterlimit ld
/re {4 2 roll M
1 index 0 rlineto
0 exch rlineto
neg 0 rlineto
cp } bd
/_ctm matrix def
/_tm matrix def
/BT { _ctm currentmatrix pop matrix _tm copy pop 0 0 moveto } bd
/ET { _ctm setmatrix } bd
/iTm { _ctm setmatrix _tm concat } bd
/Tm { _tm astore pop iTm 0 0 moveto } bd
/ux 0.0 def
/uy 0.0 def
/F {
  /Tp exch def
  /Tf exch def
  Tf findfont Tp scalefont setfont
  /cf Tf def  /cs Tp def
} bd
/ULS {currentpoint /uy exch def /ux exch def} bd
/ULE {
  /Tcx currentpoint pop def
  gsave
  newpath
  cf findfont cs scalefont dup
  /FontMatrix get 0 get /Ts exch def /FontInfo get dup
  /UnderlinePosition get Ts mul /To exch def
  /UnderlineThickness get Ts mul /Tt exch def
  ux uy To add moveto  Tcx uy To add lineto
  Tt setlinewidth stroke
  grestore
} bd
/OLE {
  /Tcx currentpoint pop def
  gsave
  newpath
  cf findfont cs scalefont dup
  /FontMatrix get 0 get /Ts exch def /FontInfo get dup
  /UnderlinePosition get Ts mul /To exch def
  /UnderlineThickness get Ts mul /Tt exch def
  ux uy To add cs add moveto Tcx uy To add cs add lineto
  Tt setlinewidth stroke
  grestore
} bd
/SOE {
  /Tcx currentpoint pop def
  gsave
  newpath
  cf findfont cs scalefont dup
  /FontMatrix get 0 get /Ts exch def /FontInfo get dup
  /UnderlinePosition get Ts mul /To exch def
  /UnderlineThickness get Ts mul /Tt exch def
  ux uy To add cs 10 mul 26 idiv add moveto Tcx uy To add cs 10 mul 26 idiv add lineto
  Tt setlinewidth stroke
  grestore
} bd
/QT {
/Y22 exch store
/X22 exch store
/Y21 exch store
/X21 exch store
currentpoint
/Y21 load 2 mul add 3 div exch
/X21 load 2 mul add 3 div exch
/X21 load 2 mul /X22 load add 3 div
/Y21 load 2 mul /Y22 load add 3 div
/X22 load /Y22 load curveto
} bd
/SSPD {
dup length /d exch dict def
{
/v exch def
/k exch def
currentpagedevice k known {
/cpdv currentpagedevice k get def
v cpdv ne {
/upd false def
/nullv v type /nulltype eq def
/nullcpdv cpdv type /nulltype eq def
nullv nullcpdv or
{
/upd true def
} {
/sametype v type cpdv type eq def
sametype {
v type /arraytype eq {
/vlen v length def
/cpdvlen cpdv length def
vlen cpdvlen eq {
0 1 vlen 1 sub {
/i exch def
/obj v i get def
/cpdobj cpdv i get def
obj cpdobj ne {
/upd true def
exit
} if
} for
} {
/upd true def
} ifelse
} {
v type /dicttype eq {
v {
/dv exch def
/dk exch def
/cpddv cpdv dk get def
dv cpddv ne {
/upd true def
exit
} if
} forall
} {
/upd true def
} ifelse
} ifelse
} if
} ifelse
upd true eq {
d k v put
} if
} if
} if
} forall
d length 0 gt {
d setpagedevice
} if
} bd
%%EndResource
%%BeginResource: procset (Apache XML Graphics EPS ProcSet) 1.0 0
%%Version: 1.0 0
%%Copyright: (Copyright 2002-2003 The Apache Software Foundation. License terms: http://www.apache.org/licenses/LICENSE-2.0)
/BeginEPSF { %def
/b4_Inc_state save def         % Save state for cleanup
/dict_count countdictstack def % Count objects on dict stack
/op_count count 1 sub def      % Count objects on operand stack
userdict begin                 % Push userdict on dict stack
/showpage { } def              % Redefine showpage, { } = null proc
0 setgray 0 setlinecap         % Prepare graphics state
1 setlinewidth 0 setlinejoin
10 setmiterlimit [ ] 0 setdash newpath
/languagelevel where           % If level not equal to 1 then
{pop languagelevel             % set strokeadjust and
1 ne                           % overprint to their defaults.
{false setstrokeadjust false setoverprint
} if
} if
} bd
/EndEPSF { %def
count op_count sub {pop} repeat            % Clean up stacks
countdictstack dict_count sub {end} repeat
b4_Inc_state restore
} bd
%%EndResource
%FOPBeginFontDict
%%IncludeResource: font Courier-Bold
%%IncludeResource: font Helvetica
%%IncludeResource: font Courier-BoldOblique
%%IncludeResource: font Courier-Oblique
%%IncludeResource: font Times-Roman
%%IncludeResource: font Helvetica-BoldOblique
%%IncludeResource: font Helvetica-Bold
%%IncludeResource: font Helvetica-Oblique
%%IncludeResource: font Times-BoldItalic
%%IncludeResource: font Courier
%%IncludeResource: font Times-Italic
%%IncludeResource: font Times-Bold
%%IncludeResource: font Symbol
%%IncludeResource: font ZapfDingbats
%FOPEndFontDict
%%BeginResource: encoding WinAnsiEncoding
/WinAnsiEncoding [
/.notdef /.notdef /.notdef /.notdef /.notdef
/.notdef /.notdef /.notdef /.notdef /.notdef
/.notdef /.notdef /.notdef /.notdef /.notdef
/.notdef /.notdef /.notdef /.notdef /.notdef
/.notdef /.notdef /.notdef /.notdef /.notdef
/.notdef /.notdef /.notdef /.notdef /.notdef
/.notdef /.notdef /space /exclam /quotedbl
/numbersign /dollar /percent /ampersand /quotesingle
/parenleft /parenright /asterisk /plus /comma
/hyphen /period /slash /zero /one
/two /three /four /five /six
/seven /eight /nine /colon /semicolon
/less /equal /greater /question /at
/A /B /C /D /E
/F /G /H /I /J
/K /L /M /N /O
/P /Q /R /S /T
/U /V /W /X /Y
/Z /bracketleft /backslash /bracketright /asciicircum
/underscore /quoteleft /a /b /c
/d /e /f /g /h
/i /j /k /l /m
/n /o /p /q /r
/s /t /u /v /w
/x /y /z /braceleft /bar
/braceright /asciitilde /bullet /Euro /bullet
/quotesinglbase /florin /quotedblbase /ellipsis /dagger
/daggerdbl /circumflex /perthousand /Scaron /guilsinglleft
/OE /bullet /Zcaron /bullet /bullet
/quoteleft /quoteright /quotedblleft /quotedblright /bullet
/endash /emdash /asciitilde /trademark /scaron
/guilsinglright /oe /bullet /zcaron /Ydieresis
/space /exclamdown /cent /sterling /currency
/yen /brokenbar /section /dieresis /copyright
/ordfeminine /guillemotleft /logicalnot /sfthyphen /registered
/macron /degree /plusminus /twosuperior /threesuperior
/acute /mu /paragraph /middot /cedilla
/onesuperior /ordmasculine /guillemotright /onequarter /onehalf
/threequarters /questiondown /Agrave /Aacute /Acircumflex
/Atilde /Adieresis /Aring /AE /Ccedilla
/Egrave /Eacute /Ecircumflex /Edieresis /Igrave
/Iacute /Icircumflex /Idieresis /Eth /Ntilde
/Ograve /Oacute /Ocircumflex /Otilde /Odieresis
/multiply /Oslash /Ugrave /Uacute /Ucircumflex
/Udieresis /Yacute /Thorn /germandbls /agrave
/aacute /acircumflex /atilde /adieresis /aring
/ae /ccedilla /egrave /eacute /ecircumflex
/edieresis /igrave /iacute /icircumflex /idieresis
/eth /ntilde /ograve /oacute /ocircumflex
/otilde /odieresis /divide /oslash /ugrave
/uacute /ucircumflex /udieresis /yacute /thorn
/ydieresis
] def
%%EndResource
%FOPBeginFontReencode
/Courier-Bold findfont
dup length dict begin
  {1 index /FID ne {def} {pop pop} ifelse} forall
  /Encoding WinAnsiEncoding def
  currentdict
end
/Courier-Bold exch definefont pop
/Helvetica findfont
dup length dict begin
  {1 index /FID ne {def} {pop pop} ifelse} forall
  /Encoding WinAnsiEncoding def
  currentdict
end
/Helvetica exch definefont pop
/Courier-BoldOblique findfont
dup length dict begin
  {1 index /FID ne {def} {pop pop} ifelse} forall
  /Encoding WinAnsiEncoding def
  currentdict
end
/Courier-BoldOblique exch definefont pop
/Courier-Oblique findfont
dup length dict begin
  {1 index /FID ne {def} {pop pop} ifelse} forall
  /Encoding WinAnsiEncoding def
  currentdict
end
/Courier-Oblique exch definefont pop
/Times-Roman findfont
dup length dict begin
  {1 index /FID ne {def} {pop pop} ifelse} forall
  /Encoding WinAnsiEncoding def
  currentdict
end
/Times-Roman exch definefont pop
/Helvetica-BoldOblique findfont
dup length dict begin
  {1 index /FID ne {def} {pop pop} ifelse} forall
  /Encoding WinAnsiEncoding def
  currentdict
end
/Helvetica-BoldOblique exch definefont pop
/Helvetica-Bold findfont
dup length dict begin
  {1 index /FID ne {def} {pop pop} ifelse} forall
  /Encoding WinAnsiEncoding def
  currentdict
end
/Helvetica-Bold exch definefont pop
/Helvetica-Oblique findfont
dup length dict begin
  {1 index /FID ne {def} {pop pop} ifelse} forall
  /Encoding WinAnsiEncoding def
  currentdict
end
/Helvetica-Oblique exch definefont pop
/Times-BoldItalic findfont
dup length dict begin
  {1 index /FID ne {def} {pop pop} ifelse} forall
  /Encoding WinAnsiEncoding def
  currentdict
end
/Times-BoldItalic exch definefont pop
/Courier findfont
dup length dict begin
  {1 index /FID ne {def} {pop pop} ifelse} forall
  /Encoding WinAnsiEncoding def
  currentdict
end
/Courier exch definefont pop
/Times-Italic findfont
dup length dict begin
  {1 index /FID ne {def} {pop pop} ifelse} forall
  /Encoding WinAnsiEncoding def
  currentdict
end
/Times-Italic exch definefont pop
/Times-Bold findfont
dup length dict begin
  {1 index /FID ne {def} {pop pop} ifelse} forall
  /Encoding WinAnsiEncoding def
  currentdict
end
/Times-Bold exch definefont pop
%FOPEndFontReencode
%%EndProlog
%%Page: 1 1
%%PageBoundingBox: 0 0 420 472
%%BeginPageSetup
[1 0 0 -1 0 472] CT
%%EndPageSetup
GS
[0.5035 0 0 0.5035 0 -0.27972] CT
1 GC
N
0 0 834 938 re
f
GR
GS
[0.5035 0 0 0.5035 0 -0.27972] CT
1 GC
N
0 0 834 938 re
f
GR
GS
[0.5035 0 0 0.5035 0 -0.27972] CT
1 GC
N
157.833 844 M
751.167 844 L
751.167 488 L
157.833 488 L
cp
f
GR
GS
[0.5035 0 0 0.5035 0 -0.27972] CT
0.775 GC
[1 3] 0 setdash
2 LJ
0.993 LW
N
157.833 844 M
157.833 488 L
S
GR
GS
[0.5035 0 0 0.5035 0 -0.27972] CT
0.775 GC
[1 3] 0 setdash
2 LJ
0.993 LW
N
168.428 844 M
168.428 488 L
S
GR
GS
[0.5035 0 0 0.5035 0 -0.27972] CT
0.775 GC
[1 3] 0 setdash
2 LJ
0.993 LW
N
179.024 844 M
179.024 488 L
S
GR
GS
[0.5035 0 0 0.5035 0 -0.27972] CT
0.775 GC
[1 3] 0 setdash
2 LJ
0.993 LW
N
189.619 844 M
189.619 488 L
S
GR
GS
[0.5035 0 0 0.5035 0 -0.27972] CT
0.775 GC
[1 3] 0 setdash
2 LJ
0.993 LW
N
200.214 844 M
200.214 488 L
S
GR
GS
[0.5035 0 0 0.5035 0 -0.27972] CT
0.775 GC
[1 3] 0 setdash
2 LJ
0.993 LW
N
210.81 844 M
210.81 488 L
S
GR
GS
[0.5035 0 0 0.5035 0 -0.27972] CT
0.775 GC
[1 3] 0 setdash
2 LJ
0.993 LW
N
221.405 844 M
221.405 488 L
S
GR
GS
[0.5035 0 0 0.5035 0 -0.27972] CT
0.775 GC
[1 3] 0 setdash
2 LJ
0.993 LW
N
232 844 M
232 488 L
S
GR
GS
[0.5035 0 0 0.5035 0 -0.27972] CT
0.775 GC
[1 3] 0 setdash
2 LJ
0.993 LW
N
253.191 844 M
253.191 488 L
S
GR
GS
[0.5035 0 0 0.5035 0 -0.27972] CT
0.775 GC
[1 3] 0 setdash
2 LJ
0.993 LW
N
263.786 844 M
263.786 488 L
S
GR
GS
[0.5035 0 0 0.5035 0 -0.27972] CT
0.775 GC
[1 3] 0 setdash
2 LJ
0.993 LW
N
274.381 844 M
274.381 488 L
S
GR
GS
[0.5035 0 0 0.5035 0 -0.27972] CT
0.775 GC
[1 3] 0 setdash
2 LJ
0.993 LW
N
284.976 844 M
284.976 488 L
S
GR
GS
[0.5035 0 0 0.5035 0 -0.27972] CT
0.775 GC
[1 3] 0 setdash
2 LJ
0.993 LW
N
295.571 844 M
295.571 488 L
S
GR
GS
[0.5035 0 0 0.5035 0 -0.27972] CT
0.775 GC
[1 3] 0 setdash
2 LJ
0.993 LW
N
306.167 844 M
306.167 488 L
S
GR
GS
[0.5035 0 0 0.5035 0 -0.27972] CT
0.775 GC
[1 3] 0 setdash
2 LJ
0.993 LW
N
316.762 844 M
316.762 488 L
S
GR
GS
[0.5035 0 0 0.5035 0 -0.27972] CT
0.775 GC
[1 3] 0 setdash
2 LJ
0.993 LW
N
327.357 844 M
327.357 488 L
S
GR
GS
[0.5035 0 0 0.5035 0 -0.27972] CT
0.775 GC
[1 3] 0 setdash
2 LJ
0.993 LW
N
337.952 844 M
337.952 488 L
S
GR
GS
[0.5035 0 0 0.5035 0 -0.27972] CT
0.775 GC
[1 3] 0 setdash
2 LJ
0.993 LW
N
359.143 844 M
359.143 488 L
S
GR
GS
[0.5035 0 0 0.5035 0 -0.27972] CT
0.775 GC
[1 3] 0 setdash
2 LJ
0.993 LW
N
369.738 844 M
369.738 488 L
S
GR
GS
[0.5035 0 0 0.5035 0 -0.27972] CT
0.775 GC
[1 3] 0 setdash
2 LJ
0.993 LW
N
380.333 844 M
380.333 488 L
S
GR
GS
[0.5035 0 0 0.5035 0 -0.27972] CT
0.775 GC
[1 3] 0 setdash
2 LJ
0.993 LW
N
390.929 844 M
390.929 488 L
S
GR
GS
[0.5035 0 0 0.5035 0 -0.27972] CT
0.775 GC
[1 3] 0 setdash
2 LJ
0.993 LW
N
401.524 844 M
401.524 488 L
S
GR
GS
[0.5035 0 0 0.5035 0 -0.27972] CT
0.775 GC
[1 3] 0 setdash
2 LJ
0.993 LW
N
412.119 844 M
412.119 488 L
S
GR
GS
[0.5035 0 0 0.5035 0 -0.27972] CT
0.775 GC
[1 3] 0 setdash
2 LJ
0.993 LW
N
422.714 844 M
422.714 488 L
S
GR
GS
[0.5035 0 0 0.5035 0 -0.27972] CT
0.775 GC
[1 3] 0 setdash
2 LJ
0.993 LW
N
433.309 844 M
433.309 488 L
S
GR
GS
[0.5035 0 0 0.5035 0 -0.27972] CT
0.775 GC
[1 3] 0 setdash
2 LJ
0.993 LW
N
443.905 844 M
443.905 488 L
S
GR
GS
[0.5035 0 0 0.5035 0 -0.27972] CT
0.775 GC
[1 3] 0 setdash
2 LJ
0.993 LW
N
465.095 844 M
465.095 488 L
S
GR
GS
[0.5035 0 0 0.5035 0 -0.27972] CT
0.775 GC
[1 3] 0 setdash
2 LJ
0.993 LW
N
475.691 844 M
475.691 488 L
S
GR
GS
[0.5035 0 0 0.5035 0 -0.27972] CT
0.775 GC
[1 3] 0 setdash
2 LJ
0.993 LW
N
486.286 844 M
486.286 488 L
S
GR
GS
[0.5035 0 0 0.5035 0 -0.27972] CT
0.775 GC
[1 3] 0 setdash
2 LJ
0.993 LW
N
496.881 844 M
496.881 488 L
S
GR
GS
[0.5035 0 0 0.5035 0 -0.27972] CT
0.775 GC
[1 3] 0 setdash
2 LJ
0.993 LW
N
507.476 844 M
507.476 488 L
S
GR
GS
[0.5035 0 0 0.5035 0 -0.27972] CT
0.775 GC
[1 3] 0 setdash
2 LJ
0.993 LW
N
518.071 844 M
518.071 488 L
S
GR
GS
[0.5035 0 0 0.5035 0 -0.27972] CT
0.775 GC
[1 3] 0 setdash
2 LJ
0.993 LW
N
528.667 844 M
528.667 488 L
S
GR
GS
[0.5035 0 0 0.5035 0 -0.27972] CT
0.775 GC
[1 3] 0 setdash
2 LJ
0.993 LW
N
539.262 844 M
539.262 488 L
S
GR
GS
[0.5035 0 0 0.5035 0 -0.27972] CT
0.775 GC
[1 3] 0 setdash
2 LJ
0.993 LW
N
549.857 844 M
549.857 488 L
S
GR
GS
[0.5035 0 0 0.5035 0 -0.27972] CT
0.775 GC
[1 3] 0 setdash
2 LJ
0.993 LW
N
571.048 844 M
571.048 488 L
S
GR
GS
[0.5035 0 0 0.5035 0 -0.27972] CT
0.775 GC
[1 3] 0 setdash
2 LJ
0.993 LW
N
581.643 844 M
581.643 488 L
S
GR
GS
[0.5035 0 0 0.5035 0 -0.27972] CT
0.775 GC
[1 3] 0 setdash
2 LJ
0.993 LW
N
592.238 844 M
592.238 488 L
S
GR
GS
[0.5035 0 0 0.5035 0 -0.27972] CT
0.775 GC
[1 3] 0 setdash
2 LJ
0.993 LW
N
602.833 844 M
602.833 488 L
S
GR
GS
[0.5035 0 0 0.5035 0 -0.27972] CT
0.775 GC
[1 3] 0 setdash
2 LJ
0.993 LW
N
613.429 844 M
613.429 488 L
S
GR
GS
[0.5035 0 0 0.5035 0 -0.27972] CT
0.775 GC
[1 3] 0 setdash
2 LJ
0.993 LW
N
624.024 844 M
624.024 488 L
S
GR
GS
[0.5035 0 0 0.5035 0 -0.27972] CT
0.775 GC
[1 3] 0 setdash
2 LJ
0.993 LW
N
634.619 844 M
634.619 488 L
S
GR
GS
[0.5035 0 0 0.5035 0 -0.27972] CT
0.775 GC
[1 3] 0 setdash
2 LJ
0.993 LW
N
645.214 844 M
645.214 488 L
S
GR
GS
[0.5035 0 0 0.5035 0 -0.27972] CT
0.775 GC
[1 3] 0 setdash
2 LJ
0.993 LW
N
655.81 844 M
655.81 488 L
S
GR
GS
[0.5035 0 0 0.5035 0 -0.27972] CT
0.775 GC
[1 3] 0 setdash
2 LJ
0.993 LW
N
677 844 M
677 488 L
S
GR
GS
[0.5035 0 0 0.5035 0 -0.27972] CT
0.775 GC
[1 3] 0 setdash
2 LJ
0.993 LW
N
687.595 844 M
687.595 488 L
S
GR
GS
[0.5035 0 0 0.5035 0 -0.27972] CT
0.775 GC
[1 3] 0 setdash
2 LJ
0.993 LW
N
698.19 844 M
698.19 488 L
S
GR
GS
[0.5035 0 0 0.5035 0 -0.27972] CT
0.775 GC
[1 3] 0 setdash
2 LJ
0.993 LW
N
708.786 844 M
708.786 488 L
S
GR
GS
[0.5035 0 0 0.5035 0 -0.27972] CT
0.775 GC
[1 3] 0 setdash
2 LJ
0.993 LW
N
719.381 844 M
719.381 488 L
S
GR
GS
[0.5035 0 0 0.5035 0 -0.27972] CT
0.775 GC
[1 3] 0 setdash
2 LJ
0.993 LW
N
729.976 844 M
729.976 488 L
S
GR
GS
[0.5035 0 0 0.5035 0 -0.27972] CT
0.775 GC
[1 3] 0 setdash
2 LJ
0.993 LW
N
740.572 844 M
740.572 488 L
S
GR
GS
[0.5035 0 0 0.5035 0 -0.27972] CT
0.873 GC
1 LJ
0.993 LW
N
242.595 844 M
242.595 488 L
S
GR
GS
[0.5035 0 0 0.5035 0 -0.27972] CT
0.873 GC
1 LJ
0.993 LW
N
348.548 844 M
348.548 488 L
S
GR
GS
[0.5035 0 0 0.5035 0 -0.27972] CT
0.873 GC
1 LJ
0.993 LW
N
454.5 844 M
454.5 488 L
S
GR
GS
[0.5035 0 0 0.5035 0 -0.27972] CT
0.873 GC
1 LJ
0.993 LW
N
560.452 844 M
560.452 488 L
S
GR
GS
[0.5035 0 0 0.5035 0 -0.27972] CT
0.873 GC
1 LJ
0.993 LW
N
666.405 844 M
666.405 488 L
S
GR
GS
[0.5035 0 0 0.5035 0 -0.27972] CT
0.775 GC
[1 3] 0 setdash
2 LJ
0.993 LW
N
751.167 826.2 M
157.833 826.2 L
S
GR
GS
[0.5035 0 0 0.5035 0 -0.27972] CT
0.775 GC
[1 3] 0 setdash
2 LJ
0.993 LW
N
751.167 808.4 M
157.833 808.4 L
S
GR
GS
[0.5035 0 0 0.5035 0 -0.27972] CT
0.775 GC
[1 3] 0 setdash
2 LJ
0.993 LW
N
751.167 790.6 M
157.833 790.6 L
S
GR
GS
[0.5035 0 0 0.5035 0 -0.27972] CT
0.775 GC
[1 3] 0 setdash
2 LJ
0.993 LW
N
751.167 772.8 M
157.833 772.8 L
S
GR
GS
[0.5035 0 0 0.5035 0 -0.27972] CT
0.775 GC
[1 3] 0 setdash
2 LJ
0.993 LW
N
751.167 737.2 M
157.833 737.2 L
S
GR
GS
[0.5035 0 0 0.5035 0 -0.27972] CT
0.775 GC
[1 3] 0 setdash
2 LJ
0.993 LW
N
751.167 719.4 M
157.833 719.4 L
S
GR
GS
[0.5035 0 0 0.5035 0 -0.27972] CT
0.775 GC
[1 3] 0 setdash
2 LJ
0.993 LW
N
751.167 701.6 M
157.833 701.6 L
S
GR
GS
[0.5035 0 0 0.5035 0 -0.27972] CT
0.775 GC
[1 3] 0 setdash
2 LJ
0.993 LW
N
751.167 683.8 M
157.833 683.8 L
S
GR
GS
[0.5035 0 0 0.5035 0 -0.27972] CT
0.775 GC
[1 3] 0 setdash
2 LJ
0.993 LW
N
751.167 648.2 M
157.833 648.2 L
S
GR
GS
[0.5035 0 0 0.5035 0 -0.27972] CT
0.775 GC
[1 3] 0 setdash
2 LJ
0.993 LW
N
751.167 630.4 M
157.833 630.4 L
S
GR
GS
[0.5035 0 0 0.5035 0 -0.27972] CT
0.775 GC
[1 3] 0 setdash
2 LJ
0.993 LW
N
751.167 612.6 M
157.833 612.6 L
S
GR
GS
[0.5035 0 0 0.5035 0 -0.27972] CT
0.775 GC
[1 3] 0 setdash
2 LJ
0.993 LW
N
751.167 594.8 M
157.833 594.8 L
S
GR
GS
[0.5035 0 0 0.5035 0 -0.27972] CT
0.775 GC
[1 3] 0 setdash
2 LJ
0.993 LW
N
751.167 559.2 M
157.833 559.2 L
S
GR
GS
[0.5035 0 0 0.5035 0 -0.27972] CT
0.775 GC
[1 3] 0 setdash
2 LJ
0.993 LW
N
751.167 541.4 M
157.833 541.4 L
S
GR
GS
[0.5035 0 0 0.5035 0 -0.27972] CT
0.775 GC
[1 3] 0 setdash
2 LJ
0.993 LW
N
751.167 523.6 M
157.833 523.6 L
S
GR
GS
[0.5035 0 0 0.5035 0 -0.27972] CT
0.775 GC
[1 3] 0 setdash
2 LJ
0.993 LW
N
751.167 505.8 M
157.833 505.8 L
S
GR
GS
[0.5035 0 0 0.5035 0 -0.27972] CT
0.873 GC
1 LJ
0.993 LW
N
751.167 844 M
157.833 844 L
S
GR
GS
[0.5035 0 0 0.5035 0 -0.27972] CT
0.873 GC
1 LJ
0.993 LW
N
751.167 755 M
157.833 755 L
S
GR
GS
[0.5035 0 0 0.5035 0 -0.27972] CT
0.873 GC
1 LJ
0.993 LW
N
751.167 666 M
157.833 666 L
S
GR
GS
[0.5035 0 0 0.5035 0 -0.27972] CT
0.873 GC
1 LJ
0.993 LW
N
751.167 577 M
157.833 577 L
S
GR
GS
[0.5035 0 0 0.5035 0 -0.27972] CT
0.873 GC
1 LJ
0.993 LW
N
751.167 488 M
157.833 488 L
S
GR
GS
[0.5035 0 0 0.5035 0 -0.27972] CT
0.149 GC
2 setlinecap
1 LJ
0.993 LW
N
157.833 844 M
751.167 844 L
S
GR
GS
[0.5035 0 0 0.5035 0 -0.27972] CT
0.149 GC
2 setlinecap
1 LJ
0.993 LW
N
157.833 488 M
751.167 488 L
S
GR
GS
[0.5035 0 0 0.5035 0 -0.27972] CT
0.149 GC
2 setlinecap
1 LJ
0.993 LW
N
242.595 844 M
242.595 838.067 L
S
GR
GS
[0.5035 0 0 0.5035 0 -0.27972] CT
0.149 GC
2 setlinecap
1 LJ
0.993 LW
N
348.548 844 M
348.548 838.067 L
S
GR
GS
[0.5035 0 0 0.5035 0 -0.27972] CT
0.149 GC
2 setlinecap
1 LJ
0.993 LW
N
454.5 844 M
454.5 838.067 L
S
GR
GS
[0.5035 0 0 0.5035 0 -0.27972] CT
0.149 GC
2 setlinecap
1 LJ
0.993 LW
N
560.452 844 M
560.452 838.067 L
S
GR
GS
[0.5035 0 0 0.5035 0 -0.27972] CT
0.149 GC
2 setlinecap
1 LJ
0.993 LW
N
666.405 844 M
666.405 838.067 L
S
GR
GS
[0.5035 0 0 0.5035 0 -0.27972] CT
0.149 GC
2 setlinecap
1 LJ
0.993 LW
N
242.595 488 M
242.595 493.933 L
S
GR
GS
[0.5035 0 0 0.5035 0 -0.27972] CT
0.149 GC
2 setlinecap
1 LJ
0.993 LW
N
348.548 488 M
348.548 493.933 L
S
GR
GS
[0.5035 0 0 0.5035 0 -0.27972] CT
0.149 GC
2 setlinecap
1 LJ
0.993 LW
N
454.5 488 M
454.5 493.933 L
S
GR
GS
[0.5035 0 0 0.5035 0 -0.27972] CT
0.149 GC
2 setlinecap
1 LJ
0.993 LW
N
560.452 488 M
560.452 493.933 L
S
GR
GS
[0.5035 0 0 0.5035 0 -0.27972] CT
0.149 GC
2 setlinecap
1 LJ
0.993 LW
N
666.405 488 M
666.405 493.933 L
S
GR
GS
[0.5035 0 0 0.5035 122.14586 428.67134] CT
0.149 GC
/Helvetica 19.861 F
GS
[1 0 0 1 0 0] CT
-16 19 moveto 
1 -1 scale
(8.5) t 
GR
GR
GS
[0.5035 0 0 0.5035 175.4925 428.67134] CT
0.149 GC
/Helvetica 19.861 F
GS
[1 0 0 1 0 0] CT
-6.5 19 moveto 
1 -1 scale
(9) t 
GR
GR
GS
[0.5035 0 0 0.5035 228.83916 428.67134] CT
0.149 GC
/Helvetica 19.861 F
GS
[1 0 0 1 0 0] CT
-16 19 moveto 
1 -1 scale
(9.5) t 
GR
GR
GS
[0.5035 0 0 0.5035 282.18582 428.67134] CT
0.149 GC
/Helvetica 19.861 F
GS
[1 0 0 1 0 0] CT
-13 19 moveto 
1 -1 scale
(10) t 
GR
GR
GS
[0.5035 0 0 0.5035 335.53247 428.67134] CT
0.149 GC
/Helvetica 19.861 F
GS
[1 0 0 1 0 0] CT
-22.5 19 moveto 
1 -1 scale
(10.5) t 
GR
GR
GS
[0.5035 0 0 0.5035 228.83926 441.75521] CT
0.149 GC
/Helvetica 21.847 F
GS
[1 0 0 1 0 0] CT
-202.5 21 moveto 
1 -1 scale
(Number of calibration configurations) t 
GR
GR
GS
[0.5035 0 0 0.5035 0 -0.27972] CT
0.149 GC
2 setlinecap
1 LJ
0.993 LW
N
157.833 844 M
157.833 488 L
S
GR
GS
[0.5035 0 0 0.5035 0 -0.27972] CT
0.149 GC
2 setlinecap
1 LJ
0.993 LW
N
751.167 844 M
751.167 488 L
S
GR
GS
[0.5035 0 0 0.5035 0 -0.27972] CT
0.149 GC
2 setlinecap
1 LJ
0.993 LW
N
157.833 844 M
163.767 844 L
S
GR
GS
[0.5035 0 0 0.5035 0 -0.27972] CT
0.149 GC
2 setlinecap
1 LJ
0.993 LW
N
157.833 755 M
163.767 755 L
S
GR
GS
[0.5035 0 0 0.5035 0 -0.27972] CT
0.149 GC
2 setlinecap
1 LJ
0.993 LW
N
157.833 666 M
163.767 666 L
S
GR
GS
[0.5035 0 0 0.5035 0 -0.27972] CT
0.149 GC
2 setlinecap
1 LJ
0.993 LW
N
157.833 577 M
163.767 577 L
S
GR
GS
[0.5035 0 0 0.5035 0 -0.27972] CT
0.149 GC
2 setlinecap
1 LJ
0.993 LW
N
157.833 488 M
163.767 488 L
S
GR
GS
[0.5035 0 0 0.5035 0 -0.27972] CT
0.149 GC
2 setlinecap
1 LJ
0.993 LW
N
751.167 844 M
745.233 844 L
S
GR
GS
[0.5035 0 0 0.5035 0 -0.27972] CT
0.149 GC
2 setlinecap
1 LJ
0.993 LW
N
751.167 755 M
745.233 755 L
S
GR
GS
[0.5035 0 0 0.5035 0 -0.27972] CT
0.149 GC
2 setlinecap
1 LJ
0.993 LW
N
751.167 666 M
745.233 666 L
S
GR
GS
[0.5035 0 0 0.5035 0 -0.27972] CT
0.149 GC
2 setlinecap
1 LJ
0.993 LW
N
751.167 577 M
745.233 577 L
S
GR
GS
[0.5035 0 0 0.5035 0 -0.27972] CT
0.149 GC
2 setlinecap
1 LJ
0.993 LW
N
751.167 488 M
745.233 488 L
S
GR
GS
[0.5035 0 0 0.5035 75.46855 424.6713] CT
0.149 GC
/Helvetica 19.861 F
GS
[1 0 0 1 0 0] CT
-32 7 moveto 
1 -1 scale
(0.6) t 
GR
GR
GS
[0.5035 0 0 0.5035 75.46855 379.86017] CT
0.149 GC
/Helvetica 19.861 F
GS
[1 0 0 1 0 0] CT
-45 7 moveto 
1 -1 scale
(0.65) t 
GR
GR
GS
[0.5035 0 0 0.5035 75.46855 335.04895] CT
0.149 GC
/Helvetica 19.861 F
GS
[1 0 0 1 0 0] CT
-32 7 moveto 
1 -1 scale
(0.7) t 
GR
GR
GS
[0.5035 0 0 0.5035 75.46855 290.23776] CT
0.149 GC
/Helvetica 19.861 F
GS
[1 0 0 1 0 0] CT
-45 7 moveto 
1 -1 scale
(0.75) t 
GR
GR
GS
[0.5035 0 0 0.5035 75.46855 245.42656] CT
0.149 GC
/Helvetica 19.861 F
GS
[1 0 0 1 0 0] CT
-32 7 moveto 
1 -1 scale
(0.8) t 
GR
GR
GS
[0 -0.5035 0.5035 0 49.81125 335.04886] CT
0.149 GC
/Helvetica 21.847 F
GS
[1 0 0 1 0 0] CT
-104.5 -6 moveto 
1 -1 scale
(Rotational error [\260]) t 
GR
GR
GS
[0.5035 0 0 0.5035 0 -0.27972] CT
0 0 1 RC
1 LJ
0.993 LW
N
348.548 636.778 M
348.548 569.016 L
S
GR
GS
[0.5035 0 0 0.5035 0 -0.27972] CT
0 0 1 RC
1 LJ
0.993 LW
N
560.452 590.881 M
560.452 529.6 L
S
GR
GS
[0.5035 0 0 0.5035 0 -0.27972] CT
0 0 1 RC
1 LJ
0.993 LW
N
333.714 636.778 M
363.381 636.778 L
S
GR
GS
[0.5035 0 0 0.5035 0 -0.27972] CT
0 0 1 RC
1 LJ
0.993 LW
N
545.619 590.881 M
575.286 590.881 L
S
GR
GS
[0.5035 0 0 0.5035 0 -0.27972] CT
0 0 1 RC
1 LJ
0.993 LW
N
333.714 569.016 M
363.381 569.016 L
S
GR
GS
[0.5035 0 0 0.5035 0 -0.27972] CT
0 0 1 RC
1 LJ
0.993 LW
N
545.619 529.6 M
575.286 529.6 L
S
GR
GS
[0.5035 0 0 0.5035 0 -0.27972] CT
0 0 1 RC
1 LJ
0.993 LW
N
157.774 639.479 M
348.548 602.897 L
560.452 560.24 L
S
GR
GS
[0.5035 0 0 0.5035 175.4925 303.27695] CT
0 0 1 RC
N
1.986 0 M
1.986 1.097 1.097 1.986 0 1.986 C
-1.097 1.986 -1.986 1.097 -1.986 0 C
-1.986 -1.097 -1.097 -1.986 0 -1.986 C
1.097 -1.986 1.986 -1.097 1.986 0 C
cp
f
GR
GS
[0.5035 0 0 0.5035 282.18582 281.79925] CT
0 0 1 RC
N
1.986 0 M
1.986 1.097 1.097 1.986 0 1.986 C
-1.097 1.986 -1.986 1.097 -1.986 0 C
-1.986 -1.097 -1.097 -1.986 0 -1.986 C
1.097 -1.986 1.986 -1.097 1.986 0 C
cp
f
GR
GS
[0.5035 0 0 0.5035 0 -0.27972] CT
1 0 0 RC
1 LJ
0.993 LW
N
348.548 836.059 M
348.548 597.744 L
S
GR
GS
[0.5035 0 0 0.5035 0 -0.27972] CT
1 0 0 RC
1 LJ
0.993 LW
N
560.452 807.064 M
560.452 570.466 L
S
GR
GS
[0.5035 0 0 0.5035 0 -0.27972] CT
1 0 0 RC
1 LJ
0.993 LW
N
333.714 836.059 M
363.381 836.059 L
S
GR
GS
[0.5035 0 0 0.5035 0 -0.27972] CT
1 0 0 RC
1 LJ
0.993 LW
N
545.619 807.064 M
575.286 807.064 L
S
GR
GS
[0.5035 0 0 0.5035 0 -0.27972] CT
1 0 0 RC
1 LJ
0.993 LW
N
333.714 597.744 M
363.381 597.744 L
S
GR
GS
[0.5035 0 0 0.5035 0 -0.27972] CT
1 0 0 RC
1 LJ
0.993 LW
N
545.619 570.466 M
575.286 570.466 L
S
GR
GS
[0.5035 0 0 0.5035 0 -0.27972] CT
1 0 0 RC
1 LJ
0.993 LW
N
157.774 793.31 M
348.548 716.902 L
560.452 688.765 L
S
GR
GS
[0.5035 0 0 0.5035 175.4925 360.67773] CT
1 0 0 RC
N
1.986 0 M
1.986 1.097 1.097 1.986 0 1.986 C
-1.097 1.986 -1.986 1.097 -1.986 0 C
-1.986 -1.097 -1.097 -1.986 0 -1.986 C
1.097 -1.986 1.986 -1.097 1.986 0 C
cp
f
GR
GS
[0.5035 0 0 0.5035 282.18582 346.51109] CT
1 0 0 RC
N
1.986 0 M
1.986 1.097 1.097 1.986 0 1.986 C
-1.097 1.986 -1.986 1.097 -1.986 0 C
-1.986 -1.097 -1.097 -1.986 0 -1.986 C
1.097 -1.986 1.986 -1.097 1.986 0 C
cp
f
GR
GS
[0.5035 0 0 0.5035 0 -0.27972] CT
1 GC
N
516 556 M
516 508 L
731 508 L
731 556 L
cp
f
GR
GS
[0.5035 0 0 0.5035 278.43356 261.97447] CT
/Helvetica 17.875 F
GS
[1 0 0 1 0 0] CT
0 6 moveto 
1 -1 scale
(Train MAE, rotation) t 
GR
GR
GS
[0.5035 0 0 0.5035 0 -0.27972] CT
0 0 1 RC
1 LJ
0.993 LW
N
520 520.866 M
550 520.866 L
S
GR
GS
[0.5035 0 0 0.5035 269.37062 261.97447] CT
0 0 1 RC
N
1.986 0 M
1.986 1.097 1.097 1.986 0 1.986 C
-1.097 1.986 -1.986 1.097 -1.986 0 C
-1.986 -1.097 -1.097 -1.986 0 -1.986 C
1.097 -1.986 1.986 -1.097 1.986 0 C
cp
f
GR
GS
[0.5035 0 0 0.5035 278.43356 273.18636] CT
/Helvetica 17.875 F
GS
[1 0 0 1 0 0] CT
0 6 moveto 
1 -1 scale
(Test MAE, rotation) t 
GR
GR
GS
[0.5035 0 0 0.5035 0 -0.27972] CT
1 0 0 RC
1 LJ
0.993 LW
N
520 543.134 M
550 543.134 L
S
GR
GS
[0.5035 0 0 0.5035 269.37062 273.18636] CT
1 0 0 RC
N
1.986 0 M
1.986 1.097 1.097 1.986 0 1.986 C
-1.097 1.986 -1.986 1.097 -1.986 0 C
-1.986 -1.097 -1.097 -1.986 0 -1.986 C
1.097 -1.986 1.986 -1.097 1.986 0 C
cp
f
GR
GS
[0.5035 0 0 0.5035 0 -0.27972] CT
0.149 GC
10.0 ML
0.993 LW
N
516 556 M
516 508 L
731 508 L
731 556 L
cp
S
GR
GS
[0.5035 0 0 0.5035 0 -0.27972] CT
1 GC
N
157.833 450 M
751.167 450 L
751.167 94 L
157.833 94 L
cp
f
GR
GS
[0.5035 0 0 0.5035 0 -0.27972] CT
0.775 GC
[1 3] 0 setdash
2 LJ
0.993 LW
N
157.833 450 M
157.833 94 L
S
GR
GS
[0.5035 0 0 0.5035 0 -0.27972] CT
0.775 GC
[1 3] 0 setdash
2 LJ
0.993 LW
N
168.428 450 M
168.428 94 L
S
GR
GS
[0.5035 0 0 0.5035 0 -0.27972] CT
0.775 GC
[1 3] 0 setdash
2 LJ
0.993 LW
N
179.024 450 M
179.024 94 L
S
GR
GS
[0.5035 0 0 0.5035 0 -0.27972] CT
0.775 GC
[1 3] 0 setdash
2 LJ
0.993 LW
N
189.619 450 M
189.619 94 L
S
GR
GS
[0.5035 0 0 0.5035 0 -0.27972] CT
0.775 GC
[1 3] 0 setdash
2 LJ
0.993 LW
N
200.214 450 M
200.214 94 L
S
GR
GS
[0.5035 0 0 0.5035 0 -0.27972] CT
0.775 GC
[1 3] 0 setdash
2 LJ
0.993 LW
N
210.81 450 M
210.81 94 L
S
GR
GS
[0.5035 0 0 0.5035 0 -0.27972] CT
0.775 GC
[1 3] 0 setdash
2 LJ
0.993 LW
N
221.405 450 M
221.405 94 L
S
GR
GS
[0.5035 0 0 0.5035 0 -0.27972] CT
0.775 GC
[1 3] 0 setdash
2 LJ
0.993 LW
N
232 450 M
232 94 L
S
GR
GS
[0.5035 0 0 0.5035 0 -0.27972] CT
0.775 GC
[1 3] 0 setdash
2 LJ
0.993 LW
N
253.191 450 M
253.191 94 L
S
GR
GS
[0.5035 0 0 0.5035 0 -0.27972] CT
0.775 GC
[1 3] 0 setdash
2 LJ
0.993 LW
N
263.786 450 M
263.786 94 L
S
GR
GS
[0.5035 0 0 0.5035 0 -0.27972] CT
0.775 GC
[1 3] 0 setdash
2 LJ
0.993 LW
N
274.381 450 M
274.381 94 L
S
GR
GS
[0.5035 0 0 0.5035 0 -0.27972] CT
0.775 GC
[1 3] 0 setdash
2 LJ
0.993 LW
N
284.976 450 M
284.976 94 L
S
GR
GS
[0.5035 0 0 0.5035 0 -0.27972] CT
0.775 GC
[1 3] 0 setdash
2 LJ
0.993 LW
N
295.571 450 M
295.571 94 L
S
GR
GS
[0.5035 0 0 0.5035 0 -0.27972] CT
0.775 GC
[1 3] 0 setdash
2 LJ
0.993 LW
N
306.167 450 M
306.167 94 L
S
GR
GS
[0.5035 0 0 0.5035 0 -0.27972] CT
0.775 GC
[1 3] 0 setdash
2 LJ
0.993 LW
N
316.762 450 M
316.762 94 L
S
GR
GS
[0.5035 0 0 0.5035 0 -0.27972] CT
0.775 GC
[1 3] 0 setdash
2 LJ
0.993 LW
N
327.357 450 M
327.357 94 L
S
GR
GS
[0.5035 0 0 0.5035 0 -0.27972] CT
0.775 GC
[1 3] 0 setdash
2 LJ
0.993 LW
N
337.952 450 M
337.952 94 L
S
GR
GS
[0.5035 0 0 0.5035 0 -0.27972] CT
0.775 GC
[1 3] 0 setdash
2 LJ
0.993 LW
N
359.143 450 M
359.143 94 L
S
GR
GS
[0.5035 0 0 0.5035 0 -0.27972] CT
0.775 GC
[1 3] 0 setdash
2 LJ
0.993 LW
N
369.738 450 M
369.738 94 L
S
GR
GS
[0.5035 0 0 0.5035 0 -0.27972] CT
0.775 GC
[1 3] 0 setdash
2 LJ
0.993 LW
N
380.333 450 M
380.333 94 L
S
GR
GS
[0.5035 0 0 0.5035 0 -0.27972] CT
0.775 GC
[1 3] 0 setdash
2 LJ
0.993 LW
N
390.929 450 M
390.929 94 L
S
GR
GS
[0.5035 0 0 0.5035 0 -0.27972] CT
0.775 GC
[1 3] 0 setdash
2 LJ
0.993 LW
N
401.524 450 M
401.524 94 L
S
GR
GS
[0.5035 0 0 0.5035 0 -0.27972] CT
0.775 GC
[1 3] 0 setdash
2 LJ
0.993 LW
N
412.119 450 M
412.119 94 L
S
GR
GS
[0.5035 0 0 0.5035 0 -0.27972] CT
0.775 GC
[1 3] 0 setdash
2 LJ
0.993 LW
N
422.714 450 M
422.714 94 L
S
GR
GS
[0.5035 0 0 0.5035 0 -0.27972] CT
0.775 GC
[1 3] 0 setdash
2 LJ
0.993 LW
N
433.309 450 M
433.309 94 L
S
GR
GS
[0.5035 0 0 0.5035 0 -0.27972] CT
0.775 GC
[1 3] 0 setdash
2 LJ
0.993 LW
N
443.905 450 M
443.905 94 L
S
GR
GS
[0.5035 0 0 0.5035 0 -0.27972] CT
0.775 GC
[1 3] 0 setdash
2 LJ
0.993 LW
N
465.095 450 M
465.095 94 L
S
GR
GS
[0.5035 0 0 0.5035 0 -0.27972] CT
0.775 GC
[1 3] 0 setdash
2 LJ
0.993 LW
N
475.691 450 M
475.691 94 L
S
GR
GS
[0.5035 0 0 0.5035 0 -0.27972] CT
0.775 GC
[1 3] 0 setdash
2 LJ
0.993 LW
N
486.286 450 M
486.286 94 L
S
GR
GS
[0.5035 0 0 0.5035 0 -0.27972] CT
0.775 GC
[1 3] 0 setdash
2 LJ
0.993 LW
N
496.881 450 M
496.881 94 L
S
GR
GS
[0.5035 0 0 0.5035 0 -0.27972] CT
0.775 GC
[1 3] 0 setdash
2 LJ
0.993 LW
N
507.476 450 M
507.476 94 L
S
GR
GS
[0.5035 0 0 0.5035 0 -0.27972] CT
0.775 GC
[1 3] 0 setdash
2 LJ
0.993 LW
N
518.071 450 M
518.071 94 L
S
GR
GS
[0.5035 0 0 0.5035 0 -0.27972] CT
0.775 GC
[1 3] 0 setdash
2 LJ
0.993 LW
N
528.667 450 M
528.667 94 L
S
GR
GS
[0.5035 0 0 0.5035 0 -0.27972] CT
0.775 GC
[1 3] 0 setdash
2 LJ
0.993 LW
N
539.262 450 M
539.262 94 L
S
GR
GS
[0.5035 0 0 0.5035 0 -0.27972] CT
0.775 GC
[1 3] 0 setdash
2 LJ
0.993 LW
N
549.857 450 M
549.857 94 L
S
GR
GS
[0.5035 0 0 0.5035 0 -0.27972] CT
0.775 GC
[1 3] 0 setdash
2 LJ
0.993 LW
N
571.048 450 M
571.048 94 L
S
GR
GS
[0.5035 0 0 0.5035 0 -0.27972] CT
0.775 GC
[1 3] 0 setdash
2 LJ
0.993 LW
N
581.643 450 M
581.643 94 L
S
GR
GS
[0.5035 0 0 0.5035 0 -0.27972] CT
0.775 GC
[1 3] 0 setdash
2 LJ
0.993 LW
N
592.238 450 M
592.238 94 L
S
GR
GS
[0.5035 0 0 0.5035 0 -0.27972] CT
0.775 GC
[1 3] 0 setdash
2 LJ
0.993 LW
N
602.833 450 M
602.833 94 L
S
GR
GS
[0.5035 0 0 0.5035 0 -0.27972] CT
0.775 GC
[1 3] 0 setdash
2 LJ
0.993 LW
N
613.429 450 M
613.429 94 L
S
GR
GS
[0.5035 0 0 0.5035 0 -0.27972] CT
0.775 GC
[1 3] 0 setdash
2 LJ
0.993 LW
N
624.024 450 M
624.024 94 L
S
GR
GS
[0.5035 0 0 0.5035 0 -0.27972] CT
0.775 GC
[1 3] 0 setdash
2 LJ
0.993 LW
N
634.619 450 M
634.619 94 L
S
GR
GS
[0.5035 0 0 0.5035 0 -0.27972] CT
0.775 GC
[1 3] 0 setdash
2 LJ
0.993 LW
N
645.214 450 M
645.214 94 L
S
GR
GS
[0.5035 0 0 0.5035 0 -0.27972] CT
0.775 GC
[1 3] 0 setdash
2 LJ
0.993 LW
N
655.81 450 M
655.81 94 L
S
GR
GS
[0.5035 0 0 0.5035 0 -0.27972] CT
0.775 GC
[1 3] 0 setdash
2 LJ
0.993 LW
N
677 450 M
677 94 L
S
GR
GS
[0.5035 0 0 0.5035 0 -0.27972] CT
0.775 GC
[1 3] 0 setdash
2 LJ
0.993 LW
N
687.595 450 M
687.595 94 L
S
GR
GS
[0.5035 0 0 0.5035 0 -0.27972] CT
0.775 GC
[1 3] 0 setdash
2 LJ
0.993 LW
N
698.19 450 M
698.19 94 L
S
GR
GS
[0.5035 0 0 0.5035 0 -0.27972] CT
0.775 GC
[1 3] 0 setdash
2 LJ
0.993 LW
N
708.786 450 M
708.786 94 L
S
GR
GS
[0.5035 0 0 0.5035 0 -0.27972] CT
0.775 GC
[1 3] 0 setdash
2 LJ
0.993 LW
N
719.381 450 M
719.381 94 L
S
GR
GS
[0.5035 0 0 0.5035 0 -0.27972] CT
0.775 GC
[1 3] 0 setdash
2 LJ
0.993 LW
N
729.976 450 M
729.976 94 L
S
GR
GS
[0.5035 0 0 0.5035 0 -0.27972] CT
0.775 GC
[1 3] 0 setdash
2 LJ
0.993 LW
N
740.572 450 M
740.572 94 L
S
GR
GS
[0.5035 0 0 0.5035 0 -0.27972] CT
0.873 GC
1 LJ
0.993 LW
N
242.595 450 M
242.595 94 L
S
GR
GS
[0.5035 0 0 0.5035 0 -0.27972] CT
0.873 GC
1 LJ
0.993 LW
N
348.548 450 M
348.548 94 L
S
GR
GS
[0.5035 0 0 0.5035 0 -0.27972] CT
0.873 GC
1 LJ
0.993 LW
N
454.5 450 M
454.5 94 L
S
GR
GS
[0.5035 0 0 0.5035 0 -0.27972] CT
0.873 GC
1 LJ
0.993 LW
N
560.452 450 M
560.452 94 L
S
GR
GS
[0.5035 0 0 0.5035 0 -0.27972] CT
0.873 GC
1 LJ
0.993 LW
N
666.405 450 M
666.405 94 L
S
GR
GS
[0.5035 0 0 0.5035 0 -0.27972] CT
0.775 GC
[1 3] 0 setdash
2 LJ
0.993 LW
N
751.167 435.76 M
157.833 435.76 L
S
GR
GS
[0.5035 0 0 0.5035 0 -0.27972] CT
0.775 GC
[1 3] 0 setdash
2 LJ
0.993 LW
N
751.167 421.52 M
157.833 421.52 L
S
GR
GS
[0.5035 0 0 0.5035 0 -0.27972] CT
0.775 GC
[1 3] 0 setdash
2 LJ
0.993 LW
N
751.167 407.28 M
157.833 407.28 L
S
GR
GS
[0.5035 0 0 0.5035 0 -0.27972] CT
0.775 GC
[1 3] 0 setdash
2 LJ
0.993 LW
N
751.167 393.04 M
157.833 393.04 L
S
GR
GS
[0.5035 0 0 0.5035 0 -0.27972] CT
0.775 GC
[1 3] 0 setdash
2 LJ
0.993 LW
N
751.167 364.56 M
157.833 364.56 L
S
GR
GS
[0.5035 0 0 0.5035 0 -0.27972] CT
0.775 GC
[1 3] 0 setdash
2 LJ
0.993 LW
N
751.167 350.32 M
157.833 350.32 L
S
GR
GS
[0.5035 0 0 0.5035 0 -0.27972] CT
0.775 GC
[1 3] 0 setdash
2 LJ
0.993 LW
N
751.167 336.08 M
157.833 336.08 L
S
GR
GS
[0.5035 0 0 0.5035 0 -0.27972] CT
0.775 GC
[1 3] 0 setdash
2 LJ
0.993 LW
N
751.167 321.84 M
157.833 321.84 L
S
GR
GS
[0.5035 0 0 0.5035 0 -0.27972] CT
0.775 GC
[1 3] 0 setdash
2 LJ
0.993 LW
N
751.167 293.36 M
157.833 293.36 L
S
GR
GS
[0.5035 0 0 0.5035 0 -0.27972] CT
0.775 GC
[1 3] 0 setdash
2 LJ
0.993 LW
N
751.167 279.12 M
157.833 279.12 L
S
GR
GS
[0.5035 0 0 0.5035 0 -0.27972] CT
0.775 GC
[1 3] 0 setdash
2 LJ
0.993 LW
N
751.167 264.88 M
157.833 264.88 L
S
GR
GS
[0.5035 0 0 0.5035 0 -0.27972] CT
0.775 GC
[1 3] 0 setdash
2 LJ
0.993 LW
N
751.167 250.64 M
157.833 250.64 L
S
GR
GS
[0.5035 0 0 0.5035 0 -0.27972] CT
0.775 GC
[1 3] 0 setdash
2 LJ
0.993 LW
N
751.167 222.16 M
157.833 222.16 L
S
GR
GS
[0.5035 0 0 0.5035 0 -0.27972] CT
0.775 GC
[1 3] 0 setdash
2 LJ
0.993 LW
N
751.167 207.92 M
157.833 207.92 L
S
GR
GS
[0.5035 0 0 0.5035 0 -0.27972] CT
0.775 GC
[1 3] 0 setdash
2 LJ
0.993 LW
N
751.167 193.68 M
157.833 193.68 L
S
GR
GS
[0.5035 0 0 0.5035 0 -0.27972] CT
0.775 GC
[1 3] 0 setdash
2 LJ
0.993 LW
N
751.167 179.44 M
157.833 179.44 L
S
GR
GS
[0.5035 0 0 0.5035 0 -0.27972] CT
0.775 GC
[1 3] 0 setdash
2 LJ
0.993 LW
N
751.167 150.96 M
157.833 150.96 L
S
GR
GS
[0.5035 0 0 0.5035 0 -0.27972] CT
0.775 GC
[1 3] 0 setdash
2 LJ
0.993 LW
N
751.167 136.72 M
157.833 136.72 L
S
GR
GS
[0.5035 0 0 0.5035 0 -0.27972] CT
0.775 GC
[1 3] 0 setdash
2 LJ
0.993 LW
N
751.167 122.48 M
157.833 122.48 L
S
GR
GS
[0.5035 0 0 0.5035 0 -0.27972] CT
0.775 GC
[1 3] 0 setdash
2 LJ
0.993 LW
N
751.167 108.24 M
157.833 108.24 L
S
GR
GS
[0.5035 0 0 0.5035 0 -0.27972] CT
0.873 GC
1 LJ
0.993 LW
N
751.167 450 M
157.833 450 L
S
GR
GS
[0.5035 0 0 0.5035 0 -0.27972] CT
0.873 GC
1 LJ
0.993 LW
N
751.167 378.8 M
157.833 378.8 L
S
GR
GS
[0.5035 0 0 0.5035 0 -0.27972] CT
0.873 GC
1 LJ
0.993 LW
N
751.167 307.6 M
157.833 307.6 L
S
GR
GS
[0.5035 0 0 0.5035 0 -0.27972] CT
0.873 GC
1 LJ
0.993 LW
N
751.167 236.4 M
157.833 236.4 L
S
GR
GS
[0.5035 0 0 0.5035 0 -0.27972] CT
0.873 GC
1 LJ
0.993 LW
N
751.167 165.2 M
157.833 165.2 L
S
GR
GS
[0.5035 0 0 0.5035 0 -0.27972] CT
0.873 GC
1 LJ
0.993 LW
N
751.167 94 M
157.833 94 L
S
GR
GS
[0.5035 0 0 0.5035 0 -0.27972] CT
0.149 GC
2 setlinecap
1 LJ
0.993 LW
N
157.833 450 M
751.167 450 L
S
GR
GS
[0.5035 0 0 0.5035 0 -0.27972] CT
0.149 GC
2 setlinecap
1 LJ
0.993 LW
N
157.833 94 M
751.167 94 L
S
GR
GS
[0.5035 0 0 0.5035 0 -0.27972] CT
0.149 GC
2 setlinecap
1 LJ
0.993 LW
N
242.595 450 M
242.595 444.067 L
S
GR
GS
[0.5035 0 0 0.5035 0 -0.27972] CT
0.149 GC
2 setlinecap
1 LJ
0.993 LW
N
348.548 450 M
348.548 444.067 L
S
GR
GS
[0.5035 0 0 0.5035 0 -0.27972] CT
0.149 GC
2 setlinecap
1 LJ
0.993 LW
N
454.5 450 M
454.5 444.067 L
S
GR
GS
[0.5035 0 0 0.5035 0 -0.27972] CT
0.149 GC
2 setlinecap
1 LJ
0.993 LW
N
560.452 450 M
560.452 444.067 L
S
GR
GS
[0.5035 0 0 0.5035 0 -0.27972] CT
0.149 GC
2 setlinecap
1 LJ
0.993 LW
N
666.405 450 M
666.405 444.067 L
S
GR
GS
[0.5035 0 0 0.5035 0 -0.27972] CT
0.149 GC
2 setlinecap
1 LJ
0.993 LW
N
242.595 94 M
242.595 99.933 L
S
GR
GS
[0.5035 0 0 0.5035 0 -0.27972] CT
0.149 GC
2 setlinecap
1 LJ
0.993 LW
N
348.548 94 M
348.548 99.933 L
S
GR
GS
[0.5035 0 0 0.5035 0 -0.27972] CT
0.149 GC
2 setlinecap
1 LJ
0.993 LW
N
454.5 94 M
454.5 99.933 L
S
GR
GS
[0.5035 0 0 0.5035 0 -0.27972] CT
0.149 GC
2 setlinecap
1 LJ
0.993 LW
N
560.452 94 M
560.452 99.933 L
S
GR
GS
[0.5035 0 0 0.5035 0 -0.27972] CT
0.149 GC
2 setlinecap
1 LJ
0.993 LW
N
666.405 94 M
666.405 99.933 L
S
GR
GS
[0.5035 0 0 0.5035 0 -0.27972] CT
0.149 GC
2 setlinecap
1 LJ
0.993 LW
N
157.833 450 M
157.833 94 L
S
GR
GS
[0.5035 0 0 0.5035 0 -0.27972] CT
0.149 GC
2 setlinecap
1 LJ
0.993 LW
N
751.167 450 M
751.167 94 L
S
GR
GS
[0.5035 0 0 0.5035 0 -0.27972] CT
0.149 GC
2 setlinecap
1 LJ
0.993 LW
N
157.833 450 M
163.767 450 L
S
GR
GS
[0.5035 0 0 0.5035 0 -0.27972] CT
0.149 GC
2 setlinecap
1 LJ
0.993 LW
N
157.833 378.8 M
163.767 378.8 L
S
GR
GS
[0.5035 0 0 0.5035 0 -0.27972] CT
0.149 GC
2 setlinecap
1 LJ
0.993 LW
N
157.833 307.6 M
163.767 307.6 L
S
GR
GS
[0.5035 0 0 0.5035 0 -0.27972] CT
0.149 GC
2 setlinecap
1 LJ
0.993 LW
N
157.833 236.4 M
163.767 236.4 L
S
GR
GS
[0.5035 0 0 0.5035 0 -0.27972] CT
0.149 GC
2 setlinecap
1 LJ
0.993 LW
N
157.833 165.2 M
163.767 165.2 L
S
GR
GS
[0.5035 0 0 0.5035 0 -0.27972] CT
0.149 GC
2 setlinecap
1 LJ
0.993 LW
N
157.833 94 M
163.767 94 L
S
GR
GS
[0.5035 0 0 0.5035 0 -0.27972] CT
0.149 GC
2 setlinecap
1 LJ
0.993 LW
N
751.167 450 M
745.233 450 L
S
GR
GS
[0.5035 0 0 0.5035 0 -0.27972] CT
0.149 GC
2 setlinecap
1 LJ
0.993 LW
N
751.167 378.8 M
745.233 378.8 L
S
GR
GS
[0.5035 0 0 0.5035 0 -0.27972] CT
0.149 GC
2 setlinecap
1 LJ
0.993 LW
N
751.167 307.6 M
745.233 307.6 L
S
GR
GS
[0.5035 0 0 0.5035 0 -0.27972] CT
0.149 GC
2 setlinecap
1 LJ
0.993 LW
N
751.167 236.4 M
745.233 236.4 L
S
GR
GS
[0.5035 0 0 0.5035 0 -0.27972] CT
0.149 GC
2 setlinecap
1 LJ
0.993 LW
N
751.167 165.2 M
745.233 165.2 L
S
GR
GS
[0.5035 0 0 0.5035 0 -0.27972] CT
0.149 GC
2 setlinecap
1 LJ
0.993 LW
N
751.167 94 M
745.233 94 L
S
GR
GS
[0.5035 0 0 0.5035 75.46855 226.2937] CT
0.149 GC
/Helvetica 19.861 F
GS
[1 0 0 1 0 0] CT
-13 7 moveto 
1 -1 scale
(4) t 
GR
GR
GS
[0.5035 0 0 0.5035 75.46855 190.44475] CT
0.149 GC
/Helvetica 19.861 F
GS
[1 0 0 1 0 0] CT
-32 7 moveto 
1 -1 scale
(4.5) t 
GR
GR
GS
[0.5035 0 0 0.5035 75.46855 154.5958] CT
0.149 GC
/Helvetica 19.861 F
GS
[1 0 0 1 0 0] CT
-13 7 moveto 
1 -1 scale
(5) t 
GR
GR
GS
[0.5035 0 0 0.5035 75.46855 118.74685] CT
0.149 GC
/Helvetica 19.861 F
GS
[1 0 0 1 0 0] CT
-32 7 moveto 
1 -1 scale
(5.5) t 
GR
GR
GS
[0.5035 0 0 0.5035 75.46855 82.8979] CT
0.149 GC
/Helvetica 19.861 F
GS
[1 0 0 1 0 0] CT
-13 7 moveto 
1 -1 scale
(6) t 
GR
GR
GS
[0.5035 0 0 0.5035 75.46855 47.04895] CT
0.149 GC
/Helvetica 19.861 F
GS
[1 0 0 1 0 0] CT
-32 7 moveto 
1 -1 scale
(6.5) t 
GR
GR
GS
[0 -0.5035 0.5035 0 56.35667 136.67126] CT
0.149 GC
/Helvetica 21.847 F
GS
[1 0 0 1 0 0] CT
-135.5 -6 moveto 
1 -1 scale
(Translational error [mm]) t 
GR
GR
GS
[0.5035 0 0 0.5035 228.83936 45.66432] CT
/Helvetica-Bold 21.847 F
GS
[1 0 0 1 0 0] CT
-278 -33 moveto 
1 -1 scale
(Robot-camera calibration error with 99 % CI,) t 
GR
GR
GS
[0.5035 0 0 0.5035 228.83936 45.66432] CT
/Helvetica-Bold 21.847 F
GS
[1 0 0 1 0 0] CT
-211 -6 moveto 
1 -1 scale
(10-repeat 10-fold cross validation) t 
GR
GR
GS
[0.5035 0 0 0.5035 0 -0.27972] CT
0 0 1 RC
1 LJ
0.993 LW
N
348.548 200.729 M
348.548 136.481 L
S
GR
GS
[0.5035 0 0 0.5035 0 -0.27972] CT
0 0 1 RC
1 LJ
0.993 LW
N
560.452 171.516 M
560.452 110.373 L
S
GR
GS
[0.5035 0 0 0.5035 0 -0.27972] CT
0 0 1 RC
1 LJ
0.993 LW
N
333.714 200.729 M
363.381 200.729 L
S
GR
GS
[0.5035 0 0 0.5035 0 -0.27972] CT
0 0 1 RC
1 LJ
0.993 LW
N
545.619 171.516 M
575.286 171.516 L
S
GR
GS
[0.5035 0 0 0.5035 0 -0.27972] CT
0 0 1 RC
1 LJ
0.993 LW
N
333.714 136.481 M
363.381 136.481 L
S
GR
GS
[0.5035 0 0 0.5035 0 -0.27972] CT
0 0 1 RC
1 LJ
0.993 LW
N
545.619 110.373 M
575.286 110.373 L
S
GR
GS
[0.5035 0 0 0.5035 0 -0.27972] CT
0 0 1 RC
1 LJ
0.993 LW
N
157.774 187.651 M
348.548 168.605 L
560.452 140.945 L
S
GR
GS
[0.5035 0 0 0.5035 175.4925 84.61237] CT
0 0 1 RC
N
1.986 0 M
1.986 1.097 1.097 1.986 0 1.986 C
-1.097 1.986 -1.986 1.097 -1.986 0 C
-1.986 -1.097 -1.097 -1.986 0 -1.986 C
1.097 -1.986 1.986 -1.097 1.986 0 C
cp
f
GR
GS
[0.5035 0 0 0.5035 282.18582 70.68553] CT
0 0 1 RC
N
1.986 0 M
1.986 1.097 1.097 1.986 0 1.986 C
-1.097 1.986 -1.986 1.097 -1.986 0 C
-1.986 -1.097 -1.097 -1.986 0 -1.986 C
1.097 -1.986 1.986 -1.097 1.986 0 C
cp
f
GR
GS
[0.5035 0 0 0.5035 0 -0.27972] CT
1 0 0 RC
1 LJ
0.993 LW
N
348.548 391.71 M
348.548 203.547 L
S
GR
GS
[0.5035 0 0 0.5035 0 -0.27972] CT
1 0 0 RC
1 LJ
0.993 LW
N
560.452 406.134 M
560.452 206.27 L
S
GR
GS
[0.5035 0 0 0.5035 0 -0.27972] CT
1 0 0 RC
1 LJ
0.993 LW
N
333.714 391.71 M
363.381 391.71 L
S
GR
GS
[0.5035 0 0 0.5035 0 -0.27972] CT
1 0 0 RC
1 LJ
0.993 LW
N
545.619 406.134 M
575.286 406.134 L
S
GR
GS
[0.5035 0 0 0.5035 0 -0.27972] CT
1 0 0 RC
1 LJ
0.993 LW
N
333.714 203.547 M
363.381 203.547 L
S
GR
GS
[0.5035 0 0 0.5035 0 -0.27972] CT
1 0 0 RC
1 LJ
0.993 LW
N
545.619 206.27 M
575.286 206.27 L
S
GR
GS
[0.5035 0 0 0.5035 0 -0.27972] CT
1 0 0 RC
1 LJ
0.993 LW
N
157.774 333.69 M
348.548 297.629 L
560.452 306.202 L
S
GR
GS
[0.5035 0 0 0.5035 175.4925 149.57519] CT
1 0 0 RC
N
1.986 0 M
1.986 1.097 1.097 1.986 0 1.986 C
-1.097 1.986 -1.986 1.097 -1.986 0 C
-1.986 -1.097 -1.097 -1.986 0 -1.986 C
1.097 -1.986 1.986 -1.097 1.986 0 C
cp
f
GR
GS
[0.5035 0 0 0.5035 282.18582 153.8919] CT
1 0 0 RC
N
1.986 0 M
1.986 1.097 1.097 1.986 0 1.986 C
-1.097 1.986 -1.986 1.097 -1.986 0 C
-1.986 -1.097 -1.097 -1.986 0 -1.986 C
1.097 -1.986 1.986 -1.097 1.986 0 C
cp
f
GR
GS
[0.5035 0 0 0.5035 0 -0.27972] CT
1 GC
N
451 162 M
451 114 L
731 114 L
731 162 L
cp
f
GR
GS
[0.5035 0 0 0.5035 245.70629 63.59685] CT
/Helvetica 17.875 F
GS
[1 0 0 1 0 0] CT
0 6 moveto 
1 -1 scale
(Training RMSE, translation) t 
GR
GR
GS
[0.5035 0 0 0.5035 0 -0.27972] CT
0 0 1 RC
1 LJ
0.993 LW
N
455 126.866 M
485 126.866 L
S
GR
GS
[0.5035 0 0 0.5035 236.64335 63.59685] CT
0 0 1 RC
N
1.986 0 M
1.986 1.097 1.097 1.986 0 1.986 C
-1.097 1.986 -1.986 1.097 -1.986 0 C
-1.986 -1.097 -1.097 -1.986 0 -1.986 C
1.097 -1.986 1.986 -1.097 1.986 0 C
cp
f
GR
GS
[0.5035 0 0 0.5035 245.70629 74.80873] CT
/Helvetica 17.875 F
GS
[1 0 0 1 0 0] CT
0 6 moveto 
1 -1 scale
(Test RMSE, translation) t 
GR
GR
GS
[0.5035 0 0 0.5035 0 -0.27972] CT
1 0 0 RC
1 LJ
0.993 LW
N
455 149.134 M
485 149.134 L
S
GR
GS
[0.5035 0 0 0.5035 236.64335 74.80873] CT
1 0 0 RC
N
1.986 0 M
1.986 1.097 1.097 1.986 0 1.986 C
-1.097 1.986 -1.986 1.097 -1.986 0 C
-1.986 -1.097 -1.097 -1.986 0 -1.986 C
1.097 -1.986 1.986 -1.097 1.986 0 C
cp
f
GR
GS
[0.5035 0 0 0.5035 0 -0.27972] CT
0.149 GC
10.0 ML
0.993 LW
N
451 162 M
451 114 L
731 114 L
731 162 L
cp
S
GR
%%Trailer
%%Pages: 1
%%EOF
